attribute_set,type,category_ids,sku,name,wattusage,wattstandby,energystarcertified,wattreferenceurl,modelnumber,price,weight,status,visibility,tax_class_id,description,short_description
Default,simple,"3,23",AcerA211PH_t,Acer A211PH_t,20.1,0.38,Yes,http://www.energystar.gov,A211PH,1,1,Disabled,"Catalog, Search",None,Acer A211PH_t,Acer A211PH_t
Default,simple,"3,23",AcerA221HQ_t,Acer A221HQ_t,20.1,0.38,Yes,http://www.energystar.gov,A221HQ,1,1,Disabled,"Catalog, Search",None,Acer A221HQ_t,Acer A221HQ_t
Default,simple,"3,23",AcerA221HQL_t,Acer A221HQL_t,16.8,0.34,Yes,http://www.energystar.gov,A221HQL,1,1,Disabled,"Catalog, Search",None,Acer A221HQL_t,Acer A221HQL_t
Default,simple,"3,23",AcerA221PHQ_t,Acer A221PHQ_t,20.1,0.38,Yes,http://www.energystar.gov,A221PHQ,1,1,Disabled,"Catalog, Search",None,Acer A221PHQ_t,Acer A221PHQ_t
