


  
  










  
  
  











<html>
<head>
<script type="text/javascript">var ue_t0=ue_t0||+new Date();</script>
<script type="text/javascript">
var ue_hob=+new Date();

var ue_id='1YSZ4D73FWPETK4EKV7F',
ue_csm = window,
ue_err_chan = 'jserr-rw',
ue = {};
(function(a){var d=a.ue=a.ue||{},f=Date.now||function(){return+new Date};d.d=function(b){return f()-(b?0:a.ue_t0)};d.stub=function(b,c){if(!b[c]){var e=[];b[c]=function(){e.push([e.slice.call(arguments),d.d(),a.ue_id])};b[c].replay=function(b){for(var a;a=e.shift();)b(a[0],a[1],a[2])};b[c].isStub=1}}})(ue_csm);

ue.stub(ue,"log");ue.stub(ue,"onunload");ue.stub(ue,"onflush");

(function(c,d){function e(f,b){if(!(a.ec>a.mxe)&&f){a.ec++;a.ter.push(f);b=b||{};var c=f.logLevel||b.logLevel;c&&c!=h||a.ecf++;b.pageURL=""+(d.location?d.location.href:"");b.logLevel=c;b.attribution=f.attribution||b.attribution;a.erl.push({ex:f,info:b})}}function g(a,b,d,e,g){c.ueLogError({m:a,f:b,l:d,c:""+e,err:g,fromOnError:1,args:arguments});return!1}var h="FATAL",a={ec:0,ecf:0,pec:0,ts:0,erl:[],ter:[],mxe:50,startTimer:function(){a.ts++;setInterval(function(){c.ue&&a.pec<a.ec&&c.uex("at");a.pec=
a.ec},1E4)}};g.skipTrace=1;e.skipTrace=1;e.isStub=1;c.ueLogError=e;c.ue_err=a;d.onerror=g})(ue_csm,window);



var ue_url='http://www.amazon.com/reviews/iframe/uedata/nvp/unsticky/179-7134636-5271800/CustomerReviews/ntpoffrw',
ue_sid='179-7134636-5271800',
ue_mid='ATVPDKIKX0DER',
ue_sn='www.amazon.com',
ue_furl='fls-na.amazon.com',
ue_navtiming=1,
ue_log_idx=0,
ue_fcsn=1,
ue_isrw=true,
ue_fpf='//fls-na.amazon.com/1/batch/1/OP/ATVPDKIKX0DER:179-7134636-5271800:1YSZ4D73FWPETK4EKV7F$uedata=s:',
ue_fpfp='//fls-na.amazon.com/1/uedata/1/OP/ATVPDKIKX0DER:179-7134636-5271800:1YSZ4D73FWPETK4EKV7F$s:',
ue_lnb=0,
ue_lwl=0,
ue_ran=0,
ue_qsl=7000,
ue_bli=1,
ue_sbl=0,
ue_mce='click';
if (!window.ue_csm) {var ue_csm = window;}
function ue_viz(){(function(c,e,a){function k(b){if(c.ue.viz.length<p&&!l){var a=b.type;b=b.originalEvent;/^focus./.test(a)&&b&&(b.toElement||b.fromElement||b.relatedTarget)||(a=e[m]||("blur"==a||"focusout"==a?"hidden":"visible"),c.ue.viz.push(a+":"+(+new Date-c.ue.t0)),"visible"==a&&(ue.isl&&uex("at"),l=1))}}for(var l=0,f,g,m,n=["","webkit","o","ms","moz"],d=0,p=20,h=0;h<n.length&&!d;h++)if(a=n[h],f=(a?a+"H":"h")+"idden",d="boolean"==typeof e[f])g=a+"visibilitychange",m=(a?a+"V":"v")+"isibilityState";
k({});d&&e.addEventListener(g,k,0);c.ue&&d&&(c.ue.pageViz={event:g,propHid:f})})(ue_csm,document,window)};

(function(a,f){function y(a){return a&&a.replace&&a.replace(/^\s+|\s+$/g,"")}function q(a){return"undefined"===typeof a}function u(d,c,e,f){f=f||+new Date;var l,h;if(c||q(e)){if(d)for(h in l=c?g("t",c)||g("t",c,{}):a.ue.t,l[d]=f,e)e.hasOwnProperty(h)&&g(h,c,e[h]);return f}}function g(d,c,e){var f=a.ue,g=c&&c!=f.id?f.sc[c]:f;g||(g=f.sc[c]={});"id"==d&&e&&(f.cfa2=1,a.ue_ran&&(a.ue_cel&&a.ue_cel.reset(e),a.ue.log.reset&&a.ue.log.reset()));return g[d]=e||g[d]}function B(d,c,e,f,g){e="on"+e;var h=c[e];
"function"===typeof h?d&&(a.ue.h[d]=h):h=function(){};c[e]=g?function(a){f(a);h(a)}:function(a){h(a);f(a)};c[e].isUeh=1}function C(d,c,e){function v(c,e){var b=[c],f=0,h={},m,k;e?(b.push("m=1"),h[e]=1):h=a.ue.sc;for(k in h)if(h.hasOwnProperty(k)){var l=g("wb",k),n=g("t",k)||{},v=g("t0",k)||a.ue.t0,p;if(e||2==l){l=l?f++:"";b.push("sc"+l+"="+k);for(p in n)3>=p.length&&!q(n[p])&&null!==n[p]&&b.push(p+l+"="+(n[p]-v));b.push("t"+l+"="+n[d]);if(g("ctb",k)||g("wb",k))m=1}}!z&&m&&b.push("ctb=1");return b.join("&")}
function l(c,b,e,d){if(c){var g=a.ue_err,h;if(!d||!a.ue.log)if(D&&f[r]&&f[r][x])f[r][x](c);else h=new Image,a.ue.iel.push(h),h.src=c;G?a.ue_fpf&&f.encodeURIComponent&&c&&a.ue_fpfp&&(D&&f[r]&&f[r][x]?(c=""+a.ue_fpfp+f.encodeURIComponent(c)+":"+(+new Date-a.ue_t0),f[r][x](c)):(d=new Image,c=""+a.ue_fpf+f.encodeURIComponent(c)+":"+(+new Date-a.ue_t0),a.ue.iel.push(d),d.src=c)):a.ue.log&&(h=f.chrome&&"ul"==b,a.ue.log(c,"uedata",a.ue_svi?{n:1,img:!d&&h?1:0}:{n:1}),a.ue.ielf.push(c));g&&!g.ts&&g.startTimer();
a.ue.b&&(g=a.ue.b,a.ue.b="",l(g,b,e,1))}}function h(c){if(!ue.collected){var b=c.timing,e=c.navigation,d=ue.t;b&&(d.na_=b.navigationStart,d.ul_=b.unloadEventStart,d._ul=b.unloadEventEnd,d.rd_=b.redirectStart,d._rd=b.redirectEnd,d.fe_=b.fetchStart,d.lk_=b.domainLookupStart,d._lk=b.domainLookupEnd,d.co_=b.connectStart,d._co=b.connectEnd,d.sc_=b.secureConnectionStart,d.rq_=b.requestStart,d.rs_=b.responseStart,d._rs=b.responseEnd,d.dl_=b.domLoading,d.di_=b.domInteractive,d.de_=b.domContentLoadedEventStart,
d._de=b.domContentLoadedEventEnd,d._dc=b.domComplete,d.ld_=b.loadEventStart,d._ld=b.loadEventEnd,b=d.na_,c="function"!==typeof c.now||q(b)?0:new Date(b+c.now())-new Date,d.ntd=c+a.ue.t0);e&&(d.ty=e.type+a.ue.t0,d.rc=e.redirectCount+a.ue.t0);ue.collected=1}}function t(b){var c=p&&p.navigation?p.navigation.type:A,d=c&&2!=c,e=a.ue.bfini;a.ue.cfa2||(e&&1<e&&(b+="&bfform=1",d||(a.ue.isBFT=e-1)),2==c&&(b+="&bfnt=1",a.ue.isBFT=a.ue.isBFT||1),a.ue.ssw&&a.ue.isBFT&&(q(a.ue.isNRBF)&&(c=a.ue.ssw(a.ue.oid),c.e||
q(c.val)||(a.ue.isNRBF=1<c.val?0:1)),q(a.ue.isNRBF)||(b+="&nrbf="+a.ue.isNRBF)),a.ue.isBFT&&!a.ue.isNRBF&&(b+="&bft="+a.ue.isBFT));return b}if(c||q(e)){for(var n in e)e.hasOwnProperty(n)&&g(n,c,e[n]);u("pc",c,e);n=g("id",c)||a.ue.id;var b=a.ue.url+"?"+d+"&v="+a.ue.v+"&id="+n,z=g("ctb",c)||g("wb",c),p=f.performance||f.webkitPerformance,m,k;z&&(b+="&ctb="+z);1<a.ueinit&&(b+="&ic="+a.ueinit);!a.ue._fi||"at"!=d||c&&c!=n||(b+=a.ue._fi());if(!("ld"!=d&&"ul"!=d||c&&c!=n)){if("ld"==d){f.onbeforeunload&&f.onbeforeunload.isUeh&&
(f.onbeforeunload=null);if(f.chrome)for(k=0;k<ue.ulh.length;k++)E("beforeunload",ue.ulh[k]);(k=document.ue_backdetect)&&k.ue_back&&k.ue_back.value++;a._uess&&(m=a._uess());a.ue.isl=1}a.ue_navtiming&&p&&p.timing&&(g("ctb",n,"1"),1==a.ue_navtiming&&u("tc",A,A,p.timing.navigationStart));p&&h(p);a.ue.t.hob=a.ue_hob;a.ue.t.hoe=a.ue_hoe;a.ue.ifr&&(b+="&ifr=1")}u(d,c,e);e="ld"==d&&c&&g("wb",c);var w;e?g("wb",c,2):"ld"==d&&(s.lid=y(n));for(w in a.ue.sc)if(1==g("wb",w))break;if(e){if(a.ue.s)return;b=v(b,null)}else k=
v(b,null),k!=b&&(k=t(k),a.ue.b=k),m&&(b+=m),b=v(b,c||a.ue.id);b=t(b);if(a.ue.b||e)for(w in a.ue.sc)2==g("wb",w)&&delete a.ue.sc[w];m=0;ue._rt&&(b+="&rt="+ue._rt());ue._bf&&(b+="&bf="+ue._bf());e||(a.ue.s=0,(m=a.ue_err)&&0<m.ec&&m.pec<m.ec&&(m.pec=m.ec,b+="&ec="+m.ec+"&ecf="+m.ecf),m=g("ctb",c),g("t",c,{}));b&&a.ue.tag&&0<a.ue.tag().length&&(b+="&csmtags="+a.ue.tag().join("|"),a.ue.tag=a.ue.tagC());b&&a.ue.viz&&0<a.ue.viz.length&&(b+="&viz="+a.ue.viz.join("|"),a.ue.viz=[]);b&&!q(a.ue_pty)&&(b+="&pty="+
a.ue_pty+"&spty="+a.ue_spty+"&pti="+a.ue_pti);b&&a.ue.tabid&&(b+="&tid="+a.ue.tabid);b&&a.ue.aftb&&(b+="&aftb=1");b&&a.ue.sbf&&(b+="&sbf=1");!a.ue._ui||c&&c!=n||(b+=a.ue._ui());a.ue.a=b;l(b,d,m,e)}}function t(a,c,e){e=e||f;e.addEventListener?e.addEventListener(a,c,!1):e.attachEvent&&e.attachEvent("on"+a,c)}function E(a,c,e){e=e||f;e.removeEventListener?e.removeEventListener(a,c,!1):e.detachEvent&&e.detachEvent("on"+a,c)}function F(){function d(){a.onUl()}function c(a){return function(){e[a]||(e[a]=
1,C(a))}}var e=a.ue.r,g,l;a.onLd=c("ld");a.onLdEnd=c("ld");a.onUl=c("ul");g={stop:c("os")};f.chrome?(t("beforeunload",d),ue.ulh.push(d)):g[H]=a.onUl;for(l in g)g.hasOwnProperty(l)&&B(0,f,l,g[l]);a.ue_viz&&ue_viz();t("load",a.onLd);u("ue")}a.ueinit=(a.ueinit||0)+1;var s={t0:f.aPageStart||a.ue_t0,id:a.ue_id,url:a.ue_url,rid:a.ue_id,a:"",b:"",h:{},r:{ld:0,oe:0,ul:0},s:1,t:{},sc:{},iel:[],ielf:[],fc_idx:{},viz:[],v:"0.850.0",d:a.ue&&a.ue.d,log:a.ue&&a.ue.log,clog:a.ue&&a.ue.clog,onflush:a.ue&&a.ue.onflush,
onunload:a.ue&&a.ue.onunload,stub:a.ue&&a.ue.stub,lr:a.ue&&a.ue.lr,ulh:[],cfa2:0},G=a.ue_fpf?1:0,D=a.ue_sbl,H="beforeunload",r="navigator",x="sendBeacon",A;s.oid=y(s.id);s.lid=y(s.id);a.ue=s;a.ue._t0=a.ue.t0;a.ue.tagC=function(){var a={};return function(c){c&&(a[c]=1);c=[];for(var e in a)a.hasOwnProperty(e)&&c.push(e);return c}};a.ue.tag=a.ue.tagC();a.ue.ifr=f.top!==f.self||f.frameElement?1:0;ue.attach=t;ue.detach=E;ue.reset=function(d,c){d&&(a.ue_cel&&a.ue_cel.reset(),a.ue.t0=+new Date,a.ue.rid=
d,a.ue.id=d,a.ue.fc_idx={},a.ue.viz=[])};a.uei=F;a.ueh=B;a.ues=g;a.uet=u;a.uex=C;F()})(ue_csm,window);



(function(g){var a=g.ue;a.cv={};a.cv.scopes={};a.count=function(d,e,c){var b={},f=a.cv;b.counter=d;b.value=e;b.t=a.d();c&&c.scope&&(f=a.cv.scopes[c.scope]=a.cv.scopes[c.scope]||{},b.scope=c.scope);if(void 0===e)return f[d];f[d]=e;a.clog?a.clog(b,"csmcount"):a.log&&a.log(b,"csmcount",{c:1,bf:0})};a.count("baselineCounter2",1)})(ue_csm);

var ue_hoe=+new Date();
</script>

























<link href='http://z-ecx.images-amazon.com/images/G/01/nav2/gamma/websiteGlobalCSS/websiteGlobalCSS-websiteGlobal-10346._V1_.css' type='text/css' rel='stylesheet'>
<style type="text/css"><!--

.sans, .small, .h1, .h3color, .big, .tiny, .tinyprice, .highlight, .eyebrow,
    a:active, a:visited, a:link, div.unified_widget p.seeMore,
    div.unified_widget .carat, div.left_nav .carat, div.left_nav, div.left_nav
    h2, div.left_nav h3, div.left_nav a:link, div.left_nav a:visited,
    .popover-tiny, .horizontal-search, .horizontal-websearch, .topnav,
    .topnav-active a:link, .tabon a, .tabon a:visited, .taboff a, .taboff
    a:visited div.leftnav_popover h2, .signInMsg{
  font-family: verdana,arial,helvetica,sans-serif;
}
.listprice {
  font-family: arial,verdana,helvetica,sans-serif;
}
.price {
  font-family: arial,verdana,helvetica,sans-serif;
}
.serif, .sans, .h1, div.unified_widget .headline{
  font-size: medium;
}
.big {
  font-size: xx-large;
}
.small, .h3color, .highlight, .horizontal-search {
  font-size: small;
}
.signInMsg {
  font-size: x-small;
}
.tiny, .tinyprice, .popover-tiny, .horizontal-websearch {
  font-size: x-small;
}
body, td, th {
  font-family: verdana,arial,helvetica,sans-serif;
  font-size: small;
}
.eyebrowBackGroundColor {
  background-color: ;
}
div.left_nav, div.left_nav a:link, div.left_nav a:visited {
  font-family: Arial, sans-serif;
}

body {
  color: #000000;
  margin-top: 0px;
}
--></style> 




<style type="text/css"><!--

.crAuthorInfo {
  font-family:               verdana;
  font-size:                 0.86em;
  margin-left:               80px;
}

.crAuthorInfoCredibility {
  font-family:               verdana;
  font-size:                 0.86em;
}

.crBlue-bevel {
  background:                url(http://g-ecx.images-amazon.com/images/G/01/x-locale/communities/reviews/sliced-box-tbevel._V192249888_.gif) repeat-x top;
  height:                    1.45em;
}

.crBlueBorder-tl {
  background:                url(http://g-ecx.images-amazon.com/images/G/01/x-locale/communities/reviews/border-box-tl._V192249923_.gif) no-repeat top left;
  width:                     1em;
}
                                                                                                                                                             
.crBlueBorder-tc {
  background:                url(http://g-ecx.images-amazon.com/images/G/01/x-locale/communities/reviews/border-box-tc._V192249922_.gif) repeat-x top;
}
                                                                                                                                                             
.crBlueBorder-tr {
  background:                url(http://g-ecx.images-amazon.com/images/G/01/x-locale/communities/reviews/border-box-tr._V192249949_.gif) no-repeat top right;
  width:                     1em;
}
                                                                                                                                                             
.crBlueBorder-bl {
  background:                url(http://g-ecx.images-amazon.com/images/G/01/x-locale/communities/reviews/border-box-bl._V192249926_.gif) no-repeat bottom left;
}
                                                                                                                                                             
.crBlueBorder-bc {
  background:                url(http://g-ecx.images-amazon.com/images/G/01/x-locale/communities/reviews/border-box-bc._V192249923_.gif) repeat-x bottom;
}
                                                                                                                                                             
.crBlueBorder-br {
  background:                url(http://g-ecx.images-amazon.com/images/G/01/x-locale/communities/reviews/border-box-br._V192249923_.gif) no-repeat bottom right;
}

.crBox {
  background:                #DFEDF7;
  padding:                   0.2em 1.5em 0.2em 1.5em;
}

.crBox-tl {
  background:                #DFEDF7 url(http://g-ecx.images-amazon.com/images/G/01/x-locale/communities/reviews/box-tl._V192249949_.gif) no-repeat top left;
}

.crBox-tc {
  background:                url(http://g-ecx.images-amazon.com/images/G/01/x-locale/communities/reviews/box-tc._V192249950_.gif) repeat-x top;
}

.crBox-tr {
  background:                url(http://g-ecx.images-amazon.com/images/G/01/x-locale/communities/reviews/box-tr._V192249948_.gif) no-repeat top right;
}

.crBox-bl {
  background:                #DFEDF7 url(http://g-ecx.images-amazon.com/images/G/01/x-locale/communities/reviews/box-bl._V192249921_.gif) no-repeat bottom left;
}

.crBox-bc {
  background:                url(http://g-ecx.images-amazon.com/images/G/01/x-locale/communities/reviews/box-bc._V192249923_.gif) repeat-x bottom;
}

.crBox-br {
  background:                url(http://g-ecx.images-amazon.com/images/G/01/x-locale/communities/reviews/box-br._V192249949_.gif) no-repeat bottom right;
}

.crColumnEndMarker {
  clear:                     both;
  height:                    13px;
  background-image:          url(http://g-ecx.images-amazon.com/images/G/01/x-locale/communities/people/column-bottom-edge._V192250335_.gif);
  background-repeat:         no-repeat;
}

.crColumnEndMarker .rightEdge {
  float:                     right;
  background-image:          url(http://g-ecx.images-amazon.com/images/G/01/x-locale/communities/people/column-bottom-edge-right._V192250334_.gif);
  background-position:       right top;
  background-repeat:         no-repeat;
  width:                     13px;
  height:                    13px;
}


.crCdDotsBottom {
  clear:                     both;
  padding:                   1px;;
  font-size:                 0.0625em;
  margin:                    0 0 5px 0;
  background-image:          url(http://g-ecx.images-amazon.com/images/G/01/x-locale/communities/people/dotborder._V192250320_.gif);
  background-repeat:         repeat-x;
  background-position:       center;
}

.crDescription {
  font-family:               verdana;
  margin-left:               80px;
}


.crErrorMsg {
  color:                     red;
  font-weight:               bold;
}

.crFanlink {
  text-decoration: 	     none; 
  border-top-width:          0; 
  border-right-width:        0; 
  border-bottom-width:       1px;
  border-left-width:         0;
  border-top-color:          #146EB4;
  border-right-color:        #146EB4;
  border-bottom-color:       #146EB4;
  border-left-color:         #146EB4;
  border-top-style:          none;
  border-right-style:        none;
  border-bottom-style:       dashed;
  border-left-style:         none;
  color:                     #003399; 
}

.crFinePrint {
  font-size:                 0.7em;
  margin-top:                0.7em;
}

.crForm {
  width:                     100%;
  display:                   block;
}

.crHeaderText {
  color:                     #CC6600;
  padding-left:              0;
  padding-bottom:            5px;
  font-family:               helvetica,
  font-size:                 13px;
  font-weight:               bold;
  float:                     top;
  float:                     left;
}

h2.crHeading {
  color:                     #E47911;
  font-family:               Verdana,Helvetica,sans-serif;
  font-size:                 130%;
  margin:                    0 0 3px;
  padding-left:              0px;
}

h3.crHeading {
  color:                     #E47911;
  font-family:               Verdana,Helvetica,sans-serif;
  font-size:                 100%;
  margin:                    0 0 10px;
}

.crHeading {
  color:                     #c60;
  font-family:               sans-serif;
  font-size:                 1.5em;
  font-weight:               bold;
  padding-bottom:            0.5em;
  padding-left:              0.5em;
}

.crInnerBox {
  padding:                   0.6em 2em 0.6em 2em;
  background:                #EFF5F9;
  clear:                     both;
}

.crInnerBox-tl {
  background:                #EFF5F9 url(http://g-ecx.images-amazon.com/images/G/01/x-locale/communities/reviews/innerbox-tl._V192249896_.gif) no-repeat top left;
  clear: both;
}

.crInnerBox-tr {
  background:                #EFF5F9 url(http://g-ecx.images-amazon.com/images/G/01/x-locale/communities/reviews/innerbox-tr._V192249895_.gif) no-repeat top right;
  clear: both;
}

.crInnerBox-bl {
  background:                #EFF5F9 url(http://g-ecx.images-amazon.com/images/G/01/x-locale/communities/reviews/innerbox-bl._V192249902_.gif) no-repeat bottom left;
}

.crInnerBox-br {
  background:                url(http://g-ecx.images-amazon.com/images/G/01/x-locale/communities/reviews/innerbox-br._V192249902_.gif) no-repeat bottom right;
}

.crInputTitle {
  font-weight:               bold;
  vertical-align:            middle; 
}

.crInputFinePrint {
  color:                     #6E6E6E; 
  font-size:                 0.7em;
  padding-bottom:            1.5em; 
}

.crInput {
  padding:                   0em 0em 1.5em 0em;
  vertical-align:            middle;
}

.crInputFormField {
  font-family:               arial, helvetica, sans-serif;
}

.crInstruction {
  padding-bottom:            0.4em;
  float:                     left;
}

.crProductLinks {
  padding-bottom:            0.4em;
  float:                     right;
  vertical-align:            top;  
}

.crLargerTitle {
  font-family:               verdana, arial, helvetica, sans-serif;
  font-size:                 1.6em;
  color:                     #c60;
  padding-bottom:            5px;
  padding-top:               10px;
}

.crLine {
  clear:                     both;
  border:                    0;
  height:                    2px;
  color:                     #CADFE9;
  background-color:          #CADFE9;
  noshade:                   noshade;
}

.crPrevLeftButton {
  padding-left:              15px; 
  margin-bottom:             0px;
}

.crPrevRightButton {
  margin-bottom:             0px;
}

.crPicture {
  clear:                     both;
  float:                     left;
  text-align:                center;
  width:                     80px;
  overflow:                  hidden;
  padding-top:               0.2em;
}

.crReviewHeader  {
  font-family:               Verdana, Arial, Helvetica, sans-serif;
  font-size:                 1.5em;
  font-weight:               bold;
  color:                     #e47911;
  margin-top:                5px;
}

.crReviewSumBox {
  height:                    36px;
  background-image:          url(http://g-ecx.images-amazon.com/images/G/01/x-locale/communities/people/column-eyebrow-visitor._V192250334_.gif);
  background-repeat:         no-repeat;
  font-family:               verdana;
  font-size:                 36px;
}

.crReviewSumBox .titleText {
  float:                     left;
  font-weight:               bold;
  padding-left:              10px;
  padding-top:               10px;
  font-size:                 13px;
  font-family:               verdana;
  color:                     #000000;
  white-space:               nowrap;
}

.crReviewSumBox .rightEdge {
  background-image:          url(http://g-ecx.images-amazon.com/images/G/01/x-locale/communities/people/column-eyebrow-visitor-right._V192250335_.gif);
  width:                     12px;
  height:                    36px;
  background-repeat:         no-repeat;
  padding:                   0;
  float:                     right;
}

.crSectionTitle {
  color:                     #E57310;
  font-size:                 16px;
  font-weight:               bold;
  margin-top:                5px;
  margin-bottom:             5px;
}

.crProductReviewsSummary .crSolicitation {
  margin-top:               -20px;
}

.crSideHeading {
  color:                     #c60;
  font-weight:               bold;
  text-align:                center;
  padding-top:               0.4em;
}

.crStepNum {
  vertical-align:            top;
  padding:                   0em 0.6em 1.5em 0em;
}


.crTanBorder-tl {
  background:                url(http://g-ecx.images-amazon.com/images/G/01/x-locale/communities/boxes/boxfill/innerbox-tl._V192251350_.gif) no-repeat top left;
  width:                     1em;
}
                                                                                                                                                             
.crTanBorder-tc {
  background:                url(http://g-ecx.images-amazon.com/images/G/01/x-locale/communities/boxes/boxfill/innerbox-tc._V192251344_.gif) repeat-x top;
}
                                                                                                                                                             
.crTanBorder-tr {
  background:                url(http://g-ecx.images-amazon.com/images/G/01/x-locale/communities/boxes/boxfill/innerbox-tr._V192244553_.gif) no-repeat top right;
  width:                     1em;
}
                                                                                                                                                             
.crTanBorder-bl {
  background:                url(http://g-ecx.images-amazon.com/images/G/01/x-locale/communities/boxes/boxfill/innerbox-bl._V192251348_.gif) no-repeat bottom left;
}
                                                                                                                                                             
.crTanBorder-bc {
  background:                url(http://g-ecx.images-amazon.com/images/G/01/x-locale/communities/boxes/boxfill/innerbox-bc._V192241903_.gif) repeat-x bottom;
}
                                                                                                                                                             
.crTanBorder-br {
  background:                url(http://g-ecx.images-amazon.com/images/G/01/x-locale/communities/boxes/boxfill/innerbox-br._V192241895_.gif) no-repeat bottom right;
}

.crTextAreaHeader {
  background:                #B6CFE5;
  padding:                   0.4em 0em 0.4em 0em;
  width:                     620px;
}

.crTextTab {
  width:                     30%;
  float:                     left;
  white-space:               nowrap;
}

.crTextTabHeading {
  padding:                   0.3em 0 0.7em 0.6em;
}

.crThreadHeader {
  color:                     #CC6600;
  font-weight:               bold;
  float:                     left;
}

.crTipsBoxHeader {
  font-size:                 0.90em;
  font-weight:               bold;
  margin-bottom:             10px;
  margin-top:                10px;
}

.crTipsBoxTitle {
  color:                     #CC6600;
  font-size:                 1.1em;
  font-weight:               bold;
  margin-bottom:             10px;
}

h1.crTitle {
  color:                     #E47911;
  font-family:               Arial, Helvetica, sans-serif;
  font-size:                 218%;
  letter-spacing:            -0.03em;
  margin:                    0;
  padding:                   0;
}

.crTitle {
  font-family:               verdana, arial, helvetica, sans-serif;
  font-size:                 1.4em;
  font-weight:               bold;
}

.crTab-tl {
  background:                #EFF5F9 url(http://g-ecx.images-amazon.com/images/G/01/x-locale/communities/reviews/innerbox-tl._V192249896_.gif) no-repeat top left;
}

.crTab-tr {
  background:                url(http://g-ecx.images-amazon.com/images/G/01/x-locale/communities/reviews/innerbox-tr._V192249895_.gif) no-repeat top right;
}

.crVideoUpload {
  background:                #FFFFFF;
  border:                    0.1em solid #7F9DB9;
  text-align:                center;
  padding:                   0.4em;
}

.crVidTab {
  width:                     70%;
  float:                     left;
  white-space:               nowrap;
}

.crVidTabHeading {
  padding:                   0.3em 0 0.7em 0.6em;
}

table.crDataGrid th {
  background-color:          #EEEEEE;
  font-weight:               normal;
  font-size:                 70%;
  text-align:                left;
  color:                     #666666;
}

table.crDataGrid td {
  border-bottom:            1px solid #CCCCCC;
}

table.crDataGrid .img {
  height:                   92px;
}

table.crDataGrid .crNum {
  text-align:               right;
}

table.crDataGrid .crNumPercentHelpful {
  text-align:               right;
  padding-right:20px;
}

table.crDataGrid .crNumFanVoters {
  text-align:               right;
  border-left: solid 1px #cccccc;
}

ul.crBigBullet {
  margin:                    0em;
  padding:                   0em;
  list-style-image:          url(http://g-ecx.images-amazon.com/images/G/01/x-locale/communities/reviews/big-bullet._V192249925_.gif);
}

ul.crSmallBullet {

  padding-left:              0;
  margin:                    0.4em 0em 0.6em 1.5em;
  list-style-image:          url(http://g-ecx.images-amazon.com/images/G/01/x-locale/communities/reviews/small-bullet._V192249889_.gif);
}


.srCreateReview td.name {
  padding-left: 9px;
}

.srCreateReview .srPopoverList table.srList td a {
  margin-left: 0px;
}

.srCreateReview .srPopoverList table.srList td.name span.newAttribute {
  margin-left: 0px;
  color:       #000000;
}

.srCreateReview .srPopoverFooter {
  padding-left: 9px;
  padding-top:  9px;
}

.srCreateReview .srPopoverContentSection .heading {
  font-weight: normal;
}

#structuredRatingsList .cBox {
  width: 375px;
}

.structuredRatingsVisibilityLink {
  line-height: 2.5em;
  font-size: 0.86em;
}

.structuredRatingsVisibilityLinkText {
  margin-left: 5px;
}

#structuredRatingsListHelp {
  font-size: 0.86em;
  font-weight: normal;
}

#structuredRatingsList .srpopover .scrollSection {
  height: 210px;
}

.crVerifiedNew {
  font-size: 0.86em;
  font-weight: bold;
  color: #009900;
  margin-right: 0.5em;
} 

.crVerifyLearnMore {
  margin-left: 0.5em;
}

.crVerifiedPurchaseInputs {
  display: block;
  margin-bottom: 1em;
}

.crVerifiedBackfillSuboption {
  display: block;
  margin-left: 2em;
}

div.crCommentThread .cmPage {
  margin-left: 5px;
}

div#cdNonReplyPostBoxButton {
  margin-bottom: 40px;
}

#rdpItemInfo .crAvgStars {
  font-size: 10px;
}

.crIneligibleHeader {
  padding: 15px 9px 0 6px;
  color:                     #E47911;
  font-weight: 	             bold;
  font-size:                 218%;
  margin:                    0;
}

.crIneligibleMessage {
  font-size: 12px;
  border: solid 1px #0071B5;
  position: relative;
  background-color: #ffffdd;
  border-color: #E47911;
  padding: 18px 50px 18px 20px;
  margin: 10px 0 40px 10px;
}
.crIneligibleMessageImage {
  position: absolute;
}
.crIneligibleMessageHeader {
  font-size: 18px;
  font-weight: bold;
  margin: 0 0 4px 45px;
  padding: 0;
}
.crIneligibleMessageText {
  font-size:13px;
  margin: 0 0 6px 45px;
  width: 100%;
}


.crIFrame {
  margin: 10px;
}

.crIFrameLogo {
  margin-bottom: 20px;
}

.crIFrameHeaderLeftColumn {
  float: left;
  margin-right: 20px;
}

.crIFrameHeaderTitle {
  font-size:      24px;
  letter-spacing: -1px;
}

.crIFrameHeaderHistogram {
  float: left;
}

.crIFrameError {
  border-top:    1px solid #D1E6F7;
  border-bottom: 1px solid #D1E6F7;

  text-align:          center;
  line-height:         24px;
  width:               360px;
  padding:             20px;
  margin-top:          20px;
}

.crIFrameErrorText {
  font-size:  14px;
  font-weight: bold;
}

.crIFrameCreateReview {
  margin-bottom:   3px;
  white-space:     nowrap;
}

.crIFrameCreateReviewButton {
  vertical-align:  middle;
}

.crIFrameAverageReviewText {
  align: left;
  font-weight: bold;
}

.crIFrameNumCustReviews {
   white-space: nowrap;
}

.crIFrameReviewList {
  width: 100%;
  clear: left;
}


.CMheadingBar {
  background:url(http://g-ecx.images-amazon.com/images/G/01/nav2/images/gui/tile-blue-bg._V46870869_.gif) repeat-x;
  border-top:1px solid #BADAE8;
  border-bottom:1px solid #BADAE8;
  padding:6px;
}

.CMpaginate {
  color:#666;
}

.CMpaginate .on {
  border:1px solid #CC6600;
  padding:3px;
  background-color:white;
  color:#CC6600;
  text-decoration:none;
}

.CMpaginate a:link,
.CMpaginate a:visited {
  padding:4px;
  text-decoration:none;
}

.CMpaginate a:hover {
  padding:3px;
  background-color:white;
  border:1px solid #CC6600;
  color:#CC6600;
}

a.areaLink, a.areaLink:visited {
  text-decoration: none;
  color: black;
  display: block;
}

.areaLink .innerLink {
  white-space: nowrap;
  text-decoration: underline;
  color: #039;
}

div.crVS {
  width:       46%;
  text-align:  center;
  white-space: nowrap;
}

.crClear { clear: both; }
.crLeft { float: left; }
.crRight { float: right; }

.attr-sheet { padding-left:5px; }
.attr-sheet ul { margin-left: 31px; padding: 0; list-style: none; border: solid 1px #eee; border-radius: 5px; }
.attr-sheet ul li { padding: 5px; }
.attr-sheet li.alt { background: #F8F5D8 }
.attr-sheet li .label { font-weight: bold }
.attr-sheet li .vm { vertical-align: middle; }
.attr-sheet li .option-line { width: 100%; line-height: 1.75em; }
.attr-sheet li .option-line .label { float: left; width: 35%; max-width: 300px }
.attr-sheet li .option-line .option { float: left; width: 30%; max-width: 200px }
.attr-sheet li .option-undo { float: right; font-size: xx-small; display:none; }
.attr-sheet li .textbar-text { margin-top: 2px; clear: both; }
.attr-sheet li .textbar .empty { width: 35%; max-width: 300px; float:left; }
.attr-sheet li .textbar input { width: 50%; margin-left:5px; float:left; }
.attr-sheet li .textbar .blur { color: #999; }
.attr-preview .boldLabel { font-weight: bold }
.attr-preview .head { padding: 20px 0 0 25px }
.attr-preview .head-detail { padding-top: 5px }
.attr-preview .line { padding: 5px 0 15px 0 }
.attr-preview .lines { padding: 10px 0 0 25px }

.rypWgtDiv { margin-bottom: 20px; }

.rypWgtImgLink { 
    display: block;
    width: 300px;
    height: 97px;
    background: url('http://g-ecx.images-amazon.com/images/G/01/x-locale/communities/reviews/ryp-page-image2sprite._V399712482_.png') top;
    text-indent: -10000px;
}
.rypWgtImgLink:hover {
	background-position: bottom;
} 

--></style>

<META NAME="ROBOTS" CONTENT="NOINDEX, NOFOLLOW">

<script type="text/javascript">

var amznJQ,jQueryPatchIPadOffset=false;
(function() {
  function f(x) {return function(){x.push(arguments);}}
  function ch(y) {return String.fromCharCode(y);}
  var a=[],c=[],cs=[],d=[],l=[],o=[],s=[],p=[],t=[];
  amznJQ={
    _timesliceJS: false,
    _a:a,_c:c,_cs:cs,_d:d,_l:l,_o:o,_s:s,_pl:p,
    addLogical:f(l),
    addStyle:f(s),
    addPL:f(p),
    available:f(a),
    chars:{EOL:ch(10), SQUOTE:ch(39), DQUOTE:ch(34), BACKSLASH:ch(92), YEN:ch(165)},
    completedStage:f(cs),
    declareAvailable:f(d),
    onCompletion:f(c),
    onReady:f(o),
    strings:{}
  };
}());


</script>
<script type="text/javascript">
(function(d,c){function f(a){b.push(a)}function e(a){if(a){var c=d.head||d.getElementsByTagName("head")[0]||d.documentElement,b=d.createElement("script");b.async="async";b.src=a;c.insertBefore(b,c.firstChild)}}function g(){ue.uels=e;for(var a=0;a<b.length;a++)e(b[a]);ue.deffered=1}var b=[];c.ue&&(ue.uels=f,c.ue.attach&&c.ue.attach("load",g))})(document,window);


    if (window.ue && window.ue.uels) {
    ue.uels("http://z-ecx.images-amazon.com/images/G/01/browser-scripts/csm-base/csm-base-min-829225768._V1_.js");
}
 else if (window.amznJQ) {
    amznJQ.addLogical('csm-base', ["http://z-ecx.images-amazon.com/images/G/01/browser-scripts/csm-base/csm-base-min-829225768._V1_.js"]);
    amznJQ.available('csm-base', function() {});
}


ue_tbpv = 0;

(function(h,k){function d(c){c="";var b=a.isBFT?"b":"s",d=""+a.oid,e=""+a.lid,g=d;d!=e&&20==e.length&&(b+="a",g+="-"+e);a.tabid&&(c=a.tabid+"+");c+=b+"-"+g;c!=f&&100>c.length&&(f=c,document.cookie="csm-hit="+c+("|"+ +new Date)+m+"; path=/")}function n(){f=0}function l(b){!0===k[a.pageViz.propHid]?f=0:!1===k[a.pageViz.propHid]&&d({type:"visible"})}var m="; expires="+(new Date(+new Date+6048E5)).toGMTString(),f,b=h.ue_tbpv,a=h.ue||{},e=b&&a.pageViz&&a.pageViz.event&&a.pageViz.propHid;a.attach&&(a.attach("click",
d),a.attach("keyup",d),e&&4!=b&&5!=b||(a.attach("focus",d),a.attach("blur",n)),e&&a.attach(a.pageViz.event,l),!e||3!=b&&5!=b||l({}));a.aftb=1})(ue_csm,document);

ue_csm.ue.stub(ue,"impression");

</script>
</head>
<body><div style='display:none;visibility:hidden;'>
    <img src='//fls-na.amazon.com/1/batch/1/OP/ATVPDKIKX0DER:179-7134636-5271800:1YSZ4D73FWPETK4EKV7F$uedata=s:%2Freviews%2Fiframe%2Fuedata%2Fnvp%2Funsticky%2F179-7134636-5271800%2FCustomerReviews%2Fntpoffrw%3Fstaticb%26id%3D1YSZ4D73FWPETK4EKV7F%26pty%3DYourAccount%26spty%3DYOByFilterMoAp%26pti%3D:1000' />


</div>

<div class="crIFrame">
  
  






  























  




















    










  


  

































  
  











<div class="crIFrameLogo">
  <a href="http://www.amazon.com/ref=cm_cr_if_logo/179-7134636-5271800?ie=UTF8&amp;linkCode=sp1&amp;tag=wat072-20" target="_top"><img src="http://g-ecx.images-amazon.com/images/G/01/x-locale/common/amazon-logo-tiny._V192256679_.gif" width="113" alt="Amazon.com" height="23" border="0" /></a>
</div>



      <div class="crIframeHeaderTitle">Customer Reviews</div>
      

































    






























<table class="crIFrameReviewList">
<tr>
  <td>
    




















    











    
    











    




















































<!-- BOUNDARY -->
<a name="R1ARLC9J0W86VP"></a><br />


<div style="margin-left:0.5em;">
    
      <div style="margin-bottom:0.5em;">
        433 of 453 people found the following review helpful
      </div>
      <div style="margin-bottom:0.5em;">
        <span style='margin-left: -5px;'><img src="http://g-ecx.images-amazon.com/images/G/01/x-locale/common/customer-reviews/stars-5-0._V192240867_.gif" width="64" alt="5.0 out of 5 stars" title="5.0 out of 5 stars" height="12" border="0" /> </span>
        <b>very impressed for small size</b>, <nobr>November 19, 2010</nobr>
      </div>
      <div style="margin-bottom:0.5em;">
        <div><div style="float:left;">By&nbsp;</div><div style="float:left;"><a href="http://www.amazon.com/gp/pdp/profile/A2I46AK3QIQ4NU/ref=cm_cr_if_pdp/179-7134636-5271800?ie=UTF8&linkCode=sp1&tag=wat072-20" target="_top"><span style = "font-weight: bold;">Todd N. Krise "1tonchev"</span></a> (hill afb utah)  - <a href="http://www.amazon.com/gp/cdp/member-reviews/A2I46AK3QIQ4NU/ref=cm_cr_if_auth_rev/179-7134636-5271800?ie=UTF8&amp;linkCode=sp1&amp;sort_by=MostRecentReview&amp;tag=wat072-20" target="_top">See all my reviews</a><br />
<a href="http://www.amazon.com/gp/help/customer/display.html/ref=cm_rn_bdg_help/179-7134636-5271800?ie=UTF8&nodeId=14279681&pop-up=1#RN" target="AmazonHelp" onclick="return amz_js_PopWin(this.href,'AmazonHelp','width=340,height=340,resizable=1,scrollbars=1,toolbar=1,status=1');"  ><img src="http://g-ecx.images-amazon.com/images/G/01/x-locale/communities/reputation/c7y_badge_rn_1._V192249968_.gif" width="70" align="absmiddle" alt="(REAL NAME)" height="15" border="0" /></a>
&nbsp;&nbsp;


</div></div><div style="clear:both;"></div>
      </div>
      <div class="tiny" style="margin-bottom:0.5em;">
        <b><span class="h3color tiny">This review is from: </span>Lasko #100 MyHeat Personal Ceramic Heater (Kitchen)</b>
      </div>

have used for one day so i cant comment on durability yet. this little thing after it warms up will put out some heat comparable to a normal 1500 watt unit. this does not move a ton of air, so its not good for room heating, just personal space as advertised. i tried mine out at work in a larger open bay type environment, room was 62-63 and put this little heater about 18-20 inches away and on a small box about a foot off the ground. you can feel a nice warm stream of air blowing over you, good for keeping the chills away. would recommend in an office environment working at a computer, case stays perfectly cool during use and is very quiet. front grille can get very hot and needs time to cool after use. other good things, its only 200 watts so no need to worry about tripping a circuit breaker.<br /><br />UPDATE:<br />have been using this heater for just about a year now and still love it. (let me re-phrase this due the comments) i brought this heater with me while stationed in korea...






<a href="http://www.amazon.com/Lasko-100-MyHeat-Personal-Ceramic/product-reviews/B003XDTWN2/ref=cm_cr_if/179-7134636-5271800?ie=UTF8&linkCode=sp1&showViewpoints=0&tag=wat072-20#R1ARLC9J0W86VP" target="_top">Read more</a>
      <hr size="1" style="border-top: 1px dashed #ACACAC;"/><div style="padding-top: 10px; clear: both; width: 100%; display:none;">

  




        <div class="reviews-voting-stripe" style="float:left; padding-right:15px; border-right:1px solid #CCCCCC"><div style="padding-bottom:5px;"><b class="tiny" style="color:#666666;white-space:nowrap;">Help other customers find the most helpful reviews</b>&nbsp;</div><div style="width:300px;">










<a name="R1ARLC9J0W86VP.2115.Helpful.Reviews" style="font-size:1px;"> </a><span
class="crVotingButtons"><nobr><span class="votingPrompt">Was this review helpful to you?&nbsp;</span><a rel="nofollow" class="votingButtonReviews yesButton" href="http://www.amazon.com/gp/voting/cast/Reviews/2115/R1ARLC9J0W86VP/Helpful/1/ref=cm_cr_ifvoteyn/179-7134636-5271800?ie=UTF8&target=aHR0cDovL3d3dy5hbWF6b24uY29tL3Byb2R1Y3QtcmV2aWV3cy9CMDAzWERUV04yL3JlZj1jbV9jcl9pZnZvdGVyZHIvMTc5LTcxMzQ2MzYtNTI3MTgwMD9fZW5jb2Rpbmc9VVRGOCZha2lkPUFLSUFKRTdCUUg2V1IzQkE0M1JRJmFsaW5rQ29kZT1zcDEmYXNpbj1CMDAzWERUV04yJmF0YWc9d2F0MDcyLTIwJmV4cD0yMDE1LTA3LTE3VDIwJTNBNTUlM0EwMVombGlua0NvZGU9c3AxJnNpZz1qTkROeWFyVEsxc3M2TiUyMDZTdm43aktQMTBDdUdYZVpRcnMxVkFMaHA2aWslM0Qmc3VtbWFyeT0wJnRhZz13YXQwNzItMjAmdHJ1bmNhdGU9MCZ2PTI&token=53BFB36E3F92B4D8ECB1430DD07EDF3B5D21B0B2&voteAnchorName=R1ARLC9J0W86VP.2115.Helpful.Reviews&voteSessionID=179-7134636-5271800"><img src="http://g-ecx.images-amazon.com/images/G/01/x-locale/communities/reviews/btn-yes-sec-md._V192249951_.gif" width="35" alt="Yes" style="vertical-align:middle;" height="18" border="0" /></a>
<a rel="nofollow" class="votingButtonReviews noButton" href="http://www.amazon.com/gp/voting/cast/Reviews/2115/R1ARLC9J0W86VP/Helpful/-1/ref=cm_cr_ifvoteyn/179-7134636-5271800?ie=UTF8&target=aHR0cDovL3d3dy5hbWF6b24uY29tL3Byb2R1Y3QtcmV2aWV3cy9CMDAzWERUV04yL3JlZj1jbV9jcl9pZnZvdGVyZHIvMTc5LTcxMzQ2MzYtNTI3MTgwMD9fZW5jb2Rpbmc9VVRGOCZha2lkPUFLSUFKRTdCUUg2V1IzQkE0M1JRJmFsaW5rQ29kZT1zcDEmYXNpbj1CMDAzWERUV04yJmF0YWc9d2F0MDcyLTIwJmV4cD0yMDE1LTA3LTE3VDIwJTNBNTUlM0EwMVombGlua0NvZGU9c3AxJnNpZz1qTkROeWFyVEsxc3M2TiUyMDZTdm43aktQMTBDdUdYZVpRcnMxVkFMaHA2aWslM0Qmc3VtbWFyeT0wJnRhZz13YXQwNzItMjAmdHJ1bmNhdGU9MCZ2PTI&token=84C78B5952937493A777DF659CB48CBD66CCD763&voteAnchorName=R1ARLC9J0W86VP.2115.Helpful.Reviews&voteSessionID=179-7134636-5271800"><img src="http://g-ecx.images-amazon.com/images/G/01/x-locale/communities/reviews/btn-no-sec-md._V192249949_.gif" width="35" alt="No" style="vertical-align:middle;" height="18" border="0" /></a></nobr> <span class="votingMessage"></span></span>

</div></div><div style="float:left;"><div style="padding-left:15px;"><div style="white-space:nowrap;"><span class='tiny'>








<a name="R1ARLC9J0W86VP.2115.Inappropriate.Reviews" style="font-size:1px;"> </a><span class="reportingButton"><nobr><a rel="nofollow" class="reportingButton" href="http://www.amazon.com/gp/voting/cast/Reviews/2115/R1ARLC9J0W86VP/Inappropriate/1/ref=cm_cr_ifvoteyn/179-7134636-5271800?ie=UTF8&target=aHR0cDovL3d3dy5hbWF6b24uY29tL3Byb2R1Y3QtcmV2aWV3cy9CMDAzWERUV04yL3JlZj1jbV9jcl9pZnZvdGVyZHIvMTc5LTcxMzQ2MzYtNTI3MTgwMD9fZW5jb2Rpbmc9VVRGOCZha2lkPUFLSUFKRTdCUUg2V1IzQkE0M1JRJmFsaW5rQ29kZT1zcDEmYXNpbj1CMDAzWERUV04yJmF0YWc9d2F0MDcyLTIwJmV4cD0yMDE1LTA3LTE3VDIwJTNBNTUlM0EwMVombGlua0NvZGU9c3AxJnNpZz1qTkROeWFyVEsxc3M2TiUyMDZTdm43aktQMTBDdUdYZVpRcnMxVkFMaHA2aWslM0Qmc3VtbWFyeT0wJnRhZz13YXQwNzItMjAmdHJ1bmNhdGU9MCZ2PTI&token=99382F2F239F7174509D67728AC8E5828C645821&voteAnchorName=R1ARLC9J0W86VP.2115.Inappropriate.Reviews&voteSessionID=179-7134636-5271800"
>Report abuse</a></nobr></span>
</span> <span style="color:#CCCCCC;">|</span> <span class="tiny"><a href="http://www.amazon.com/review/R1ARLC9J0W86VP/ref=cm_cr_if_perm/?ie=UTF8&ASIN=B003XDTWN2&linkCode=sp1&tag=wat072-20" target="_top">Permalink</a></span></div><div style="white-space:nowrap;padding-left:-5px;padding-top:5px;"><a href="http://www.amazon.com/review/R1ARLC9J0W86VP/ref=cm_cr_if_cmt/179-7134636-5271800?ie=UTF8&ASIN=B003XDTWN2&linkCode=sp1&tag=wat072-20#wasThisHelpful" target="_top"><img src="http://g-ecx.images-amazon.com/images/G/01/x-locale/communities/discussion_boards/comment-sm._V192250344_.gif" width="16" alt="Comment" hspace="3" align="absmiddle" height="16" border="0" /></a>&nbsp;<a href="http://www.amazon.com/review/R1ARLC9J0W86VP/ref=cm_cr_if_cmt/179-7134636-5271800?ie=UTF8&ASIN=B003XDTWN2&linkCode=sp1&tag=wat072-20#wasThisHelpful" target="_top">Comments (23)</a></div></div></div><div style="clear:both;"></div>
      </div>
      <br />

</div>

  












































<!-- BOUNDARY -->
<a name="R1E7LHKPBOD3MX"></a><br />


<div style="margin-left:0.5em;">
    
      <div style="margin-bottom:0.5em;">
        249 of 260 people found the following review helpful
      </div>
      <div style="margin-bottom:0.5em;">
        <span style='margin-left: -5px;'><img src="http://g-ecx.images-amazon.com/images/G/01/x-locale/common/customer-reviews/stars-5-0._V192240867_.gif" width="64" alt="5.0 out of 5 stars" title="5.0 out of 5 stars" height="12" border="0" /> </span>
        <b>Amazing heater, but needs tipover protection</b>, <nobr>January 5, 2012</nobr>
      </div>
      <div style="margin-bottom:0.5em;">
        <div><div style="float:left;">By&nbsp;</div><div style="float:left;"><a href="http://www.amazon.com/gp/pdp/profile/A2KQSLKDHGPRMK/ref=cm_cr_if_pdp/179-7134636-5271800?ie=UTF8&linkCode=sp1&tag=wat072-20" target="_top"><span style = "font-weight: bold;">Erik Gordon Bainbridge "Author, virtual world...</span></a> (North San Francisco Bay, CA United States)  - <a href="http://www.amazon.com/gp/cdp/member-reviews/A2KQSLKDHGPRMK/ref=cm_cr_if_auth_rev/179-7134636-5271800?ie=UTF8&amp;linkCode=sp1&amp;sort_by=MostRecentReview&amp;tag=wat072-20" target="_top">See all my reviews</a></div></div><div style="clear:both;"></div>
      </div>
      <div class="tiny" style="margin-bottom:0.5em;">
        <span class="crVerifiedStripe"><b class="h3color tiny" style="margin-right: 0.5em;">Verified Purchase</b><span class="tiny verifyWhatsThis">(<a href="http://www.amazon.com/gp/community-help/amazon-verified-purchase/179-7134636-5271800" target="AmazonHelp" onclick="amz_js_PopWin('http://www.amazon.com/gp/community-help/amazon-verified-purchase/179-7134636-5271800', 'AmazonHelp', 'width=400,height=500,resizable=1,scrollbars=1,toolbar=0,status=1');return false; ">What's this?</a>)</span></span>
      </div>
      <div class="tiny" style="margin-bottom:0.5em;">
        <b><span class="h3color tiny">This review is from: </span>Lasko #100 MyHeat Personal Ceramic Heater (Kitchen)</b>
      </div>

UPDATE after one year of ownership:  This little heater continues to impress me.  I don't know how it would perform in a really cold climate, but here in Northern California, where nighttime winter temperatures rarely go much below freezing, it's outstanding at heating a small space quickly.  The room where I now work is unheated; it was converted from being the house's garage.  I use a deLonghi oil radiator heater for the main heat in this room, but off course it takes a long time to warm up.  The Lasko heats the area around my desk quickly while the deLonghi is warming up.  After the deLonghi is warm, I switch off the Lasko.  This combination works well for me, and using the Lasko this way allows me to conserve power by using the deLonghi at a lower power setting.<br /><br />I was impressed enough with the Lasko that I ordered a second one (a model 103, identical except for having a red front).  I use one in a separate building behind my house and the other in an unheated room...






<a href="http://www.amazon.com/Lasko-100-MyHeat-Personal-Ceramic/product-reviews/B003XDTWN2/ref=cm_cr_if/179-7134636-5271800?ie=UTF8&linkCode=sp1&showViewpoints=0&tag=wat072-20#R1E7LHKPBOD3MX" target="_top">Read more</a>
      <hr size="1" style="border-top: 1px dashed #ACACAC;"/><div style="padding-top: 10px; clear: both; width: 100%; display:none;">

  




        <div class="reviews-voting-stripe" style="float:left; padding-right:15px; border-right:1px solid #CCCCCC"><div style="padding-bottom:5px;"><b class="tiny" style="color:#666666;white-space:nowrap;">Help other customers find the most helpful reviews</b>&nbsp;</div><div style="width:300px;">









<a name="R1E7LHKPBOD3MX.2115.Helpful.Reviews" style="font-size:1px;"> </a><span
class="crVotingButtons"><nobr><span class="votingPrompt">Was this review helpful to you?&nbsp;</span><a rel="nofollow" class="votingButtonReviews yesButton" href="http://www.amazon.com/gp/voting/cast/Reviews/2115/R1E7LHKPBOD3MX/Helpful/1/ref=cm_cr_ifvoteyn/179-7134636-5271800?ie=UTF8&target=aHR0cDovL3d3dy5hbWF6b24uY29tL3Byb2R1Y3QtcmV2aWV3cy9CMDAzWERUV04yL3JlZj1jbV9jcl9pZnZvdGVyZHIvMTc5LTcxMzQ2MzYtNTI3MTgwMD9fZW5jb2Rpbmc9VVRGOCZha2lkPUFLSUFKRTdCUUg2V1IzQkE0M1JRJmFsaW5rQ29kZT1zcDEmYXNpbj1CMDAzWERUV04yJmF0YWc9d2F0MDcyLTIwJmV4cD0yMDE1LTA3LTE3VDIwJTNBNTUlM0EwMVombGlua0NvZGU9c3AxJnNpZz1qTkROeWFyVEsxc3M2TiUyMDZTdm43aktQMTBDdUdYZVpRcnMxVkFMaHA2aWslM0Qmc3VtbWFyeT0wJnRhZz13YXQwNzItMjAmdHJ1bmNhdGU9MCZ2PTI&token=9F97A392FE76A7C194D2EEAD32A0B88547CC69A6&voteAnchorName=R1E7LHKPBOD3MX.2115.Helpful.Reviews&voteSessionID=179-7134636-5271800"><img src="http://g-ecx.images-amazon.com/images/G/01/x-locale/communities/reviews/btn-yes-sec-md._V192249951_.gif" width="35" alt="Yes" style="vertical-align:middle;" height="18" border="0" /></a>
<a rel="nofollow" class="votingButtonReviews noButton" href="http://www.amazon.com/gp/voting/cast/Reviews/2115/R1E7LHKPBOD3MX/Helpful/-1/ref=cm_cr_ifvoteyn/179-7134636-5271800?ie=UTF8&target=aHR0cDovL3d3dy5hbWF6b24uY29tL3Byb2R1Y3QtcmV2aWV3cy9CMDAzWERUV04yL3JlZj1jbV9jcl9pZnZvdGVyZHIvMTc5LTcxMzQ2MzYtNTI3MTgwMD9fZW5jb2Rpbmc9VVRGOCZha2lkPUFLSUFKRTdCUUg2V1IzQkE0M1JRJmFsaW5rQ29kZT1zcDEmYXNpbj1CMDAzWERUV04yJmF0YWc9d2F0MDcyLTIwJmV4cD0yMDE1LTA3LTE3VDIwJTNBNTUlM0EwMVombGlua0NvZGU9c3AxJnNpZz1qTkROeWFyVEsxc3M2TiUyMDZTdm43aktQMTBDdUdYZVpRcnMxVkFMaHA2aWslM0Qmc3VtbWFyeT0wJnRhZz13YXQwNzItMjAmdHJ1bmNhdGU9MCZ2PTI&token=2646A5D971EF8A6B91DA83B9C5756549D1D392E2&voteAnchorName=R1E7LHKPBOD3MX.2115.Helpful.Reviews&voteSessionID=179-7134636-5271800"><img src="http://g-ecx.images-amazon.com/images/G/01/x-locale/communities/reviews/btn-no-sec-md._V192249949_.gif" width="35" alt="No" style="vertical-align:middle;" height="18" border="0" /></a></nobr> <span class="votingMessage"></span></span>

</div></div><div style="float:left;"><div style="padding-left:15px;"><div style="white-space:nowrap;"><span class='tiny'>








<a name="R1E7LHKPBOD3MX.2115.Inappropriate.Reviews" style="font-size:1px;"> </a><span class="reportingButton"><nobr><a rel="nofollow" class="reportingButton" href="http://www.amazon.com/gp/voting/cast/Reviews/2115/R1E7LHKPBOD3MX/Inappropriate/1/ref=cm_cr_ifvoteyn/179-7134636-5271800?ie=UTF8&target=aHR0cDovL3d3dy5hbWF6b24uY29tL3Byb2R1Y3QtcmV2aWV3cy9CMDAzWERUV04yL3JlZj1jbV9jcl9pZnZvdGVyZHIvMTc5LTcxMzQ2MzYtNTI3MTgwMD9fZW5jb2Rpbmc9VVRGOCZha2lkPUFLSUFKRTdCUUg2V1IzQkE0M1JRJmFsaW5rQ29kZT1zcDEmYXNpbj1CMDAzWERUV04yJmF0YWc9d2F0MDcyLTIwJmV4cD0yMDE1LTA3LTE3VDIwJTNBNTUlM0EwMVombGlua0NvZGU9c3AxJnNpZz1qTkROeWFyVEsxc3M2TiUyMDZTdm43aktQMTBDdUdYZVpRcnMxVkFMaHA2aWslM0Qmc3VtbWFyeT0wJnRhZz13YXQwNzItMjAmdHJ1bmNhdGU9MCZ2PTI&token=5DB6DD01C589BC45019FA37A7FCA4C670D03FA1B&voteAnchorName=R1E7LHKPBOD3MX.2115.Inappropriate.Reviews&voteSessionID=179-7134636-5271800"
>Report abuse</a></nobr></span>
</span> <span style="color:#CCCCCC;">|</span> <span class="tiny"><a href="http://www.amazon.com/review/R1E7LHKPBOD3MX/ref=cm_cr_if_perm/?ie=UTF8&ASIN=B003XDTWN2&linkCode=sp1&tag=wat072-20" target="_top">Permalink</a></span></div><div style="white-space:nowrap;padding-left:-5px;padding-top:5px;"><a href="http://www.amazon.com/review/R1E7LHKPBOD3MX/ref=cm_cr_if_cmt/179-7134636-5271800?ie=UTF8&ASIN=B003XDTWN2&linkCode=sp1&tag=wat072-20#wasThisHelpful" target="_top"><img src="http://g-ecx.images-amazon.com/images/G/01/x-locale/communities/discussion_boards/comment-sm._V192250344_.gif" width="16" alt="Comment" hspace="3" align="absmiddle" height="16" border="0" /></a>&nbsp;<a href="http://www.amazon.com/review/R1E7LHKPBOD3MX/ref=cm_cr_if_cmt/179-7134636-5271800?ie=UTF8&ASIN=B003XDTWN2&linkCode=sp1&tag=wat072-20#wasThisHelpful" target="_top">Comments (9)</a></div></div></div><div style="clear:both;"></div>
      </div>
      <br />

</div>

  












































<!-- BOUNDARY -->
<a name="R2LO4RXOR5P6HQ"></a><br />


<div style="margin-left:0.5em;">
    
      <div style="margin-bottom:0.5em;">
        194 of 204 people found the following review helpful
      </div>
      <div style="margin-bottom:0.5em;">
        <span style='margin-left: -5px;'><img src="http://g-ecx.images-amazon.com/images/G/01/x-locale/common/customer-reviews/stars-5-0._V192240867_.gif" width="64" alt="5.0 out of 5 stars" title="5.0 out of 5 stars" height="12" border="0" /> </span>
        <b>Effective and Low Wattage</b>, <nobr>December 4, 2010</nobr>
      </div>
      <div style="margin-bottom:0.5em;">
        <div><div style="float:left;">By&nbsp;</div><div style="float:left;"><a href="http://www.amazon.com/gp/pdp/profile/A1GIMMNRJM94RX/ref=cm_cr_if_pdp/179-7134636-5271800?ie=UTF8&linkCode=sp1&tag=wat072-20" target="_top"><span style = "font-weight: bold;">Mr. Largo</span></a>  - <a href="http://www.amazon.com/gp/cdp/member-reviews/A1GIMMNRJM94RX/ref=cm_cr_if_auth_rev/179-7134636-5271800?ie=UTF8&amp;linkCode=sp1&amp;sort_by=MostRecentReview&amp;tag=wat072-20" target="_top">See all my reviews</a></div></div><div style="clear:both;"></div>
      </div>
      <div class="tiny" style="margin-bottom:0.5em;">
        <b><span class="h3color tiny">This review is from: </span>Lasko #100 MyHeat Personal Ceramic Heater (Kitchen)</b>
      </div>

<div class="reviewText">I purchased this little heater to warm my desk area at work. We cannot use the high wattage heaters because of the risk of overloading the electrical circuit and shutting everyone else down.<br /><br />The 200 watt MyHeat heater is just about perfect for my intended purpose; heating the space around my desk. It puts out a decent amount of heat; it seems to be more efficient than other heaters using five to seven times the wattage, quite a bit of heat for a mere 200 watts.<br />The only thing it could benefit from is a thermostat to shut it off once the desired temperature is achieved. For my usage the missing thermostat isn't a big deal, this is why I gave it five stars.<br /><br />Summary: Nice looking (multiple colors available), small size(smaller than my PC speakers), quality power cord, low wattage, good heat output. A worthy purchase.</div>
0      <hr size="1" style="border-top: 1px dashed #ACACAC;"/><div style="padding-top: 10px; clear: both; width: 100%; display:none;">

  




        <div class="reviews-voting-stripe" style="float:left; padding-right:15px; border-right:1px solid #CCCCCC"><div style="padding-bottom:5px;"><b class="tiny" style="color:#666666;white-space:nowrap;">Help other customers find the most helpful reviews</b>&nbsp;</div><div style="width:300px;">









<a name="R2LO4RXOR5P6HQ.2115.Helpful.Reviews" style="font-size:1px;"> </a><span
class="crVotingButtons"><nobr><span class="votingPrompt">Was this review helpful to you?&nbsp;</span><a rel="nofollow" class="votingButtonReviews yesButton" href="http://www.amazon.com/gp/voting/cast/Reviews/2115/R2LO4RXOR5P6HQ/Helpful/1/ref=cm_cr_ifvoteyn/179-7134636-5271800?ie=UTF8&target=aHR0cDovL3d3dy5hbWF6b24uY29tL3Byb2R1Y3QtcmV2aWV3cy9CMDAzWERUV04yL3JlZj1jbV9jcl9pZnZvdGVyZHIvMTc5LTcxMzQ2MzYtNTI3MTgwMD9fZW5jb2Rpbmc9VVRGOCZha2lkPUFLSUFKRTdCUUg2V1IzQkE0M1JRJmFsaW5rQ29kZT1zcDEmYXNpbj1CMDAzWERUV04yJmF0YWc9d2F0MDcyLTIwJmV4cD0yMDE1LTA3LTE3VDIwJTNBNTUlM0EwMVombGlua0NvZGU9c3AxJnNpZz1qTkROeWFyVEsxc3M2TiUyMDZTdm43aktQMTBDdUdYZVpRcnMxVkFMaHA2aWslM0Qmc3VtbWFyeT0wJnRhZz13YXQwNzItMjAmdHJ1bmNhdGU9MCZ2PTI&token=EAF8A9D1E4E8AC8F695A16328A126673325E9C5E&voteAnchorName=R2LO4RXOR5P6HQ.2115.Helpful.Reviews&voteSessionID=179-7134636-5271800"><img src="http://g-ecx.images-amazon.com/images/G/01/x-locale/communities/reviews/btn-yes-sec-md._V192249951_.gif" width="35" alt="Yes" style="vertical-align:middle;" height="18" border="0" /></a>
<a rel="nofollow" class="votingButtonReviews noButton" href="http://www.amazon.com/gp/voting/cast/Reviews/2115/R2LO4RXOR5P6HQ/Helpful/-1/ref=cm_cr_ifvoteyn/179-7134636-5271800?ie=UTF8&target=aHR0cDovL3d3dy5hbWF6b24uY29tL3Byb2R1Y3QtcmV2aWV3cy9CMDAzWERUV04yL3JlZj1jbV9jcl9pZnZvdGVyZHIvMTc5LTcxMzQ2MzYtNTI3MTgwMD9fZW5jb2Rpbmc9VVRGOCZha2lkPUFLSUFKRTdCUUg2V1IzQkE0M1JRJmFsaW5rQ29kZT1zcDEmYXNpbj1CMDAzWERUV04yJmF0YWc9d2F0MDcyLTIwJmV4cD0yMDE1LTA3LTE3VDIwJTNBNTUlM0EwMVombGlua0NvZGU9c3AxJnNpZz1qTkROeWFyVEsxc3M2TiUyMDZTdm43aktQMTBDdUdYZVpRcnMxVkFMaHA2aWslM0Qmc3VtbWFyeT0wJnRhZz13YXQwNzItMjAmdHJ1bmNhdGU9MCZ2PTI&token=14886D67655144827028E167ABBDC53D7A158596&voteAnchorName=R2LO4RXOR5P6HQ.2115.Helpful.Reviews&voteSessionID=179-7134636-5271800"><img src="http://g-ecx.images-amazon.com/images/G/01/x-locale/communities/reviews/btn-no-sec-md._V192249949_.gif" width="35" alt="No" style="vertical-align:middle;" height="18" border="0" /></a></nobr> <span class="votingMessage"></span></span>

</div></div><div style="float:left;"><div style="padding-left:15px;"><div style="white-space:nowrap;"><span class='tiny'>








<a name="R2LO4RXOR5P6HQ.2115.Inappropriate.Reviews" style="font-size:1px;"> </a><span class="reportingButton"><nobr><a rel="nofollow" class="reportingButton" href="http://www.amazon.com/gp/voting/cast/Reviews/2115/R2LO4RXOR5P6HQ/Inappropriate/1/ref=cm_cr_ifvoteyn/179-7134636-5271800?ie=UTF8&target=aHR0cDovL3d3dy5hbWF6b24uY29tL3Byb2R1Y3QtcmV2aWV3cy9CMDAzWERUV04yL3JlZj1jbV9jcl9pZnZvdGVyZHIvMTc5LTcxMzQ2MzYtNTI3MTgwMD9fZW5jb2Rpbmc9VVRGOCZha2lkPUFLSUFKRTdCUUg2V1IzQkE0M1JRJmFsaW5rQ29kZT1zcDEmYXNpbj1CMDAzWERUV04yJmF0YWc9d2F0MDcyLTIwJmV4cD0yMDE1LTA3LTE3VDIwJTNBNTUlM0EwMVombGlua0NvZGU9c3AxJnNpZz1qTkROeWFyVEsxc3M2TiUyMDZTdm43aktQMTBDdUdYZVpRcnMxVkFMaHA2aWslM0Qmc3VtbWFyeT0wJnRhZz13YXQwNzItMjAmdHJ1bmNhdGU9MCZ2PTI&token=66A2FF7E1E8FF3A8B4A431606645EFC44916E56C&voteAnchorName=R2LO4RXOR5P6HQ.2115.Inappropriate.Reviews&voteSessionID=179-7134636-5271800"
>Report abuse</a></nobr></span>
</span> <span style="color:#CCCCCC;">|</span> <span class="tiny"><a href="http://www.amazon.com/review/R2LO4RXOR5P6HQ/ref=cm_cr_if_perm/?ie=UTF8&ASIN=B003XDTWN2&linkCode=sp1&tag=wat072-20" target="_top">Permalink</a></span></div><div style="white-space:nowrap;padding-left:-5px;padding-top:5px;"><a href="http://www.amazon.com/review/R2LO4RXOR5P6HQ/ref=cm_cr_if_cmt/179-7134636-5271800?ie=UTF8&ASIN=B003XDTWN2&linkCode=sp1&tag=wat072-20#wasThisHelpful" target="_top"><img src="http://g-ecx.images-amazon.com/images/G/01/x-locale/communities/discussion_boards/comment-sm._V192250344_.gif" width="16" alt="Comment" hspace="3" align="absmiddle" height="16" border="0" /></a>&nbsp;<a href="http://www.amazon.com/review/R2LO4RXOR5P6HQ/ref=cm_cr_if_cmt/179-7134636-5271800?ie=UTF8&ASIN=B003XDTWN2&linkCode=sp1&tag=wat072-20#wasThisHelpful" target="_top">Comments (6)</a></div></div></div><div style="clear:both;"></div>
      </div>
      <br />

</div>

  



  </td>
</tr>
</table>
<br />
<div class="crIFrameCreateReview" >
  Share your thoughts with other customers:
  <span class="crIFrameCreateReviewButton"><a href="http://www.amazon.com/review/create-review/ref=cm_cr_if_wr/179-7134636-5271800?ie=UTF8&amp;asin=B003XDTWN2&amp;linkCode=sp1&amp;nodeID=&amp;tag=wat072-20" target="_top"><img src="http://g-ecx.images-amazon.com/images/G/01/x-locale/communities/reviews/btn-create-own-review-md._V192249922_.gif" width="145" alt="" height="22" border="0" /></a></span>
</div>
<span class="small"><b><b class="h3color">&rsaquo;</b>&nbsp;<a href="http://www.amazon.com/Lasko-100-MyHeat-Personal-Ceramic/product-reviews/B003XDTWN2/ref=cm_cr_if_all_link/179-7134636-5271800?ie=UTF8&linkCode=sp1&showViewpoints=1&sortBy=bySubmissionDateDescending&tag=wat072-20" target="_top">See all 2,549 customer reviews...</a></b></span>






</div>
<script type='text/javascript'>
    
    window.ue_csm.cel_widgets = [
         {  id: "DAra1"  } , {  c: "celwidget"  } , {  id: "fallbacksessionShvl"  } , {  id: "rhf"  } 
    ];



</script>

<div id='be' style='display:none;visibility:hidden;'><form name='ue_backdetect'><input name='ue_back' value='1' type='hidden'></form><script type="text/javascript">
(function(a){var b=document.ue_backdetect;b&&b.ue_back&&a.ue&&(a.ue.bfini=b.ue_back.value);a.uet&&a.uet("be");a.onLdEnd&&(window.addEventListener?window.addEventListener("load",a.onLdEnd,!1):window.attachEvent&&window.attachEvent("onload",a.onLdEnd));a.ueh&&a.ueh(0,window,"load",a.onLd,1);a.ue&&a.ue.tag&&(a.ue_furl&&a.ue_furl.split?(b=a.ue_furl.split("."))&&b[0]&&a.ue.tag(b[0]):a.ue.tag("nofls"))})(ue_csm);


var ue_pty='CustomerReviews', ue_spty='IFrameMostHelpful', ue_pti='iframe';

</script>

<a href='http://www.amazon.com/reviews/iframe/uedata/nvp/unsticky/179-7134636-5271800/CustomerReviews/ntpoffrw?tepes=1&amp;id=1YSZ4D73FWPETK4EKV7F'>v</a>
<noscript>
     <img src='http://www.amazon.com/reviews/iframe/uedata/nvp/unsticky/179-7134636-5271800/CustomerReviews/ntpoffrw?noscript&amp;id=1YSZ4D73FWPETK4EKV7F&amp;pty=CustomerReviews&amp;spty=IFrameMostHelpful&amp;pti=iframe' />
     <img src='//fls-na.amazon.com/1/batch/1/OP/ATVPDKIKX0DER:179-7134636-5271800:1YSZ4D73FWPETK4EKV7F$uedata=s:%2Freviews%2Fiframe%2Fuedata%2Fnvp%2Funsticky%2F179-7134636-5271800%2FCustomerReviews%2Fntpoffrw%3Fnoscript%26id%3D1YSZ4D73FWPETK4EKV7F%26pty%3DCustomerReviews%26spty%3DIFrameMostHelpful%26pti%3Diframe:2000' />

</noscript>
</div>
<script type='text/javascript'>
(function(g,h){function d(a,d){var b={};if(!e||!f)try{var c=h.sessionStorage;c?a&&("undefined"!==typeof d?c.setItem(a,d):b.val=c.getItem(a)):f=1}catch(g){e=1}e&&(b.e=1);return b}var b=g.ue||{},a="",f,e,c,a=d("csmtid");f?a="NA":a.e?a="ET":(a=a.val,a||(a=b.oid||"NI",d("csmtid",a)),c=d(b.oid),c.e||(c.val=c.val||0,d(b.oid,c.val+1)),b.ssw=d);b.tabid=a})(ue_csm,window);

</script>
<script type='text/javascript'>
(function(a){var b=a.alert;window.alert=function(){a.ueLogError&&a.ueLogError({message:"[CSM] Alert invocation detected with argument: "+arguments[0],logLevel:"WARN"});Function.prototype.apply.apply(b,[a,arguments||[]])}})(window);

</script>
<script type='text/javascript'>
(function(d,r,k){function l(a){if(!b)if(b=e[a.type],"undefined"===typeof a.clientX?(f=a.pageX,g=a.pageY):(f=a.clientX,g=a.clientY),2!=b||h&&(h!=f||m!=g)){for(var d in e)e.hasOwnProperty(d)&&c.detach(d,l,k);c.isl&&r.setTimeout(function(){n("at",c.id)},0)}else h=f,m=g,b=0}function s(){var a="";!p&&b&&(p=1,a+="&ui="+b);return a}var c=d.ue,n=d.uex,p=0,b=0,h,m,f,g,e={click:1,mousemove:2,scroll:3,keydown:4};if(c&&n){for(var q in e)e.hasOwnProperty(q)&&c.attach(q,l,k);c._ui=s}})(ue_csm,window,document);

</script>
<script type='text/javascript'>
(function(b,c){var a=c.images;a&&a.length&&b.ue.count("totalImages",a.length)})(ue_csm,document);

</script>
<script type='text/javascript'>
(function(k,c){function l(a,b){return a.filter(function(a){return a.initiatorType==b})}function f(a,c){if(b.t[a]){var g=b.t[a]-b._t0,e=c.filter(function(a){return 0!==a.responseEnd&&m(a)<g}),f=l(e,"script"),h=l(e,"link"),k=l(e,"img"),n=e.map(function(a){return a.name.split("/")[2]}).filter(function(a,b,c){return a&&c.lastIndexOf(a)==b}),q=e.filter(function(a){return a.duration<p}),s=g-Math.max.apply(null,e.map(m))<r|0;"af"==a&&(b._afjs=f.length);return a+":"+[e[d],f[d],h[d],k[d],n[d],q[d],s].join("-")}}
function m(a){return a.responseEnd-(b._t0-c.timing.navigationStart)}function n(){var a=c[h]("resource"),d=f("cf",a),g=f("af",a),a=f("ld",a);delete b._rt;b._ld=b.t.ld-b._t0;b._art&&b._art();return[d,g,a].join("_")}var p=20,r=50,d="length",b=k.ue,h="getEntriesByType";b._rre=m;b._rt=c&&c.timing&&c[h]&&n})(ue_csm,window.performance);

</script>
<script type='text/javascript'>
(function(m,l){function I(a){if(a)return a.replace(/^\s+|\s+$/g,"")}function x(a,e){if(!a)return{};a.m&&a.m[n]&&(a=a.m);var b=e.m||e[n]||"",b=a.m&&a.m[n]?b+a.m[n]:a.m&&a.m.target&&a.m.target.tagName?b+("Error handler invoked by "+a.m.target.tagName+" tag"):a.m?b+a.m:a[n]?b+a[n]:b+"Unknown error",b={m:b,f:a.f||a.sourceURL||a.fileName||a.filename||a.m&&a.m.target&&a.m.target.src,l:a.l||a.line||a.lineno||a.lineNumber,c:a.c?""+a.c:a.c,s:[],t:m.ue.d(),name:a.name,type:a.type,csm:J+" "+(a.fromOnError?"onerror":
"ueLogError")},c,d,f=0,g=0,k;d=l.location;c=a.stack||(a.err?a.err.stack:"");b[y]=e[y]||d&&d.href||"missing";b[p]=e[p]||z;(d=e[q])&&(b[q]=""+d);if(c&&c.split)for(b.csm+=" stack",d=c.split("\n");f<d.length&&b.s.length<A;)(c=d[f++])&&b.s.push(I(c));else for(b.csm+=" callee",d=B(a.args||arguments,"callee"),g=f=0;d&&f<A;)k=v,d[s]||(c=d.toString())&&c.substr&&(k=0===g?4*v:k,k=1==g?2*v:k,b.s.push(c.substr(0,k)),g++),d=B(d,"caller"),f++;!b.f&&0<b.s.length&&(f=b,c=(f||{}).s||[],d=c[1]||"",c=(c[0]||"").match(K)||
d.match(L))&&(f.f=c[1],f.l=c[2]);return b}function B(a,e){try{return a[e]}catch(b){}}function C(a,e){if(a&&!(h.ec>h.mxe)){h.ec++;h.ter.push(a);e=e||{};var b=a[p]||e[p];e[p]=b;e[q]=a[q]||e[q];b&&b!=z||h.ecf++;w(a,e)}}function w(a,e){if(a){var b=x(a,e),c=e.channel||M;if(ue.log.isStub&&l[t]&&l[t][u]){var d={};d[c]=b;try{var f=l[t][u]({rid:ue.rid,sid:m.ue_sid,mid:m.ue_mid,sn:m.ue_sn,reqs:[d]}),g=l[N],k;if(k=!(g[D]&&g[D](E,f)))if(l[F]){var h=new l[F];h.onerror=r;h.ontimeout=r;h.onprogress=r;h.onload=r;
h.timeout=0;k=h}else if(l[G]){var n=new l[G];k="withCredentials"in n?n:void 0}else k=void 0;if(c=k){c.open("POST",E,!0);if(c[H])c[H]("Content-type","text/plain");c.send(f)}}catch(p){}}else m.ue.log(b,c,{nb:1});f=l.console||{};c=f.error||f.log||r;d=l[t];g="Error logged: ";if(d&&d[u])try{g+=d[u](b)}catch(q){g+="no info provided; converting to string failed"}else g+=b.m;c.apply(f,[g,b])}}var G="XMLHttpRequest",F="XDomainRequest",N="navigator",D="sendBeacon",u="stringify",t="JSON",p="logLevel",q="attribution",
y="pageURL",s="skipTrace",H="setRequestHeader",n="message",r=function(){},E="//"+m.ue_furl+"/1/batch/1/OE/",h=m.ue_err,M=m.ue_err_chan||"jserr",z="FATAL",J="v6",A=20,v=256,L=/\(?([^\s]*):(\d+):\d+\)?/,K=/.*@(.*):(\d*)/;x[s]=1;C[s]=1;w[s]=1;(function(){for(var a,e=0;e<(h.erl||[]).length;e++)a=h.erl[e],w(a.ex,a.info);h.erl=[]})();m.ueLogError=C})(ue_csm,window);

</script>
<script type='text/javascript'>
(function(c,d){var b=c.ue,a=d.navigator;b&&b.tag&&a&&(a=a.connection||a.mozConnection||a.webkitConnection)&&a.type&&b.tag("netInfo:"+a.type)})(ue_csm,window);

</script>
<script type='text/javascript'>
(function(e,c){function d(){a.memory.jsHeapSizeLimit&&b.count("jsHeapSizeLimit",a.memory.jsHeapSizeLimit);a.memory.usedJSHeapSize&&b.count("usedJSHeapSize",a.memory.usedJSHeapSize);a.memory.totalJSHeapSize&&b.count("totalJSHeapSize",a.memory.totalJSHeapSize)}var b=e.ue,a=c.performance;b.attach&&b.count&&a&&a.memory&&(b.attach("load",d),c.onpagehide||null===c.onpagehide?b.attach("pagehide",d):b.attach("beforeunload",d))})(ue_csm,window);

</script>
<script type="text/javascript">
(function(c,d){function l(a,b){for(var c=[],d=0;d<a.length;d++){var e=a[d],f=b.encode(e);if(e[h]){var g=b.metaSep,e=e[h],l=b.metaPairSep,k=[],m=void 0;for(m in e)e.hasOwnProperty(m)&&k.push(m+"="+e[m]);e=k.join(l);f+=g+e}c.push(f)}return c.join(b.resourceSep)}function r(a){var b=a[h]=a[h]||{};b[s]||(b[s]=c.ue_mid);b[t]||(b[t]=c.ue_sid);b[f]||(b[f]=c.ue_id);a="//"+c.ue_furl+"/1/"+a[u]+"/1/OP/"+a[v]+"/"+a[w]+"/"+l([a],x);if(k)try{k.call(d[n],a)}catch(g){c.ue.sbf=1,(new Image).src=a}else(new Image).src=
a}function p(){g&&g.isStub&&g.replay(function(a,b,c){a=a[0];b=a[h]=a[h]||{};b[f]=b[f]||c;r(a)});c.ue.impression=r;g=null}if(!(1<c.ueinit)){var h="metadata",w="impressionType",u="foresterChannel",v="programGroup",s="marketplaceId",t="session",f="requestId",n="navigator",y=c.ue_bli,k=d[n]&&d[n].sendBeacon,q=function(a,b,c,d){return{encode:d,resourceSep:a,metaSep:b,metaPairSep:c}},x=q("","?","&",function(a){return l(a.impressionData,z)}),z=q("/",":",",",function(a){return a.featureName+":"+l(a.resources,
A)}),A=q(",","@","|",function(a){return a.id}),g=c.ue.impression;y&&ue.impression({programGroup:"csm",impressionType:"action",impressionData:[{featureName:"csm-features",resources:[{id:"impression-tracking"}]}],metadata:{csm:1},foresterChannel:"action-impressions"});k?p():(ue.attach("load",p),ue.attach("beforeunload",p));d.P&&d.P.register&&d.P.register("impression-client",function(){})}})(ue_csm,window);

</script>
<script type='text/javascript'>
(function(f,c,g){function a(a,b){return{name:a,getFeatureValue:function(){return void 0!==b|0}}}var e=f.ue||{},d=[a("dall",c.all),a("dcm",c.compatMode),a("xhr",g.XMLHttpRequest),a("qs",c.querySelector),a("ael",c.addEventListener),a("atob",g.atob)];e._bf=function(){for(var a="",b=0;b<d.length;b++)a+=d[b].name+"_"+d[b].getFeatureValue()+"-";(f.ue||{})._bf=null;return a};e._bf.modules=d;e._bf.mpm=a})(ue_csm,document,window);

</script>
<!--[if IE 5]>
<script type='text/javascript'> ue._bf.modules.push( ue._bf.mpm("cc_ie5", 1) ) </script>
<![endif]-->
<!--[if IE 6]>
<script type='text/javascript'> ue._bf.modules.push( ue._bf.mpm("cc_ie6", 1) ) </script>
<![endif]-->
<!--[if IE 7]>
<script type='text/javascript'> ue._bf.modules.push( ue._bf.mpm("cc_ie7", 1) ) </script>
<![endif]-->
<!--[if IE 8]>
<script type='text/javascript'> ue._bf.modules.push( ue._bf.mpm("cc_ie8", 1) ) </script>
<![endif]-->
<!--[if IE 9]>
<script type='text/javascript'> ue._bf.modules.push( ue._bf.mpm("cc_ie9", 1) ) </script>
<![endif]-->
<script type="text/javascript">
//<![CDATA[
    try
    {
        parent.$('amazon_customer_reviews').style.width = '100%';
        parent.$('amazon_customer_reviews').style.display = 'block';
        parent.$('amazon_customer_reviews').style.height = getBodyHeight() + 'px';
    }
    catch(err)
    {
        // ---
    }

    function getBodyHeight()
    {
        var frameBody = document.body, frameHtml = document.documentElement, myHeight = 0;
        if (frameBody.scrollHeight > myHeight) myHeight = frameBody.scrollHeight;
        if (frameBody.offsetHeight > myHeight) myHeight = frameBody.offsetHeight;
        if (frameHtml.clientHeight > myHeight) myHeight = frameHtml.clientHeight;
        if (frameHtml.scrollHeight > myHeight) myHeight = frameHtml.scrollHeight;
        if (frameHtml.offsetHeight > myHeight) myHeight = frameHtml.offsetHeight;
        return myHeight;
    }
//]]>
</script></body>
</html>






















