


  
  









  
  












<html>
<head>
<script type="text/javascript">var ue_t0=ue_t0||+new Date();</script>
<script type='text/javascript'>
var ue_id='1F7YPDN6207NYVTZ0T6E',
ue_csm = window,
ue_err_chan = 'jserr-rw',
ue = {};
ue_csm.ue_hob=ue_csm.ue_hob||+new Date();(function(c){var a=c.ue,b=(Date.now||function(){return +new Date()});a.lr=[];a.log=function(f,e,d){if(a.lr.length==500){return}a.lr.push(["l",f,e,d,a.d(),c.ue_id])};a.log.isStub=1;a.d=function(d){return b()-(d?0:c.ue_t0)}})(ue_csm);ue_csm.ue_hoe=+new Date();
ue_csm.ue_hob=ue_csm.ue_hob||+new Date();(function(f,a){var b="FATAL",c={ec:0,ecf:0,pec:0,ts:0,erl:[],ter:[],mxe:50,startTimer:function(){c.ts++;setInterval(function(){if(f.ue&&(c.pec<c.ec)){f.uex("at")}c.pec=c.ec},10000)}};function e(i,h){if(c.ec>c.mxe||!i){return}c.ec++;c.ter.push(i);h=h||{};var g=i.logLevel||h.logLevel;if(!g||(g==b)){c.ecf++}h.pageURL=""+(a.location?a.location.href:"");h.logLevel=g;h.attribution=i.attribution||h.attribution;c.erl.push({ex:i,info:h})}function d(l,k,g,i,h){var j={m:l,f:k,l:g,c:""+i,err:h,fromOnError:1,args:arguments};f.ueLogError(j);return false}d.skipTrace=1;e.skipTrace=1;f.ueLogError=e;f.ue_err=c;a.onerror=d})(ue_csm,window);ue_csm.ue_hoe=+new Date();


var ue_url='http://www.amazon.com/reviews/iframe/uedata/nvp/unsticky/188-4072324-9130123/CustomerReviews/ntpoffrw',
ue_sid='188-4072324-9130123',
ue_mid='ATVPDKIKX0DER',
ue_sn='www.amazon.com',
ue_furl='fls-na.amazon.com',
ue_navtiming=1,
ue_log_idx=0,
ue_fcsn=1,
ue_isrw=true,
ue_fpf='//fls-na.amazon.com/1/batch/1/OP/ATVPDKIKX0DER:188-4072324-9130123:1F7YPDN6207NYVTZ0T6E$uedata=s:',
ue_lnb=0,
ue_lwl=0,
ue_ran=0,
ue_nb=0,
ue_hpfi=500,
ue_lpfi=10000,
ue_osfp=0,
ue_novizfix=0,
ue_ssbf=1,
ue_fixnt=1,
ue_mce='mouseup';
if (!window.ue_csm) {var ue_csm = window;}
ue_csm.ue_hob=ue_csm.ue_hob||+new Date();function ue_viz(){(function(d,l,h){var k=0,b,n,f,a,c=["webkit","o","ms","moz",""],m=0,g=20,j="addEventListener";for(var e=0;(e<c.length&&!m);e++){b=c[e];n=(b?b+"H":"h")+"idden";m=typeof l[n]=="boolean";if(m){f=b+"visibilitychange";if(h.ue_novizfix!=1){a=(b?b+"V":"v")+"isibilityState"}else{a=b+"VisibilityState"}}}function o(r){if((d.ue.viz.length<g)&&!k){var q=r.type,i=r.originalEvent;if(!(/^focus./.test(q)&&i&&(i.toElement||i.fromElement||i.relatedTarget))){var s=l[a]||(q=="blur"||q=="focusout"?"hidden":"visible"),p=+new Date()-d.ue.t0;d.ue.viz.push(s+":"+p);if(s=="visible"){if(ue.isl){uex("at")}k=1}}}}o({});if(m){l[j](f,o,0)}if(d.ue&&m){d.ue.pageViz={event:f,propHid:n}}})(ue_csm,document,window)}ue_csm.ue_hoe=+new Date();
ue_csm.ue_hob=ue_csm.ue_hob||+new Date();(function(n,j){n.ueinit=(n.ueinit||0)+1;var c={t0:j.aPageStart||n.ue_t0,id:n.ue_id,url:n.ue_url,rid:n.ue_id,a:"",b:"",h:{},r:{ld:0,oe:0,ul:0},s:1,t:{},sc:{},iel:[],ielf:[],fc_idx:{},viz:[],v:"0.160.0",d:n.ue&&n.ue.d,log:n.ue&&n.ue.log,lr:n.ue&&n.ue.lr,ulh:[],cfa2:0},p=n.ue_fpf?1:0,b="beforeunload",e;function i(s){return s&&s.replace&&s.replace(/^\s+|\s+$/g,"")}function d(s){return typeof s==="undefined"}function a(s){return typeof s==="function"}function g(t,s){return(a(t.now)&&!d(s))?(new Date(s+t.now())-(new Date())):0}c.oid=i(c.id);c.lid=i(c.id);n.ue=c;n.ue._t0=n.ue.t0;function f(u){if(!n.ue_fpf||!j.encodeURIComponent||!u){return}var s=new Image(),t=""+n.ue_fpf+j.encodeURIComponent(u)+":"+(+new Date()-n.ue_t0);n.ue.iel.push(s);s.src=t}n.ue.tagC=function(){var s={};return function(t){if(t){s[t]=1}var v=[];for(var u in s){if(s.hasOwnProperty(u)){v.push(u)}}return v}};n.ue.tag=n.ue.tagC();n.ue.ifr=((j.top!==j.self)||(j.frameElement))?1:0;function l(u,x,z,w){var y=w||(+new Date()),v,s;if(x||d(z)){if(u){v=x?m("t",x)||m("t",x,{}):n.ue.t;v[u]=y;for(s in z){if(z.hasOwnProperty(s)){m(s,x,z[s])}}}return y}}function m(u,v,w){var t=n.ue,s=(v&&v!=t.id)?t.sc[v]:t;if(!s){s=(t.sc[v]={})}if(u=="id"&&w){t.cfa2=1;if(n.ue_ran&&n.ue_cel){n.ue_cel.reset(w)}}return(s[u]=(w||s[u]))}function r(w,x,v,t,s){var u="on"+v,y=x[u];if(a(y)){if(w){n.ue.h[w]=y}}else{y=function(){}}x[u]=s?function(z){t(z);y(z)}:function(z){y(z);t(z)};x[u].isUeh=1}function k(C,w,B){function u(ad,ab){var Z=[ad],U=0,aa={},S,T;if(ab){Z.push("m=1");aa[ab]=1}else{aa=n.ue.sc}for(T in aa){if(aa.hasOwnProperty(T)){var V=m("wb",T),Y=m("t",T)||{},X=m("t0",T)||n.ue.t0,ac,W;if(ab||V==2){ac=V?U++:"";Z.push("sc"+ac+"="+T);for(W in Y){if(W.length<=3&&Y[W]){Z.push(W+ac+"="+(Y[W]-X))}}Z.push("t"+ac+"="+Y[C]);if(m("ctb",T)||m("wb",T)){S=1}}}}if(!x&&S){Z.push("ctb=1")}return Z.join("&")}function N(S,T){if(n.ue.b){var U=n.ue.b;n.ue.b="";G(U,S,T,1)}}function G(S,V,Y,U){if(!S){return}var W=new Image(),aa=!U||!n.ue.log||!(j.amznJQ||j.P)||(j.amznJQ&&j.amznJQ.Ok),T=n.ue_err,X,Z;if(n.ue_osfp!=1&&aa){n.ue.iel.push(W);W.src=S}if(n.ue_osfp!=3){if(p){f(S)}else{if(n.ue.log){X=j.chrome&&(V=="ul");Z=(!U&&X)?1:0;n.ue.log(S,"uedata",n.ue_svi?{n:1,img:Z}:{n:1});n.ue.ielf.push(S)}}}if(T&&!T.ts){T.startTimer()}N(V,Y)}function Q(T){if(!ue.collected){var V=T.timing,U=T.navigation,S=ue.t;if(V){S.na_=V.navigationStart;S.ul_=V.unloadEventStart;S._ul=V.unloadEventEnd;S.rd_=V.redirectStart;S._rd=V.redirectEnd;S.fe_=V.fetchStart;S.lk_=V.domainLookupStart;S._lk=V.domainLookupEnd;S.co_=V.connectStart;S._co=V.connectEnd;S.sc_=V.secureConnectionStart;S.rq_=V.requestStart;S.rs_=V.responseStart;S._rs=V.responseEnd;S.dl_=V.domLoading;S.di_=V.domInteractive;S.de_=V.domContentLoadedEventStart;S._de=V.domContentLoadedEventEnd;S._dc=V.domComplete;S.ld_=V.loadEventStart;S._ld=V.loadEventEnd;if(n.ue_fixnt){S.ntd=g(T,S.na_)+n.ue.t0}}if(U){S.ty=U.type+n.ue.t0;S.rc=U.redirectCount+n.ue.t0}ue.collected=1}}if(!w&&!d(B)){return}for(var s in B){if(B.hasOwnProperty(s)){m(s,w,B[s])}}l("pc",w,B);var I=m("id",w)||n.ue.id,y=n.ue.url+"?"+C+"&v="+n.ue.v+"&id="+I,x=m("ctb",w)||m("wb",w),M=j.performance||j.webkitPerformance,J=n.ue.bfini,A=(M&&M.navigation?M.navigation.type:e),z=(A==2),E=(A&&(A!=2)),t,P;if(x){y+="&ctb="+x}if(n.ueinit>1){y+="&ic="+n.ueinit}if(!n.ue.cfa2){if(J&&J>1){y+="&bfform=1";if(!E){n.ue.isBFT=(J-1)}}if(z){y+="&bfnt=1";n.ue.isBFT=n.ue.isBFT||1}if(n.ue_ssbf&&n.ue.ssw&&n.ue.isBFT){if(d(n.ue.isNRBF)){var L=n.ue.ssw(n.ue.oid);if(!L.e&&!d(L.val)){n.ue.isNRBF=(L.val>1)?0:1}}if(!d(n.ue.isNRBF)){y+="&nrbf="+n.ue.isNRBF}}else{n.ue_ssbf=0}if(n.ue.isBFT&&!n.ue.isNRBF){y+="&bft="+n.ue.isBFT}}if(n.ue._fi&&C=="at"&&(!w||w==I)){y+=n.ue._fi()}if((C=="ld"||C=="ul")&&(!w||w==I)){if(C=="ld"){if(j.onbeforeunload&&j.onbeforeunload.isUeh){j.onbeforeunload=null}if(j.chrome){for(P=0;P<ue.ulh.length;P++){o("beforeunload",ue.ulh[P])}}var O=document.ue_backdetect;if(O&&O.ue_back){O.ue_back.value++}if(n._uess){t=n._uess()}n.ue.isl=1}if(n.ue_navtiming&&M&&M.timing){m("ctb",I,"1");if(n.ue_navtiming==1){l("tc",e,e,M.timing.navigationStart)}}if(M){Q(M)}n.ue.t.hob=n.ue_hob;n.ue.t.hoe=n.ue_hoe;if(n.ue.ifr){y+="&ifr=1"}}l(C,w,B);var H=(C=="ld"&&w&&m("wb",w)),K=1,F,v,R;if(H){m("wb",w,2)}else{if(C=="ld"){c.lid=i(I)}}for(F in n.ue.sc){if(m("wb",F)==1){K=0;break}}if(H){if(!n.ue.s){y=u(y,null)}else{return}}else{R=u(y,null);if(R!=y){n.ue.b=R}if(t){y+=t}y=u(y,w||n.ue.id)}if(n.ue.b||H){for(F in n.ue.sc){if(m("wb",F)==2){delete n.ue.sc[F]}}}var D=0;if(ue._rt){y+="&rt="+ue._rt()}if(!H){n.ue.s=0;v=n.ue_err;if(v&&v.ec>0&&(v.pec<v.ec)){v.pec=v.ec;y+="&ec="+v.ec+"&ecf="+v.ecf}D=m("ctb",w);m("t",w,{})}if(y&&n.ue.tag&&n.ue.tag().length>0){y+="&csmtags="+n.ue.tag().join("|");n.ue.tag=n.ue.tagC()}if(y&&n.ue.viz&&n.ue.viz.length>0){y+="&viz="+n.ue.viz.join("|");n.ue.viz=[]}if(y&&!d(n.ue_pty)){y+="&pty="+n.ue_pty+"&spty="+n.ue_spty+"&pti="+n.ue_pti}if(y&&n.ue.tabid){y+="&tid="+n.ue.tabid}if(y&&n.ue.aftb){y+="&aftb=1"}if(n.ue._ui&&(!w||w==I)){y+=n.ue._ui()}n.ue.a=y;G(y,C,D,H)}function h(s,t,u){u=u||j;if(u.addEventListener){u.addEventListener(s,t,false)}else{if(u.attachEvent){u.attachEvent("on"+s,t)}}}ue.attach=h;function o(s,t,u){u=u||j;if(u.removeEventListener){u.removeEventListener(s,t,false)}else{if(u.detachEvent){u.detachEvent("on"+s,t)}}}ue.detach=o;function q(){var v=n.ue.r,s,w;function t(){n.onUl()}function u(x){return function(){if(!v[x]){v[x]=1;k(x)}}}n.onLd=u("ld");n.onLdEnd=u("ld");n.onUl=u("ul");s={stop:u("os")};if(!j.chrome){s[b]=n.onUl}else{h("beforeunload",t);ue.ulh.push(t)}for(w in s){if(s.hasOwnProperty(w)){r(0,j,w,s[w])}}if(n.ue_viz){ue_viz()}h("load",n.onLd);l("ue")}ue.reset=function(t,s){if(t){if(n.ue_cel){n.ue_cel.reset()}n.ue.t0=+new Date();n.ue.rid=t;n.ue.id=t;n.ue.fc_idx={};n.ue.viz=[]}};n.uei=q;n.ueh=r;n.ues=m;n.uet=l;n.uex=k;q()})(ue_csm,window);ue_csm.ue_hoe=+new Date();


</script>
<script type='text/javascript'>
ue_csm.ue_hob=ue_csm.ue_hob||+new Date();(function(a){a.ue.cv={};a.ue.cv.scopes={};a.ue.count=function(d,b,c){var f={},e=a.ue.cv;f.counter=d;f.value=b;f.t=a.ue.d();if(c&&c.scope){e=a.ue.cv.scopes[c.scope]=a.ue.cv.scopes[c.scope]||{};f.scope=c.scope}if(b===undefined){return e[d]}e[d]=b;if(a.ue.log){a.ue.log(f,"csmcount",{c:1})}}})(ue_csm);ue_csm.ue_hoe=+new Date();
</script>

























<link href='http://z-ecx.images-amazon.com/images/G/01/nav2/gamma/websiteGlobalCSS/websiteGlobalCSS-websiteGlobal-10346._V1_.css' type='text/css' rel='stylesheet'>
<style type="text/css"><!--

.sans, .small, .h1, .h3color, .big, .tiny, .tinyprice, .highlight, .eyebrow,
    a:active, a:visited, a:link, div.unified_widget p.seeMore,
    div.unified_widget .carat, div.left_nav .carat, div.left_nav, div.left_nav
    h2, div.left_nav h3, div.left_nav a:link, div.left_nav a:visited,
    .popover-tiny, .horizontal-search, .horizontal-websearch, .topnav,
    .topnav-active a:link, .tabon a, .tabon a:visited, .taboff a, .taboff
    a:visited div.leftnav_popover h2, .signInMsg{
  font-family: verdana,arial,helvetica,sans-serif;
}
.listprice {
  font-family: arial,verdana,helvetica,sans-serif;
}
.price {
  font-family: arial,verdana,helvetica,sans-serif;
}
.serif, .sans, .h1, div.unified_widget .headline{
  font-size: medium;
}
.big {
  font-size: xx-large;
}
.small, .h3color, .highlight, .horizontal-search {
  font-size: small;
}
.signInMsg {
  font-size: x-small;
}
.tiny, .tinyprice, .popover-tiny, .horizontal-websearch {
  font-size: x-small;
}
body, td, th {
  font-family: verdana,arial,helvetica,sans-serif;
  font-size: small;
}
.eyebrowBackGroundColor {
  background-color: ;
}
div.left_nav, div.left_nav a:link, div.left_nav a:visited {
  font-family: Arial, sans-serif;
}

body {
  color: #000000;
  margin-top: 0px;
}
--></style> 




<style type="text/css"><!--

.crAuthorInfo {
  font-family:               verdana;
  font-size:                 0.86em;
  margin-left:               80px;
}

.crAuthorInfoCredibility {
  font-family:               verdana;
  font-size:                 0.86em;
}

.crBlue-bevel {
  background:                url(http://g-ecx.images-amazon.com/images/G/01/x-locale/communities/reviews/sliced-box-tbevel._V192249888_.gif) repeat-x top;
  height:                    1.45em;
}

.crBlueBorder-tl {
  background:                url(http://g-ecx.images-amazon.com/images/G/01/x-locale/communities/reviews/border-box-tl._V192249923_.gif) no-repeat top left;
  width:                     1em;
}
                                                                                                                                                             
.crBlueBorder-tc {
  background:                url(http://g-ecx.images-amazon.com/images/G/01/x-locale/communities/reviews/border-box-tc._V192249922_.gif) repeat-x top;
}
                                                                                                                                                             
.crBlueBorder-tr {
  background:                url(http://g-ecx.images-amazon.com/images/G/01/x-locale/communities/reviews/border-box-tr._V192249949_.gif) no-repeat top right;
  width:                     1em;
}
                                                                                                                                                             
.crBlueBorder-bl {
  background:                url(http://g-ecx.images-amazon.com/images/G/01/x-locale/communities/reviews/border-box-bl._V192249926_.gif) no-repeat bottom left;
}
                                                                                                                                                             
.crBlueBorder-bc {
  background:                url(http://g-ecx.images-amazon.com/images/G/01/x-locale/communities/reviews/border-box-bc._V192249923_.gif) repeat-x bottom;
}
                                                                                                                                                             
.crBlueBorder-br {
  background:                url(http://g-ecx.images-amazon.com/images/G/01/x-locale/communities/reviews/border-box-br._V192249923_.gif) no-repeat bottom right;
}

.crBox {
  background:                #DFEDF7;
  padding:                   0.2em 1.5em 0.2em 1.5em;
}

.crBox-tl {
  background:                #DFEDF7 url(http://g-ecx.images-amazon.com/images/G/01/x-locale/communities/reviews/box-tl._V192249949_.gif) no-repeat top left;
}

.crBox-tc {
  background:                url(http://g-ecx.images-amazon.com/images/G/01/x-locale/communities/reviews/box-tc._V192249950_.gif) repeat-x top;
}

.crBox-tr {
  background:                url(http://g-ecx.images-amazon.com/images/G/01/x-locale/communities/reviews/box-tr._V192249948_.gif) no-repeat top right;
}

.crBox-bl {
  background:                #DFEDF7 url(http://g-ecx.images-amazon.com/images/G/01/x-locale/communities/reviews/box-bl._V192249921_.gif) no-repeat bottom left;
}

.crBox-bc {
  background:                url(http://g-ecx.images-amazon.com/images/G/01/x-locale/communities/reviews/box-bc._V192249923_.gif) repeat-x bottom;
}

.crBox-br {
  background:                url(http://g-ecx.images-amazon.com/images/G/01/x-locale/communities/reviews/box-br._V192249949_.gif) no-repeat bottom right;
}

.crColumnEndMarker {
  clear:                     both;
  height:                    13px;
  background-image:          url(http://g-ecx.images-amazon.com/images/G/01/x-locale/communities/people/column-bottom-edge._V192250335_.gif);
  background-repeat:         no-repeat;
}

.crColumnEndMarker .rightEdge {
  float:                     right;
  background-image:          url(http://g-ecx.images-amazon.com/images/G/01/x-locale/communities/people/column-bottom-edge-right._V192250334_.gif);
  background-position:       right top;
  background-repeat:         no-repeat;
  width:                     13px;
  height:                    13px;
}


.crCdDotsBottom {
  clear:                     both;
  padding:                   1px;;
  font-size:                 0.0625em;
  margin:                    0 0 5px 0;
  background-image:          url(http://g-ecx.images-amazon.com/images/G/01/x-locale/communities/people/dotborder._V192250320_.gif);
  background-repeat:         repeat-x;
  background-position:       center;
}

.crDescription {
  font-family:               verdana;
  margin-left:               80px;
}


.crErrorMsg {
  color:                     red;
  font-weight:               bold;
}

.crFanlink {
  text-decoration: 	     none; 
  border-top-width:          0; 
  border-right-width:        0; 
  border-bottom-width:       1px;
  border-left-width:         0;
  border-top-color:          #146EB4;
  border-right-color:        #146EB4;
  border-bottom-color:       #146EB4;
  border-left-color:         #146EB4;
  border-top-style:          none;
  border-right-style:        none;
  border-bottom-style:       dashed;
  border-left-style:         none;
  color:                     #003399; 
}

.crFinePrint {
  font-size:                 0.7em;
  margin-top:                0.7em;
}

.crForm {
  width:                     100%;
  display:                   block;
}

.crHeaderText {
  color:                     #CC6600;
  padding-left:              0;
  padding-bottom:            5px;
  font-family:               helvetica,
  font-size:                 13px;
  font-weight:               bold;
  float:                     top;
  float:                     left;
}

h2.crHeading {
  color:                     #E47911;
  font-family:               Verdana,Helvetica,sans-serif;
  font-size:                 130%;
  margin:                    0 0 3px;
  padding-left:              0px;
}

h3.crHeading {
  color:                     #E47911;
  font-family:               Verdana,Helvetica,sans-serif;
  font-size:                 100%;
  margin:                    0 0 10px;
}

.crHeading {
  color:                     #c60;
  font-family:               sans-serif;
  font-size:                 1.5em;
  font-weight:               bold;
  padding-bottom:            0.5em;
  padding-left:              0.5em;
}

.crInnerBox {
  padding:                   0.6em 2em 0.6em 2em;
  background:                #EFF5F9;
  clear:                     both;
}

.crInnerBox-tl {
  background:                #EFF5F9 url(http://g-ecx.images-amazon.com/images/G/01/x-locale/communities/reviews/innerbox-tl._V192249896_.gif) no-repeat top left;
  clear: both;
}

.crInnerBox-tr {
  background:                #EFF5F9 url(http://g-ecx.images-amazon.com/images/G/01/x-locale/communities/reviews/innerbox-tr._V192249895_.gif) no-repeat top right;
  clear: both;
}

.crInnerBox-bl {
  background:                #EFF5F9 url(http://g-ecx.images-amazon.com/images/G/01/x-locale/communities/reviews/innerbox-bl._V192249902_.gif) no-repeat bottom left;
}

.crInnerBox-br {
  background:                url(http://g-ecx.images-amazon.com/images/G/01/x-locale/communities/reviews/innerbox-br._V192249902_.gif) no-repeat bottom right;
}

.crInputTitle {
  font-weight:               bold;
  vertical-align:            middle; 
}

.crInputFinePrint {
  color:                     #6E6E6E; 
  font-size:                 0.7em;
  padding-bottom:            1.5em; 
}

.crInput {
  padding:                   0em 0em 1.5em 0em;
  vertical-align:            middle;
}

.crInputFormField {
  font-family:               arial, helvetica, sans-serif;
}

.crInstruction {
  padding-bottom:            0.4em;
  float:                     left;
}

.crProductLinks {
  padding-bottom:            0.4em;
  float:                     right;
  vertical-align:            top;  
}

.crLargerTitle {
  font-family:               verdana, arial, helvetica, sans-serif;
  font-size:                 1.6em;
  color:                     #c60;
  padding-bottom:            5px;
  padding-top:               10px;
}

.crLine {
  clear:                     both;
  border:                    0;
  height:                    2px;
  color:                     #CADFE9;
  background-color:          #CADFE9;
  noshade:                   noshade;
}

.crPrevLeftButton {
  padding-left:              15px; 
  margin-bottom:             0px;
}

.crPrevRightButton {
  margin-bottom:             0px;
}

.crPicture {
  clear:                     both;
  float:                     left;
  text-align:                center;
  width:                     80px;
  overflow:                  hidden;
  padding-top:               0.2em;
}

.crReviewHeader  {
  font-family:               Verdana, Arial, Helvetica, sans-serif;
  font-size:                 1.5em;
  font-weight:               bold;
  color:                     #e47911;
  margin-top:                5px;
}

.crReviewSumBox {
  height:                    36px;
  background-image:          url(http://g-ecx.images-amazon.com/images/G/01/x-locale/communities/people/column-eyebrow-visitor._V192250334_.gif);
  background-repeat:         no-repeat;
  font-family:               verdana;
  font-size:                 36px;
}

.crReviewSumBox .titleText {
  float:                     left;
  font-weight:               bold;
  padding-left:              10px;
  padding-top:               10px;
  font-size:                 13px;
  font-family:               verdana;
  color:                     #000000;
  white-space:               nowrap;
}

.crReviewSumBox .rightEdge {
  background-image:          url(http://g-ecx.images-amazon.com/images/G/01/x-locale/communities/people/column-eyebrow-visitor-right._V192250335_.gif);
  width:                     12px;
  height:                    36px;
  background-repeat:         no-repeat;
  padding:                   0;
  float:                     right;
}

.crSectionTitle {
  color:                     #E57310;
  font-size:                 16px;
  font-weight:               bold;
  margin-top:                5px;
  margin-bottom:             5px;
}

.crProductReviewsSummary .crSolicitation {
  margin-top:               -20px;
}

.crSideHeading {
  color:                     #c60;
  font-weight:               bold;
  text-align:                center;
  padding-top:               0.4em;
}

.crStepNum {
  vertical-align:            top;
  padding:                   0em 0.6em 1.5em 0em;
}


.crTanBorder-tl {
  background:                url(http://g-ecx.images-amazon.com/images/G/01/x-locale/communities/boxes/boxfill/innerbox-tl._V192251350_.gif) no-repeat top left;
  width:                     1em;
}
                                                                                                                                                             
.crTanBorder-tc {
  background:                url(http://g-ecx.images-amazon.com/images/G/01/x-locale/communities/boxes/boxfill/innerbox-tc._V192251344_.gif) repeat-x top;
}
                                                                                                                                                             
.crTanBorder-tr {
  background:                url(http://g-ecx.images-amazon.com/images/G/01/x-locale/communities/boxes/boxfill/innerbox-tr._V192244553_.gif) no-repeat top right;
  width:                     1em;
}
                                                                                                                                                             
.crTanBorder-bl {
  background:                url(http://g-ecx.images-amazon.com/images/G/01/x-locale/communities/boxes/boxfill/innerbox-bl._V192251348_.gif) no-repeat bottom left;
}
                                                                                                                                                             
.crTanBorder-bc {
  background:                url(http://g-ecx.images-amazon.com/images/G/01/x-locale/communities/boxes/boxfill/innerbox-bc._V192241903_.gif) repeat-x bottom;
}
                                                                                                                                                             
.crTanBorder-br {
  background:                url(http://g-ecx.images-amazon.com/images/G/01/x-locale/communities/boxes/boxfill/innerbox-br._V192241895_.gif) no-repeat bottom right;
}

.crTextAreaHeader {
  background:                #B6CFE5;
  padding:                   0.4em 0em 0.4em 0em;
  width:                     620px;
}

.crTextTab {
  width:                     30%;
  float:                     left;
  white-space:               nowrap;
}

.crTextTabHeading {
  padding:                   0.3em 0 0.7em 0.6em;
}

.crThreadHeader {
  color:                     #CC6600;
  font-weight:               bold;
  float:                     left;
}

.crTipsBoxHeader {
  font-size:                 0.90em;
  font-weight:               bold;
  margin-bottom:             10px;
  margin-top:                10px;
}

.crTipsBoxTitle {
  color:                     #CC6600;
  font-size:                 1.1em;
  font-weight:               bold;
  margin-bottom:             10px;
}

h1.crTitle {
  color:                     #E47911;
  font-family:               Arial, Helvetica, sans-serif;
  font-size:                 218%;
  letter-spacing:            -0.03em;
  margin:                    0;
  padding:                   0;
}

.crTitle {
  font-family:               verdana, arial, helvetica, sans-serif;
  font-size:                 1.4em;
  font-weight:               bold;
}

.crTab-tl {
  background:                #EFF5F9 url(http://g-ecx.images-amazon.com/images/G/01/x-locale/communities/reviews/innerbox-tl._V192249896_.gif) no-repeat top left;
}

.crTab-tr {
  background:                url(http://g-ecx.images-amazon.com/images/G/01/x-locale/communities/reviews/innerbox-tr._V192249895_.gif) no-repeat top right;
}

.crVideoUpload {
  background:                #FFFFFF;
  border:                    0.1em solid #7F9DB9;
  text-align:                center;
  padding:                   0.4em;
}

.crVidTab {
  width:                     70%;
  float:                     left;
  white-space:               nowrap;
}

.crVidTabHeading {
  padding:                   0.3em 0 0.7em 0.6em;
}

table.crDataGrid th {
  background-color:          #EEEEEE;
  font-weight:               normal;
  font-size:                 70%;
  text-align:                left;
  color:                     #666666;
}

table.crDataGrid td {
  border-bottom:            1px solid #CCCCCC;
}

table.crDataGrid .img {
  height:                   92px;
}

table.crDataGrid .crNum {
  text-align:               right;
}

table.crDataGrid .crNumPercentHelpful {
  text-align:               right;
  padding-right:20px;
}

table.crDataGrid .crNumFanVoters {
  text-align:               right;
  border-left: solid 1px #cccccc;
}

ul.crBigBullet {
  margin:                    0em;
  padding:                   0em;
  list-style-image:          url(http://g-ecx.images-amazon.com/images/G/01/x-locale/communities/reviews/big-bullet._V192249925_.gif);
}

ul.crSmallBullet {

  padding-left:              0;
  margin:                    0.4em 0em 0.6em 1.5em;
  list-style-image:          url(http://g-ecx.images-amazon.com/images/G/01/x-locale/communities/reviews/small-bullet._V192249889_.gif);
}


.srCreateReview td.name {
  padding-left: 9px;
}

.srCreateReview .srPopoverList table.srList td a {
  margin-left: 0px;
}

.srCreateReview .srPopoverList table.srList td.name span.newAttribute {
  margin-left: 0px;
  color:       #000000;
}

.srCreateReview .srPopoverFooter {
  padding-left: 9px;
  padding-top:  9px;
}

.srCreateReview .srPopoverContentSection .heading {
  font-weight: normal;
}

#structuredRatingsList .cBox {
  width: 375px;
}

.structuredRatingsVisibilityLink {
  line-height: 2.5em;
  font-size: 0.86em;
}

.structuredRatingsVisibilityLinkText {
  margin-left: 5px;
}

#structuredRatingsListHelp {
  font-size: 0.86em;
  font-weight: normal;
}

#structuredRatingsList .srpopover .scrollSection {
  height: 210px;
}

.crVerifiedNew {
  font-size: 0.86em;
  font-weight: bold;
  color: #009900;
  margin-right: 0.5em;
} 

.crVerifyLearnMore {
  margin-left: 0.5em;
}

.crVerifiedPurchaseInputs {
  display: block;
  margin-bottom: 1em;
}

.crVerifiedBackfillSuboption {
  display: block;
  margin-left: 2em;
}

div.crCommentThread .cmPage {
  margin-left: 5px;
}

div#cdNonReplyPostBoxButton {
  margin-bottom: 40px;
}

#rdpItemInfo .crAvgStars {
  font-size: 10px;
}

.crIneligibleHeader {
  padding: 15px 9px 0 6px;
  color:                     #E47911;
  font-weight: 	             bold;
  font-size:                 218%;
  margin:                    0;
}

.crIneligibleMessage {
  font-size: 12px;
  border: solid 1px #0071B5;
  position: relative;
  background-color: #ffffdd;
  border-color: #E47911;
  padding: 18px 50px 18px 20px;
  margin: 10px 0 40px 10px;
}
.crIneligibleMessageImage {
  position: absolute;
}
.crIneligibleMessageHeader {
  font-size: 18px;
  font-weight: bold;
  margin: 0 0 4px 45px;
  padding: 0;
}
.crIneligibleMessageText {
  font-size:13px;
  margin: 0 0 6px 45px;
  width: 100%;
}


.crIFrame {
  margin: 10px;
}

.crIFrameLogo {
  margin-bottom: 20px;
}

.crIFrameHeaderLeftColumn {
  float: left;
  margin-right: 20px;
}

.crIFrameHeaderTitle {
  font-size:      24px;
  letter-spacing: -1px;
}

.crIFrameHeaderHistogram {
  float: left;
}

.crIFrameError {
  border-top:    1px solid #D1E6F7;
  border-bottom: 1px solid #D1E6F7;

  text-align:          center;
  line-height:         24px;
  width:               360px;
  padding:             20px;
  margin-top:          20px;
}

.crIFrameErrorText {
  font-size:  14px;
  font-weight: bold;
}

.crIFrameCreateReview {
  margin-bottom:   3px;
  white-space:     nowrap;
}

.crIFrameCreateReviewButton {
  vertical-align:  middle;
}

.crIFrameAverageReviewText {
  align: left;
  font-weight: bold;
}

.crIFrameNumCustReviews {
   white-space: nowrap;
}

.crIFrameReviewList {
  width: 100%;
  clear: left;
}


.CMheadingBar {
  background:url(http://g-ecx.images-amazon.com/images/G/01/nav2/images/gui/tile-blue-bg._V46870869_.gif) repeat-x;
  border-top:1px solid #BADAE8;
  border-bottom:1px solid #BADAE8;
  padding:6px;
}

.CMpaginate {
  color:#666;
}

.CMpaginate .on {
  border:1px solid #CC6600;
  padding:3px;
  background-color:white;
  color:#CC6600;
  text-decoration:none;
}

.CMpaginate a:link,
.CMpaginate a:visited {
  padding:4px;
  text-decoration:none;
}

.CMpaginate a:hover {
  padding:3px;
  background-color:white;
  border:1px solid #CC6600;
  color:#CC6600;
}

a.areaLink, a.areaLink:visited {
  text-decoration: none;
  color: black;
  display: block;
}

.areaLink .innerLink {
  white-space: nowrap;
  text-decoration: underline;
  color: #039;
}

div.crVS {
  width:       46%;
  text-align:  center;
  white-space: nowrap;
}

.crClear { clear: both; }
.crLeft { float: left; }
.crRight { float: right; }

.attr-sheet { padding-left:5px; }
.attr-sheet ul { margin-left: 31px; padding: 0; list-style: none; border: solid 1px #eee; border-radius: 5px; }
.attr-sheet ul li { padding: 5px; }
.attr-sheet li.alt { background: #F8F5D8 }
.attr-sheet li .label { font-weight: bold }
.attr-sheet li .vm { vertical-align: middle; }
.attr-sheet li .option-line { width: 100%; line-height: 1.75em; }
.attr-sheet li .option-line .label { float: left; width: 35%; max-width: 300px }
.attr-sheet li .option-line .option { float: left; width: 30%; max-width: 200px }
.attr-sheet li .option-undo { float: right; font-size: xx-small; display:none; }
.attr-sheet li .textbar-text { margin-top: 2px; clear: both; }
.attr-sheet li .textbar .empty { width: 35%; max-width: 300px; float:left; }
.attr-sheet li .textbar input { width: 50%; margin-left:5px; float:left; }
.attr-sheet li .textbar .blur { color: #999; }
.attr-preview .boldLabel { font-weight: bold }
.attr-preview .head { padding: 20px 0 0 25px }
.attr-preview .head-detail { padding-top: 5px }
.attr-preview .line { padding: 5px 0 15px 0 }
.attr-preview .lines { padding: 10px 0 0 25px }

.rypWgtDiv { margin-bottom: 20px; }

.rypWgtImgLink { 
    display: block;
    width: 300px;
    height: 97px;
    background: url('http://g-ecx.images-amazon.com/images/G/01/x-locale/communities/reviews/ryp-page-image2sprite._V399712482_.png') top;
    text-indent: -10000px;
}
.rypWgtImgLink:hover {
	background-position: bottom;
} 

--></style>

<META NAME="ROBOTS" CONTENT="NOINDEX, NOFOLLOW">

<script type="text/javascript">

var amznJQ,jQueryPatchIPadOffset=false;
(function() {
  function f(x) {return function(){x.push(arguments);}}
  function ch(y) {return String.fromCharCode(y);}
  var a=[],c=[],cs=[],d=[],l=[],o=[],s=[],p=[],t=[];
  amznJQ={
    _timesliceJS: false,
    _a:a,_c:c,_cs:cs,_d:d,_l:l,_o:o,_s:s,_pl:p,
    addLogical:f(l),
    addStyle:f(s),
    addPL:f(p),
    available:f(a),
    chars:{EOL:ch(10), SQUOTE:ch(39), DQUOTE:ch(34), BACKSLASH:ch(92), YEN:ch(165)},
    completedStage:f(cs),
    declareAvailable:f(d),
    onCompletion:f(c),
    onReady:f(o),
    strings:{}
  };
}());


</script>
<script type="text/javascript">
(function(f,c){var b=[];function d(g){b.push(g)}function a(h){if(!h){return}var g=f.head||f.getElementsByTagName("head")[0]||f.documentElement,i=f.createElement("script");i.async="async";i.src=h;g.insertBefore(i,g.firstChild)}function e(){ue.uels=a;for(var g=0;g<b.length;g++){a(b[g])}ue.deffered=1}if(c.ue){ue.uels=d;if(c.ue.attach){c.ue.attach("load",e)}}})(document,window);

    if (window.ue && window.ue.uels) {
    ue.uels("http://z-ecx.images-amazon.com/images/G/01/browser-scripts/csm-base-v2/csm-base-v2-min-858824421._V1_.js");
}
 else if (window.amznJQ) {
    amznJQ.addLogical('csm-base-v2', ["http://z-ecx.images-amazon.com/images/G/01/browser-scripts/csm-base-v2/csm-base-v2-min-858824421._V1_.js"]);
    amznJQ.available('csm-base-v2', function() {});
}


var ue_tbno = 0,
ue_tble = 0,
ue_sstb = 0,
ue_ssle = 0,
ue_tbpv = 0;

(function(c,m){var b=("; expires="+new Date(+new Date()+604800000).toGMTString()),j,h=c.ue_sstb,p=c.ue_tbno,k=c.ue_tble,i=c.ue_tbpv,o=c.ue||{},e=i&&o.pageViz&&o.pageViz.event&&o.pageViz.propHid;function n(q){j=q;document.cookie="csm-hit="+q+("|"+(+new Date()))+b+"; path=/"}function l(){var r="",t=o.isBFT?"b":"s",u=""+o.oid,q=""+o.lid,s=u;if((u!=q)&&(q.length==20)){t+="a";s+=("-"+q)}if(h&&o.tabid){r=o.tabid+"+"}r+=(t+"-"+s);return r}function d(r){var q=l();if((p||(q!=j))&&(q.length<100)){n(q)}if(k){a(""+(r?r.type:"interaction")+" "+q)}}function g(){j=0;if(k){a("blur")}}function a(q){if(o.log){o.log(q,"csm")}}function f(q){if(m[o.pageViz.propHid]===false){g()}else{if(m[o.pageViz.propHid]===true){d({type:"visible"})}}}if(o.attach){o.attach("click",d);o.attach("keyup",d);if(!p){if(!e||(i==4)||(i==5)){o.attach("focus",d);o.attach("blur",g)}if(e){o.attach(o.pageViz.event,f)}if(e&&((i==3)||(i==5))){f({})}}}o.aftb=1})(ue_csm,document);
(function(c){var a="[CSM] Alert invocation detected with argument: ",e="WARN",b=c.alert;function d(){if(c.ueLogError){c.ueLogError({message:a+arguments[0],logLevel:e})}Function.prototype.apply.apply(b,[c,arguments||[]])}window.alert=d})(window);
(function(c,g,k){var n=c.ue,b=c.uex,h=0,j=0,l,m,e,f,a={click:1,mousemove:2,scroll:3,keydown:4};if(!n||!b){return}function p(r){if(j){return}j=a[r.type];if(typeof r.clientX==="undefined"){e=r.pageX;f=r.pageY}else{e=r.clientX;f=r.clientY}if(j==2&&(!l||(l==e&&m==f))){l=e;m=f;j=0;return}for(var q in a){if(a.hasOwnProperty(q)){n.detach(q,p,k)}}if(n.isl){g.setTimeout(function(){b("at",n.id)},0)}}function o(){var i="";if(!h&&j){h=1;i+="&ui="+j}return i}for(var d in a){if(a.hasOwnProperty(d)){n.attach(d,p,k)}}n._ui=o})(ue_csm,window,document);
(function(b,g){var h=20,i=50,f="length",j=b.ue,d="getEntriesByType";function a(m,l){return m.filter(function(n){return n.initiatorType==l})}function e(l,n){if(!j.t[l]){return}var u=j.t[l]-j._t0,m=n.filter(function(v){return v.responseEnd!==0&&(k(v)<u)}),q=a(m,"script"),o=a(m,"link"),s=a(m,"img"),t=m.map(function(w){var v=w.name.match(new RegExp("^(https|http)?://(.+?)/","i"));return v&&v[2]}).filter(function(x,w,v){return x&&v.lastIndexOf(x)==w}),p=m.filter(function(v){return v.duration<h}),r=((u-Math.max.apply(null,m.map(k)))<i)|0;if(l=="af"){j._afjs=q.length}return l+":"+[m[f],q[f],o[f],s[f],t[f],p[f],r].join("-")}function k(l){return l.responseEnd-(j._t0-g.timing.navigationStart)}function c(){var o=g[d]("resource"),n=e("cf",o),l=e("af",o),m=e("ld",o);delete j._rt;j._ld=j.t.ld-j._t0;if(j._art){j._art()}return[n,l,m].join("_")}j._rre=k;j._rt=g&&g.timing&&g[d]&&c})(ue_csm,window.performance);

</script>
</head>
<body><div style='display:none;visibility:hidden;'>
    <img src='//fls-na.amazon.com/1/batch/1/OP/ATVPDKIKX0DER:188-4072324-9130123:1F7YPDN6207NYVTZ0T6E$uedata=s:%2Freviews%2Fiframe%2Fuedata%2Fnvp%2Funsticky%2F188-4072324-9130123%2FCustomerReviews%2Fntpoffrw%3Fstaticb%26id%3D1F7YPDN6207NYVTZ0T6E%26pty%3DError%26spty%3DPageNotFound%26pti%3D:1000' />


</div>
<script type='text/javascript'>
(function(){window.amzn=window.amzn||{};amzn.copilot=amzn.copilot||{};var f=window,k=document;var d=k.head||k.getElementsByTagName("head")[0],m="cpidv",b=0,j="cpJQUnavailable",a="cpLoadResourceError";amzn.copilot.checkCoPilotSession=function(){if(k.cookie.match(m)){if(typeof jQuery!=="undefined"){i(jQuery)}else{if(f.P&&f.P.when){f.P.when("jQuery").execute(function(n){i(n)})}else{if(f.amznJQ&&f.amznJQ.available){f.amznJQ.available("jQuery",function(){i(jQuery)})}else{c()}}}}};var c=function(){if(!b){b=1;if(k.addEventListener){k.addEventListener("DOMContentLoaded",amzn.copilot.checkCoPilotSession,false)}else{if(k.attachEvent){k.attachEvent("onreadystatechange",function(){if(k.readyState==="complete"){amzn.copilot.checkCoPilotSession()}})}}}else{if(f.ue&&(typeof f.ue.count==="function")){f.ue.count(j,1)}}};var i=function(p){amzn.copilot.jQuery=p;var o=l("debugJS"),n=f.location.protocol==="https:"?1:0;if(amzn.copilot.jQuery.ajax){amzn.copilot.jQuery.ajax({url:"/gp/copilot/handlers/copilot_strings_resources.html",dataType:"json",data:{isDebug:o,isSecure:n},success:function(q){amzn.copilot.vip=q.serviceEndPoint;g(q)},error:function(){f.ue.count(a,1)}})}};var g=function(o){var s=amzn.copilot.jQuery;var n=function(){amzn.copilot.setup(s.extend({isContinuedSession:true},o))};var q=o.CSSUrls||[copilotCSSUrl];s.each(q,function(t,u){e(u)});var r=l("forceSynchronousJS");var p=o.JSUrls[0]||[copilotJSUrl];s.each(p,function(t,u){if(t===p.length-1){h(u,r,n)}else{h(u,r)}})},h=function(o,q,n){var p=k.createElement("script");p.type="text/javascript";p.src=o;p.async=q?false:true;if(n){p.onload=n}d.appendChild(p)},e=function(n){var o=k.createElement("link");o.type="text/css";o.rel="stylesheet";o.href=n;d.appendChild(o)};function l(q){var o=f.location.search.substring(1);var n=o.split("&");for(var p=0;p<n.length;p++){var r=n[p].split("=");if(r[0]===q){return r[1]}}}})();
amzn.copilot.checkCoPilotSession();
</script>

<div class="crIFrame">
  
  






  























  




















    








  


  

































  
  











<div class="crIFrameLogo">
  <a href="http://www.amazon.com/ref=cm_cr_if_logo/188-4072324-9130123?ie=UTF8&amp;linkCode=sp1&amp;tag=wat081-20" target="_top"><img src="http://g-ecx.images-amazon.com/images/G/01/x-locale/common/amazon-logo-tiny._V192256679_.gif" width="113" alt="Amazon.com" height="23" border="0" /></a>
</div>



      <div class="crIframeHeaderTitle">Customer Reviews</div>
      
































    






























<table class="crIFrameReviewList">
<tr>
  <td>
    




















    











    
    











    




















































<!-- BOUNDARY -->
<a name="R2E27GYHU6FVOA"></a><br />


<div style="margin-left:0.5em;">
    
      <div style="margin-bottom:0.5em;">
        41 of 43 people found the following review helpful
      </div>
      <div style="margin-bottom:0.5em;">
        <span style='margin-left: -5px;'><img src="http://g-ecx.images-amazon.com/images/G/01/x-locale/common/customer-reviews/stars-4-0._V192240704_.gif" width="64" alt="4.0 out of 5 stars" title="4.0 out of 5 stars" height="12" border="0" /> </span>
        <b>OS X Mavericks HP software installation: lessons learned.</b>, <nobr>May 13, 2014</nobr>
      </div>
      <div style="margin-bottom:0.5em;">
        <div><div style="float:left;">By&nbsp;</div><div style="float:left;"><a href="http://www.amazon.com/gp/pdp/profile/A2P7UDXEEDG3LI/ref=cm_cr_if_pdp/188-4072324-9130123?ie=UTF8&linkCode=sp1&tag=wat081-20" target="_top"><span style = "font-weight: bold;">R. A. Brown</span></a>  - <a href="http://www.amazon.com/gp/cdp/member-reviews/A2P7UDXEEDG3LI/ref=cm_cr_if_auth_rev/188-4072324-9130123?ie=UTF8&amp;linkCode=sp1&amp;sort_by=MostRecentReview&amp;tag=wat081-20" target="_top">See all my reviews</a><br />
<a href="http://www.amazon.com/gp/help/customer/display.html/ref=cm_rn_bdg_help/188-4072324-9130123?ie=UTF8&nodeId=14279681&pop-up=1#RN" target="AmazonHelp" onclick="return amz_js_PopWin(this.href,'AmazonHelp','width=340,height=340,resizable=1,scrollbars=1,toolbar=1,status=1');"  ><img src="http://g-ecx.images-amazon.com/images/G/01/x-locale/communities/reputation/c7y_badge_rn_1._V192249968_.gif" width="70" align="absmiddle" alt="(REAL NAME)" height="15" border="0" /></a>
&nbsp;&nbsp;


</div></div><div style="clear:both;"></div>
      </div>
      <div class="tiny" style="margin-bottom:0.5em;">
        <b><span class="h3color tiny">This review is from: </span>HP M127FW Wireless Monochrome Laserjet Printer with Scanner and Copier (Office Product)</b>
      </div>

I gave this 4 stars because it took some trial and error to install successfully.  Part of it is on me, because I upgraded all of our Macs to Mavericks (OS X 10.9) about a month ago, and the software on the HP Mac Software CD only works on versions through OS X 10.8.  I know this because I didn't follow my own protocol for installing new hardware on a new OS (don't trust the supplied software, go to the manufacturer's web site and look for updated software).  I did try to install the printer from the supplied CD.  It led me on, too, until it bombed out at about step 6 of 7.  I had to uninstall everything before I could start over.<br /><br />Therefore, here are the instructions for locating and downloading the M127FW Mavericks driver (Mavericks "Software Update" won't do anything for you, since it technically doesn't "know" about the printer if you're trying to do everything wirelessly):<br /><br />- On HP's site, hover your cursor over "Support," click on "Drivers," and enter...






<a href="http://www.amazon.com/HP-M127FW-Wireless-Monochrome-Laserjet/product-reviews/B00EELU4ES/ref=cm_cr_if/188-4072324-9130123?ie=UTF8&linkCode=sp1&showViewpoints=0&tag=wat081-20#R2E27GYHU6FVOA" target="_top">Read more</a>
      <hr size="1" style="border-top: 1px dashed #ACACAC;"/><div style="padding-top: 10px; clear: both; width: 100%; display:none;">

  




        <div class="reviews-voting-stripe" style="float:left; padding-right:15px; border-right:1px solid #CCCCCC"><div style="padding-bottom:5px;"><b class="tiny" style="color:#666666;white-space:nowrap;">Help other customers find the most helpful reviews</b>&nbsp;</div><div style="width:300px;">









<a name="R2E27GYHU6FVOA.2115.Helpful.Reviews" style="font-size:1px;"> </a><span
class="crVotingButtons"><nobr><span class="votingPrompt">Was this review helpful to you?&nbsp;</span><a rel="nofollow" class="votingButtonReviews yesButton" href="http://www.amazon.com/gp/voting/cast/Reviews/2115/R2E27GYHU6FVOA/Helpful/1/ref=cm_cr_ifvoteyn/188-4072324-9130123?ie=UTF8&target=aHR0cDovL3d3dy5hbWF6b24uY29tL3Byb2R1Y3QtcmV2aWV3cy9CMDBFRUxVNEVTL3JlZj1jbV9jcl9pZnZvdGVyZHIvMTg4LTQwNzIzMjQtOTEzMDEyMz9fZW5jb2Rpbmc9VVRGOCZha2lkPUFLSUFKMk5ZMkUzWU1MS0o2NFpRJmFsaW5rQ29kZT1zcDEmYXNpbj1CMDBFRUxVNEVTJmF0YWc9d2F0MDgxLTIwJmV4cD0yMDE1LTAxLTIxVDA4JTNBMDElM0ExM1ombGlua0NvZGU9c3AxJnNpZz1ORTNpV2NEQmZTYmdCNWI4ZFR2TyUyMFJkbENXT0k3V1NLRWNuRHlpd3ElMjBKdyUzRCZzdW1tYXJ5PTAmdGFnPXdhdDA4MS0yMCZ0cnVuY2F0ZT0wJnY9Mg&token=084AF88EBF255BC42F7D658BB220052A08F98960&voteAnchorName=R2E27GYHU6FVOA.2115.Helpful.Reviews&voteSessionID=188-4072324-9130123"><img src="http://g-ecx.images-amazon.com/images/G/01/x-locale/communities/reviews/btn-yes-sec-md._V192249951_.gif" width="35" alt="Yes" style="vertical-align:middle;" height="18" border="0" /></a>
<a rel="nofollow" class="votingButtonReviews noButton" href="http://www.amazon.com/gp/voting/cast/Reviews/2115/R2E27GYHU6FVOA/Helpful/-1/ref=cm_cr_ifvoteyn/188-4072324-9130123?ie=UTF8&target=aHR0cDovL3d3dy5hbWF6b24uY29tL3Byb2R1Y3QtcmV2aWV3cy9CMDBFRUxVNEVTL3JlZj1jbV9jcl9pZnZvdGVyZHIvMTg4LTQwNzIzMjQtOTEzMDEyMz9fZW5jb2Rpbmc9VVRGOCZha2lkPUFLSUFKMk5ZMkUzWU1MS0o2NFpRJmFsaW5rQ29kZT1zcDEmYXNpbj1CMDBFRUxVNEVTJmF0YWc9d2F0MDgxLTIwJmV4cD0yMDE1LTAxLTIxVDA4JTNBMDElM0ExM1ombGlua0NvZGU9c3AxJnNpZz1ORTNpV2NEQmZTYmdCNWI4ZFR2TyUyMFJkbENXT0k3V1NLRWNuRHlpd3ElMjBKdyUzRCZzdW1tYXJ5PTAmdGFnPXdhdDA4MS0yMCZ0cnVuY2F0ZT0wJnY9Mg&token=2946DF7CF9461A2F5A32E98D2AC1EA320B41AEFB&voteAnchorName=R2E27GYHU6FVOA.2115.Helpful.Reviews&voteSessionID=188-4072324-9130123"><img src="http://g-ecx.images-amazon.com/images/G/01/x-locale/communities/reviews/btn-no-sec-md._V192249949_.gif" width="35" alt="No" style="vertical-align:middle;" height="18" border="0" /></a></nobr> <span class="votingMessage"></span></span>

</div></div><div style="float:left;"><div style="padding-left:15px;"><div style="white-space:nowrap;"><span class='tiny'>








<a name="R2E27GYHU6FVOA.2115.Inappropriate.Reviews" style="font-size:1px;"> </a><span class="reportingButton"><nobr><a rel="nofollow" class="reportingButton" href="http://www.amazon.com/gp/voting/cast/Reviews/2115/R2E27GYHU6FVOA/Inappropriate/1/ref=cm_cr_ifvoteyn/188-4072324-9130123?ie=UTF8&target=aHR0cDovL3d3dy5hbWF6b24uY29tL3Byb2R1Y3QtcmV2aWV3cy9CMDBFRUxVNEVTL3JlZj1jbV9jcl9pZnZvdGVyZHIvMTg4LTQwNzIzMjQtOTEzMDEyMz9fZW5jb2Rpbmc9VVRGOCZha2lkPUFLSUFKMk5ZMkUzWU1MS0o2NFpRJmFsaW5rQ29kZT1zcDEmYXNpbj1CMDBFRUxVNEVTJmF0YWc9d2F0MDgxLTIwJmV4cD0yMDE1LTAxLTIxVDA4JTNBMDElM0ExM1ombGlua0NvZGU9c3AxJnNpZz1ORTNpV2NEQmZTYmdCNWI4ZFR2TyUyMFJkbENXT0k3V1NLRWNuRHlpd3ElMjBKdyUzRCZzdW1tYXJ5PTAmdGFnPXdhdDA4MS0yMCZ0cnVuY2F0ZT0wJnY9Mg&token=8A25A7FE270AF667892F93F384A755A0F1FD8C6C&voteAnchorName=R2E27GYHU6FVOA.2115.Inappropriate.Reviews&voteSessionID=188-4072324-9130123"
>Report abuse</a></nobr></span>
</span> <span style="color:#CCCCCC;">|</span> <span class="tiny"><a href="http://www.amazon.com/review/R2E27GYHU6FVOA/ref=cm_cr_if_perm/?ie=UTF8&ASIN=B00EELU4ES&linkCode=sp1&tag=wat081-20" target="_top">Permalink</a></span></div><div style="white-space:nowrap;padding-left:-5px;padding-top:5px;"><a href="http://www.amazon.com/review/R2E27GYHU6FVOA/ref=cm_cr_if_cmt/188-4072324-9130123?ie=UTF8&ASIN=B00EELU4ES&linkCode=sp1&tag=wat081-20#wasThisHelpful" target="_top"><img src="http://g-ecx.images-amazon.com/images/G/01/x-locale/communities/discussion_boards/comment-sm._V192250344_.gif" width="16" alt="Comment" hspace="3" align="absmiddle" height="16" border="0" /></a>&nbsp;<a href="http://www.amazon.com/review/R2E27GYHU6FVOA/ref=cm_cr_if_cmt/188-4072324-9130123?ie=UTF8&ASIN=B00EELU4ES&linkCode=sp1&tag=wat081-20#wasThisHelpful" target="_top">Comments (2)</a></div></div></div><div style="clear:both;"></div>
      </div>
      <br />

</div>

  
























































<!-- BOUNDARY -->
<a name="R2X4SKLCF3TQWE"></a><br />


<div style="margin-left:0.5em;">
    
      <div style="margin-bottom:0.5em;">
        21 of 24 people found the following review helpful
      </div>
      <div style="margin-bottom:0.5em;">
        <span style='margin-left: -5px;'><img src="http://g-ecx.images-amazon.com/images/G/01/x-locale/common/customer-reviews/stars-5-0._V192240867_.gif" width="64" alt="5.0 out of 5 stars" title="5.0 out of 5 stars" height="12" border="0" /> </span>
        <b>HP M127FW is a money-saving champ for light home office use</b>, <nobr>August 3, 2014</nobr>
      </div>
      <div style="margin-bottom:0.5em;">
        <div><div style="float:left;">By&nbsp;</div><div style="float:left;"><a href="http://www.amazon.com/gp/pdp/profile/A16IM9MYTHCKYQ/ref=cm_cr_if_pdp/188-4072324-9130123?ie=UTF8&linkCode=sp1&tag=wat081-20" target="_top"><span style = "font-weight: bold;">Penumbra</span></a> (Atlanta, GA USA)  - <a href="http://www.amazon.com/gp/cdp/member-reviews/A16IM9MYTHCKYQ/ref=cm_cr_if_auth_rev/188-4072324-9130123?ie=UTF8&amp;linkCode=sp1&amp;sort_by=MostRecentReview&amp;tag=wat081-20" target="_top">See all my reviews</a><br />
<a href="http://www.amazon.com/gp/help/customer/display.html/ref=cm_rn_bdg_help/188-4072324-9130123?ie=UTF8&nodeId=14279681&pop-up=1#TR" target="AmazonHelp" onclick="return amz_js_PopWin(this.href,'AmazonHelp','width=340,height=340,resizable=1,scrollbars=1,toolbar=1,status=1');"  ><img src="http://g-ecx.images-amazon.com/images/G/01/x-locale/communities/reputation/c7y_badge_tr_6._V192249968_.gif" width="101" align="absmiddle" alt="(TOP 1000 REVIEWER)" height="15" border="0" /></a>
&nbsp;&nbsp;


</div></div><div style="clear:both;"></div>
      </div>
      <div class="tiny" style="margin-bottom:0.5em;">
        <b><span class="h3color tiny">This review is from: </span>HP M127FW Wireless Monochrome Laserjet Printer with Scanner and Copier (Office Product)</b>
      </div>
      <div style="margin-bottom:0.5em;">
        <span class="small" style="color: #009900"><b>Vine Customer Review of Free Product</b></span> <span class="tiny nowrap">(<a href="http://www.amazon.com/gp/vine/help/188-4072324-9130123">What's this?</a>)</span>
      </div>

As an addition to my home office, I find this HP M127FW printer perfectly suits my needs.  As a Laserjet, this printer is faster and crisper than the other Inkjet printers I've had at home.<br /><br />The Monochrome (black and white) printing is all I need to print out my work documents and emails. The HP83A replacement toner cartridge costs $58 on ,Amazon and prints about 1500 pages -- less than .04 / page.  (I find this an money saving bargain compared to my previously spending easily three times that amount for sets of four (black, magenta, cyan and yellow) relatively small,  Inkjet cartridges.  With color Inkjets, usually if any one of the colors run out - the printer doesn't work.)  What makes the M127FW such a dream for me is that it doesn't waste expensive colored inks printing some company logos and color bands that I don't need or care about.<br /><br />M127FW is also a space saver for me; it's stashed out of the way in a closet and prints wirelessly (although USB and...






<a href="http://www.amazon.com/HP-M127FW-Wireless-Monochrome-Laserjet/product-reviews/B00EELU4ES/ref=cm_cr_if/188-4072324-9130123?ie=UTF8&linkCode=sp1&showViewpoints=0&tag=wat081-20#R2X4SKLCF3TQWE" target="_top">Read more</a>
      <hr size="1" style="border-top: 1px dashed #ACACAC;"/><div style="padding-top: 10px; clear: both; width: 100%; display:none;">

  




        <div class="reviews-voting-stripe" style="float:left; padding-right:15px; border-right:1px solid #CCCCCC"><div style="padding-bottom:5px;"><b class="tiny" style="color:#666666;white-space:nowrap;">Help other customers find the most helpful reviews</b>&nbsp;</div><div style="width:300px;">









<a name="R2X4SKLCF3TQWE.2115.Helpful.Reviews" style="font-size:1px;"> </a><span
class="crVotingButtons"><nobr><span class="votingPrompt">Was this review helpful to you?&nbsp;</span><a rel="nofollow" class="votingButtonReviews yesButton" href="http://www.amazon.com/gp/voting/cast/Reviews/2115/R2X4SKLCF3TQWE/Helpful/1/ref=cm_cr_ifvoteyn/188-4072324-9130123?ie=UTF8&target=aHR0cDovL3d3dy5hbWF6b24uY29tL3Byb2R1Y3QtcmV2aWV3cy9CMDBFRUxVNEVTL3JlZj1jbV9jcl9pZnZvdGVyZHIvMTg4LTQwNzIzMjQtOTEzMDEyMz9fZW5jb2Rpbmc9VVRGOCZha2lkPUFLSUFKMk5ZMkUzWU1MS0o2NFpRJmFsaW5rQ29kZT1zcDEmYXNpbj1CMDBFRUxVNEVTJmF0YWc9d2F0MDgxLTIwJmV4cD0yMDE1LTAxLTIxVDA4JTNBMDElM0ExM1ombGlua0NvZGU9c3AxJnNpZz1ORTNpV2NEQmZTYmdCNWI4ZFR2TyUyMFJkbENXT0k3V1NLRWNuRHlpd3ElMjBKdyUzRCZzdW1tYXJ5PTAmdGFnPXdhdDA4MS0yMCZ0cnVuY2F0ZT0wJnY9Mg&token=66AF9C102C0712500C5D174D5D30C30EFE2773F4&voteAnchorName=R2X4SKLCF3TQWE.2115.Helpful.Reviews&voteSessionID=188-4072324-9130123"><img src="http://g-ecx.images-amazon.com/images/G/01/x-locale/communities/reviews/btn-yes-sec-md._V192249951_.gif" width="35" alt="Yes" style="vertical-align:middle;" height="18" border="0" /></a>
<a rel="nofollow" class="votingButtonReviews noButton" href="http://www.amazon.com/gp/voting/cast/Reviews/2115/R2X4SKLCF3TQWE/Helpful/-1/ref=cm_cr_ifvoteyn/188-4072324-9130123?ie=UTF8&target=aHR0cDovL3d3dy5hbWF6b24uY29tL3Byb2R1Y3QtcmV2aWV3cy9CMDBFRUxVNEVTL3JlZj1jbV9jcl9pZnZvdGVyZHIvMTg4LTQwNzIzMjQtOTEzMDEyMz9fZW5jb2Rpbmc9VVRGOCZha2lkPUFLSUFKMk5ZMkUzWU1MS0o2NFpRJmFsaW5rQ29kZT1zcDEmYXNpbj1CMDBFRUxVNEVTJmF0YWc9d2F0MDgxLTIwJmV4cD0yMDE1LTAxLTIxVDA4JTNBMDElM0ExM1ombGlua0NvZGU9c3AxJnNpZz1ORTNpV2NEQmZTYmdCNWI4ZFR2TyUyMFJkbENXT0k3V1NLRWNuRHlpd3ElMjBKdyUzRCZzdW1tYXJ5PTAmdGFnPXdhdDA4MS0yMCZ0cnVuY2F0ZT0wJnY9Mg&token=3C8B23351A715E2C61E460B1C610D43D2AA54C60&voteAnchorName=R2X4SKLCF3TQWE.2115.Helpful.Reviews&voteSessionID=188-4072324-9130123"><img src="http://g-ecx.images-amazon.com/images/G/01/x-locale/communities/reviews/btn-no-sec-md._V192249949_.gif" width="35" alt="No" style="vertical-align:middle;" height="18" border="0" /></a></nobr> <span class="votingMessage"></span></span>

</div></div><div style="float:left;"><div style="padding-left:15px;"><div style="white-space:nowrap;"><span class='tiny'>








<a name="R2X4SKLCF3TQWE.2115.Inappropriate.Reviews" style="font-size:1px;"> </a><span class="reportingButton"><nobr><a rel="nofollow" class="reportingButton" href="http://www.amazon.com/gp/voting/cast/Reviews/2115/R2X4SKLCF3TQWE/Inappropriate/1/ref=cm_cr_ifvoteyn/188-4072324-9130123?ie=UTF8&target=aHR0cDovL3d3dy5hbWF6b24uY29tL3Byb2R1Y3QtcmV2aWV3cy9CMDBFRUxVNEVTL3JlZj1jbV9jcl9pZnZvdGVyZHIvMTg4LTQwNzIzMjQtOTEzMDEyMz9fZW5jb2Rpbmc9VVRGOCZha2lkPUFLSUFKMk5ZMkUzWU1MS0o2NFpRJmFsaW5rQ29kZT1zcDEmYXNpbj1CMDBFRUxVNEVTJmF0YWc9d2F0MDgxLTIwJmV4cD0yMDE1LTAxLTIxVDA4JTNBMDElM0ExM1ombGlua0NvZGU9c3AxJnNpZz1ORTNpV2NEQmZTYmdCNWI4ZFR2TyUyMFJkbENXT0k3V1NLRWNuRHlpd3ElMjBKdyUzRCZzdW1tYXJ5PTAmdGFnPXdhdDA4MS0yMCZ0cnVuY2F0ZT0wJnY9Mg&token=88C9572FB4F309F776A6D7A1752A52A36FB7D478&voteAnchorName=R2X4SKLCF3TQWE.2115.Inappropriate.Reviews&voteSessionID=188-4072324-9130123"
>Report abuse</a></nobr></span>
</span> <span style="color:#CCCCCC;">|</span> <span class="tiny"><a href="http://www.amazon.com/review/R2X4SKLCF3TQWE/ref=cm_cr_if_perm/?ie=UTF8&ASIN=B00EELU4ES&linkCode=sp1&tag=wat081-20" target="_top">Permalink</a></span></div><div style="white-space:nowrap;padding-left:-5px;padding-top:5px;"><a href="http://www.amazon.com/review/R2X4SKLCF3TQWE/ref=cm_cr_if_cmt/188-4072324-9130123?ie=UTF8&ASIN=B00EELU4ES&linkCode=sp1&tag=wat081-20#wasThisHelpful" target="_top"><img src="http://g-ecx.images-amazon.com/images/G/01/x-locale/communities/discussion_boards/comment-sm._V192250344_.gif" width="16" alt="Comment" hspace="3" align="absmiddle" height="16" border="0" /></a>&nbsp;<a href="http://www.amazon.com/review/R2X4SKLCF3TQWE/ref=cm_cr_if_cmt/188-4072324-9130123?ie=UTF8&ASIN=B00EELU4ES&linkCode=sp1&tag=wat081-20#wasThisHelpful" target="_top">Comment</a></div></div></div><div style="clear:both;"></div>
      </div>
      <br />

</div>

  




































































<!-- BOUNDARY -->
<a name="R3T4P2PT0EQKK2"></a><br />


<div style="margin-left:0.5em;">
    
      <div style="margin-bottom:0.5em;">
        42 of 52 people found the following review helpful
      </div>
      <div style="margin-bottom:0.5em;">
        <span style='margin-left: -5px;'><img src="http://g-ecx.images-amazon.com/images/G/01/x-locale/common/customer-reviews/stars-2-0._V192240756_.gif" width="64" alt="2.0 out of 5 stars" title="2.0 out of 5 stars" height="12" border="0" /> </span>
        <b>I'm not a fan</b>, <nobr>July 31, 2014</nobr>
      </div>
      <div style="margin-bottom:0.5em;">
        <div><div style="float:left;">By&nbsp;</div><div style="float:left;"><a href="http://www.amazon.com/gp/pdp/profile/A2BLFCOPSMBOZ9/ref=cm_cr_if_pdp/188-4072324-9130123?ie=UTF8&linkCode=sp1&tag=wat081-20" target="_top"><span style = "font-weight: bold;">Dave Edmiston</span></a> (So Cal)  - <a href="http://www.amazon.com/gp/cdp/member-reviews/A2BLFCOPSMBOZ9/ref=cm_cr_if_auth_rev/188-4072324-9130123?ie=UTF8&amp;linkCode=sp1&amp;sort_by=MostRecentReview&amp;tag=wat081-20" target="_top">See all my reviews</a><br />
<a href="http://www.amazon.com/gp/help/customer/display.html/ref=cm_rn_bdg_help/188-4072324-9130123?ie=UTF8&nodeId=14279681&pop-up=1#TR" target="AmazonHelp" onclick="return amz_js_PopWin(this.href,'AmazonHelp','width=340,height=340,resizable=1,scrollbars=1,toolbar=1,status=1');"  ><img src="http://g-ecx.images-amazon.com/images/G/01/x-locale/communities/reputation/c7y_badge_tr_4._V192249968_.gif" width="94" align="absmiddle" alt="(TOP 100 REVIEWER)" height="15" border="0" /></a>
&nbsp;&nbsp;
<a href="http://www.amazon.com/gp/help/customer/display.html/ref=cm_rn_bdg_help/188-4072324-9130123?ie=UTF8&nodeId=14279681&pop-up=1#VN" target="AmazonHelp" onclick="return amz_js_PopWin(this.href,'AmazonHelp','width=340,height=340,resizable=1,scrollbars=1,toolbar=1,status=1');"  ><img src="http://g-ecx.images-amazon.com/images/G/01/x-locale/communities/reputation/c7y_badge_vn_1._V192249933_.gif" width="62" align="absmiddle" alt="(VINE VOICE)" height="15" border="0" /></a>
&nbsp;&nbsp;


</div></div><div style="clear:both;"></div>
      </div>
      <div class="tiny" style="margin-bottom:0.5em;">
        <b><span class="h3color tiny">This review is from: </span>HP M127FW Wireless Monochrome Laserjet Printer with Scanner and Copier (Office Product)</b>
      </div>
      <div style="margin-bottom:0.5em;">
        <span class="small" style="color: #009900"><b>Vine Customer Review of Free Product</b></span> <span class="tiny nowrap">(<a href="http://www.amazon.com/gp/vine/help/188-4072324-9130123">What's this?</a>)</span>
      </div>

I've been using HP printers for over 20 years and I've been a pretty loyal fan for most of this time.  I'm not happy with this multifunction printer though.  It has so much potential, but it falls short of my expectations.<br /><br />I try to conserve paper as much as possible, but I can't help it that I typically print around 50 pages per day.  I usually print double-sided, but that's not an option on this printer.<br /><br />So here are my gripes with this device:<br /><br />*  As I already mentioned, this printer doesn't provide automatic duplex printing.  You can manually print duplex, but in my experience manual duplex printing is error prone and not worth the trouble.<br /><br />*  Very small toner cartridge.  This is the smallest toner cartridge of any HP printer I've ever used.  It is rated at 550 pages, which probably means that it actually prints fewer pages.  That's pretty bad.  At the current Amazon price of $57.24, that's ten and a half cents per page.  Ten cents per page...






<a href="http://www.amazon.com/HP-M127FW-Wireless-Monochrome-Laserjet/product-reviews/B00EELU4ES/ref=cm_cr_if/188-4072324-9130123?ie=UTF8&linkCode=sp1&showViewpoints=0&tag=wat081-20#R3T4P2PT0EQKK2" target="_top">Read more</a>
      <hr size="1" style="border-top: 1px dashed #ACACAC;"/><div style="padding-top: 10px; clear: both; width: 100%; display:none;">

  




        <div class="reviews-voting-stripe" style="float:left; padding-right:15px; border-right:1px solid #CCCCCC"><div style="padding-bottom:5px;"><b class="tiny" style="color:#666666;white-space:nowrap;">Help other customers find the most helpful reviews</b>&nbsp;</div><div style="width:300px;">









<a name="R3T4P2PT0EQKK2.2115.Helpful.Reviews" style="font-size:1px;"> </a><span
class="crVotingButtons"><nobr><span class="votingPrompt">Was this review helpful to you?&nbsp;</span><a rel="nofollow" class="votingButtonReviews yesButton" href="http://www.amazon.com/gp/voting/cast/Reviews/2115/R3T4P2PT0EQKK2/Helpful/1/ref=cm_cr_ifvoteyn/188-4072324-9130123?ie=UTF8&target=aHR0cDovL3d3dy5hbWF6b24uY29tL3Byb2R1Y3QtcmV2aWV3cy9CMDBFRUxVNEVTL3JlZj1jbV9jcl9pZnZvdGVyZHIvMTg4LTQwNzIzMjQtOTEzMDEyMz9fZW5jb2Rpbmc9VVRGOCZha2lkPUFLSUFKMk5ZMkUzWU1MS0o2NFpRJmFsaW5rQ29kZT1zcDEmYXNpbj1CMDBFRUxVNEVTJmF0YWc9d2F0MDgxLTIwJmV4cD0yMDE1LTAxLTIxVDA4JTNBMDElM0ExM1ombGlua0NvZGU9c3AxJnNpZz1ORTNpV2NEQmZTYmdCNWI4ZFR2TyUyMFJkbENXT0k3V1NLRWNuRHlpd3ElMjBKdyUzRCZzdW1tYXJ5PTAmdGFnPXdhdDA4MS0yMCZ0cnVuY2F0ZT0wJnY9Mg&token=0ABA2496E7E06841EC74166FCFC711C74A6F1293&voteAnchorName=R3T4P2PT0EQKK2.2115.Helpful.Reviews&voteSessionID=188-4072324-9130123"><img src="http://g-ecx.images-amazon.com/images/G/01/x-locale/communities/reviews/btn-yes-sec-md._V192249951_.gif" width="35" alt="Yes" style="vertical-align:middle;" height="18" border="0" /></a>
<a rel="nofollow" class="votingButtonReviews noButton" href="http://www.amazon.com/gp/voting/cast/Reviews/2115/R3T4P2PT0EQKK2/Helpful/-1/ref=cm_cr_ifvoteyn/188-4072324-9130123?ie=UTF8&target=aHR0cDovL3d3dy5hbWF6b24uY29tL3Byb2R1Y3QtcmV2aWV3cy9CMDBFRUxVNEVTL3JlZj1jbV9jcl9pZnZvdGVyZHIvMTg4LTQwNzIzMjQtOTEzMDEyMz9fZW5jb2Rpbmc9VVRGOCZha2lkPUFLSUFKMk5ZMkUzWU1MS0o2NFpRJmFsaW5rQ29kZT1zcDEmYXNpbj1CMDBFRUxVNEVTJmF0YWc9d2F0MDgxLTIwJmV4cD0yMDE1LTAxLTIxVDA4JTNBMDElM0ExM1ombGlua0NvZGU9c3AxJnNpZz1ORTNpV2NEQmZTYmdCNWI4ZFR2TyUyMFJkbENXT0k3V1NLRWNuRHlpd3ElMjBKdyUzRCZzdW1tYXJ5PTAmdGFnPXdhdDA4MS0yMCZ0cnVuY2F0ZT0wJnY9Mg&token=C20371A557F57AACBDF25569D3006DD31639AFFA&voteAnchorName=R3T4P2PT0EQKK2.2115.Helpful.Reviews&voteSessionID=188-4072324-9130123"><img src="http://g-ecx.images-amazon.com/images/G/01/x-locale/communities/reviews/btn-no-sec-md._V192249949_.gif" width="35" alt="No" style="vertical-align:middle;" height="18" border="0" /></a></nobr> <span class="votingMessage"></span></span>

</div></div><div style="float:left;"><div style="padding-left:15px;"><div style="white-space:nowrap;"><span class='tiny'>








<a name="R3T4P2PT0EQKK2.2115.Inappropriate.Reviews" style="font-size:1px;"> </a><span class="reportingButton"><nobr><a rel="nofollow" class="reportingButton" href="http://www.amazon.com/gp/voting/cast/Reviews/2115/R3T4P2PT0EQKK2/Inappropriate/1/ref=cm_cr_ifvoteyn/188-4072324-9130123?ie=UTF8&target=aHR0cDovL3d3dy5hbWF6b24uY29tL3Byb2R1Y3QtcmV2aWV3cy9CMDBFRUxVNEVTL3JlZj1jbV9jcl9pZnZvdGVyZHIvMTg4LTQwNzIzMjQtOTEzMDEyMz9fZW5jb2Rpbmc9VVRGOCZha2lkPUFLSUFKMk5ZMkUzWU1MS0o2NFpRJmFsaW5rQ29kZT1zcDEmYXNpbj1CMDBFRUxVNEVTJmF0YWc9d2F0MDgxLTIwJmV4cD0yMDE1LTAxLTIxVDA4JTNBMDElM0ExM1ombGlua0NvZGU9c3AxJnNpZz1ORTNpV2NEQmZTYmdCNWI4ZFR2TyUyMFJkbENXT0k3V1NLRWNuRHlpd3ElMjBKdyUzRCZzdW1tYXJ5PTAmdGFnPXdhdDA4MS0yMCZ0cnVuY2F0ZT0wJnY9Mg&token=103803423948C884599519AE0054A795A710C2E3&voteAnchorName=R3T4P2PT0EQKK2.2115.Inappropriate.Reviews&voteSessionID=188-4072324-9130123"
>Report abuse</a></nobr></span>
</span> <span style="color:#CCCCCC;">|</span> <span class="tiny"><a href="http://www.amazon.com/review/R3T4P2PT0EQKK2/ref=cm_cr_if_perm/?ie=UTF8&ASIN=B00EELU4ES&linkCode=sp1&tag=wat081-20" target="_top">Permalink</a></span></div><div style="white-space:nowrap;padding-left:-5px;padding-top:5px;"><a href="http://www.amazon.com/review/R3T4P2PT0EQKK2/ref=cm_cr_if_cmt/188-4072324-9130123?ie=UTF8&ASIN=B00EELU4ES&linkCode=sp1&tag=wat081-20#wasThisHelpful" target="_top"><img src="http://g-ecx.images-amazon.com/images/G/01/x-locale/communities/discussion_boards/comment-sm._V192250344_.gif" width="16" alt="Comment" hspace="3" align="absmiddle" height="16" border="0" /></a>&nbsp;<a href="http://www.amazon.com/review/R3T4P2PT0EQKK2/ref=cm_cr_if_cmt/188-4072324-9130123?ie=UTF8&ASIN=B00EELU4ES&linkCode=sp1&tag=wat081-20#wasThisHelpful" target="_top">Comments (3)</a></div></div></div><div style="clear:both;"></div>
      </div>
      <br />

</div>

  



  </td>
</tr>
</table>
<br />
<div class="crIFrameCreateReview" >
  Share your thoughts with other customers:
  <span class="crIFrameCreateReviewButton"><a href="http://www.amazon.com/review/create-review/ref=cm_cr_if_wr/188-4072324-9130123?ie=UTF8&amp;asin=B00EELU4ES&amp;linkCode=sp1&amp;nodeID=&amp;tag=wat081-20" target="_top"><img src="http://g-ecx.images-amazon.com/images/G/01/x-locale/communities/reviews/btn-create-own-review-md._V192249922_.gif" width="145" alt="" height="22" border="0" /></a></span>
</div>
<span class="small"><b><b class="h3color">&rsaquo;</b>&nbsp;<a href="http://www.amazon.com/HP-M127FW-Wireless-Monochrome-Laserjet/product-reviews/B00EELU4ES/ref=cm_cr_if_all_link/188-4072324-9130123?ie=UTF8&linkCode=sp1&showViewpoints=1&sortBy=bySubmissionDateDescending&tag=wat081-20" target="_top">See all 72 customer reviews...</a></b></span>






</div>
<script type='text/javascript'>
    
    window.ue_csm.cel_widgets = [
         {  id: "DAra1"  } , {  c: "celwidget"  } , {  id: "fallbacksessionShvl"  } , {  id: "rhf"  } 
    ];



</script>

<div id='be' style='display:none;visibility:hidden;'><form name='ue_backdetect'><input name='ue_back' value='1' type='hidden'></form><script type="text/javascript">
(function(c){var a=document.ue_backdetect;if(a&&a.ue_back&&c.ue){c.ue.bfini=a.ue_back.value}if(c.uet){c.uet("be")}if(c.onLdEnd){if(window.addEventListener){window.addEventListener("load",c.onLdEnd,false)}else{if(window.attachEvent){window.attachEvent("onload",c.onLdEnd)}}}if(c.ueh){c.ueh(0,window,"load",c.onLd,1)}if(c.ue&&c.ue.tag){if(c.ue_furl&&c.ue_furl.split){var b=c.ue_furl.split(".");if(b&&b[0]){c.ue.tag(b[0])}}else{c.ue.tag("nofls")}}})(ue_csm);

var ue_pty='CustomerReviews', ue_spty='IFrameMostHelpful', ue_pti='iframe'; 

</script>

<a href='http://www.amazon.com/gp/uedata/nvp/unsticky/188-4072324-9130123//ntpoffrw?tepes=1&amp;id=1F7YPDN6207NYVTZ0T6E'>v</a>
<noscript>
     <img src='http://www.amazon.com/gp/uedata/nvp/unsticky/188-4072324-9130123//ntpoffrw?noscript&amp;id=1F7YPDN6207NYVTZ0T6E&amp;pty=CustomerReviews&amp;spty=IFrameMostHelpful&amp;pti=iframe' />
     <img src='//fls-na.amazon.com/1/batch/1/OP/ATVPDKIKX0DER:188-4072324-9130123:1F7YPDN6207NYVTZ0T6E$uedata=s:%2Freviews%2Fiframe%2Fuedata%2Fnvp%2Funsticky%2F188-4072324-9130123%2FCustomerReviews%2Fntpoffrw%3Fnoscript%26id%3D1F7YPDN6207NYVTZ0T6E%26pty%3DCustomerReviews%26spty%3DIFrameMostHelpful%26pti%3Diframe:2000' />

</noscript>
</div>
<script type='text/javascript'>
(function(b,c){var a=c.images;if(a&&a.length){b.ue.count("totalImages",a.length)}})(ue_csm,document);
</script>
<script type='text/javascript'>
(function(e,c){var a=e.ue,b=c.navigator,d;if(a&&a.tag&&b){d=b.connection||b.mozConnection||b.webkitConnection;if(d&&d.type){a.tag("netInfo:"+d.type)}}})(ue_csm,window);
</script>
<script type="text/javascript">
//<![CDATA[
    try
    {
        parent.$('amazon_customer_reviews').style.width = '100%';
        parent.$('amazon_customer_reviews').style.display = 'block';
        parent.$('amazon_customer_reviews').style.height = getBodyHeight() + 'px';
    }
    catch(err)
    {
        // ---
    }

    function getBodyHeight()
    {
        var frameBody = document.body, frameHtml = document.documentElement, myHeight = 0;
        if (frameBody.scrollHeight > myHeight) myHeight = frameBody.scrollHeight;
        if (frameBody.offsetHeight > myHeight) myHeight = frameBody.offsetHeight;
        if (frameHtml.clientHeight > myHeight) myHeight = frameHtml.clientHeight;
        if (frameHtml.scrollHeight > myHeight) myHeight = frameHtml.scrollHeight;
        if (frameHtml.offsetHeight > myHeight) myHeight = frameHtml.offsetHeight;
        return myHeight;
    }
//]]>
</script></body>
</html>






















