


  
  










  
  
  












<html>
<head>
<script type="text/javascript">var ue_t0=ue_t0||+new Date();</script>
<script type="text/javascript">
var ue_hob=+new Date();
var ue_id='08DZFH54KE664F98XHC4',
ue_csm = window,
ue_err_chan = 'jserr-rw',
ue = {};
(function(d){var e=d.ue=d.ue||{},f=Date.now||function(){return+new Date};e.d=function(b){return f()-(b?0:d.ue_t0)};e.stub=function(b,a){if(!b[a]){var c=[];b[a]=function(){c.push([c.slice.call(arguments),e.d(),d.ue_id])};b[a].replay=function(b){for(var a;a=c.shift();)b(a[0],a[1],a[2])};b[a].isStub=1}};e.exec=function(b,a){return function(){if(1==window.ueinit)try{return b.apply(this,arguments)}catch(c){ueLogError(c,{attribution:a||"undefined"})}}}})(ue_csm);

ue.stub(ue,"log");ue.stub(ue,"onunload");ue.stub(ue,"onflush");

(function(c,d){function e(f,b){if(!(a.ec>a.mxe)&&f){a.ec++;a.ter.push(f);b=b||{};var c=f.logLevel||b.logLevel;c&&c!=h||a.ecf++;b.pageURL=""+(d.location?d.location.href:"");b.logLevel=c;b.attribution=f.attribution||b.attribution;a.erl.push({ex:f,info:b})}}function g(a,b,d,e,g){c.ueLogError({m:a,f:b,l:d,c:""+e,err:g,fromOnError:1,args:arguments});return!1}var h="FATAL",a={ec:0,ecf:0,pec:0,ts:0,erl:[],ter:[],mxe:50,startTimer:function(){a.ts++;setInterval(function(){c.ue&&a.pec<a.ec&&c.uex("at");a.pec=
a.ec},1E4)}};g.skipTrace=1;e.skipTrace=1;e.isStub=1;c.ueLogError=e;c.ue_err=a;d.onerror=g})(ue_csm,window);

var ue_url='http://www.amazon.com/reviews/iframe/uedata/nvp/unsticky/189-9613163-1872329/CustomerReviews/ntpoffrw',
ue_sid='189-9613163-1872329',
ue_mid='ATVPDKIKX0DER',
ue_sn='www.amazon.com',
ue_furl='fls-na.amazon.com',
ue_navtiming=1,
ue_log_idx=0,
ue_fcsn=1,
ue_isrw=true,
ue_fpf='//fls-na.amazon.com/1/batch/1/OP/ATVPDKIKX0DER:189-9613163-1872329:08DZFH54KE664F98XHC4$uedata=s:',
ue_fpfp='//fls-na.amazon.com/1/uedata/1/OP/ATVPDKIKX0DER:189-9613163-1872329:08DZFH54KE664F98XHC4$s:',
ue_lnb=0,
ue_lwl=0,
ue_ran=0,
ue_qsl=7000,
ue_sbl=0,
ue_mce='click',
ue_unbf=0,
ue_rpl_ns=0,
ue_urt=1;
ue_sdbbc=0;

if (!window.ue_csm) {var ue_csm = window;}
function ue_viz(){(function(c,e,a){function k(b){if(c.ue.viz.length<p&&!l){var a=b.type;b=b.originalEvent;/^focus./.test(a)&&b&&(b.toElement||b.fromElement||b.relatedTarget)||(a=e[m]||("blur"==a||"focusout"==a?"hidden":"visible"),c.ue.viz.push(a+":"+(+new Date-c.ue.t0)),"visible"==a&&(ue.isl&&uex("at"),l=1))}}for(var l=0,f,g,m,n=["","webkit","o","ms","moz"],d=0,p=20,h=0;h<n.length&&!d;h++)if(a=n[h],f=(a?a+"H":"h")+"idden",d="boolean"==typeof e[f])g=a+"visibilitychange",m=(a?a+"V":"v")+"isibilityState";
k({});d&&e.addEventListener(g,k,0);c.ue&&d&&(c.ue.pageViz={event:g,propHid:f})})(ue_csm,document,window)};

(function(a,f){function A(a){return a&&a.replace&&a.replace(/^\s+|\s+$/g,"")}function q(a){return"undefined"===typeof a}function t(e,c,d,f){f=f||+new Date;var l,h;if(c||q(d)){if(e)for(h in l=c?g("t",c)||g("t",c,{}):a.ue.t,l[e]=f,d)d.hasOwnProperty(h)&&g(h,c,d[h]);return f}}function g(e,c,d){var f=a.ue,g=c&&c!=f.id?f.sc[c]:f;g||(g=f.sc[c]={});"id"==e&&d&&(f.cfa2=1,a.ue_ran&&(a.ue_cel&&a.ue_cel.reset(d),a.ue.log.reset&&a.ue.log.reset()));return g[e]=d||g[e]}function v(e,c,d,f,g){d="on"+d;var h=c[d];
"function"===typeof h?e&&(a.ue.h[e]=h):h=function(){};c[d]=g?function(a){f(a);h(a)}:function(a){h(a);f(a)};c[d]&&(c[d].isUeh=1)}function B(e,c,d){function u(c,d){var b=[c],f=0,h={},m,k;d?(b.push("m=1"),h[d]=1):h=a.ue.sc;for(k in h)if(h.hasOwnProperty(k)){var l=g("wb",k),n=g("t",k)||{},u=g("t0",k)||a.ue.t0,p;if(d||2==l){l=l?f++:"";b.push("sc"+l+"="+k);for(p in n)3>=p.length&&!q(n[p])&&null!==n[p]&&b.push(p+l+"="+(n[p]-u));b.push("t"+l+"="+n[e]);if(g("ctb",k)||g("wb",k))m=1}}!C&&m&&b.push("ctb=1");
return b.join("&")}function l(c,b,d,e){if(c){var g=a.ue_err,h;if(!e||!a.ue.log)if(E&&f[r]&&f[r][x])f[r][x](c);else h=new Image,a.ue.iel.push(h),h.src=c;G?a.ue_fpf&&f.encodeURIComponent&&c&&(E&&f[r]&&f[r][x]&&a.ue_fpfp?(c=""+a.ue_fpfp+f.encodeURIComponent(c)+":"+(+new Date-a.ue_t0),f[r][x](c)):(e=new Image,c=""+a.ue_fpf+f.encodeURIComponent(c)+":"+(+new Date-a.ue_t0),a.ue.iel.push(e),e.src=c)):a.ue.log&&(h=f.chrome&&"ul"==b,a.ue.log(c,"uedata",a.ue_svi?{n:1,img:!e&&h?1:0}:{n:1}),a.ue.ielf.push(c));
g&&!g.ts&&g.startTimer();a.ue.b&&(g=a.ue.b,a.ue.b="",l(g,b,d,1))}}function h(c){if(!ue.collected){var b=c.timing,d=c.navigation,e=ue.t;b&&(e.na_=b.navigationStart,e.ul_=b.unloadEventStart,e._ul=b.unloadEventEnd,e.rd_=b.redirectStart,e._rd=b.redirectEnd,e.fe_=b.fetchStart,e.lk_=b.domainLookupStart,e._lk=b.domainLookupEnd,e.co_=b.connectStart,e._co=b.connectEnd,e.sc_=b.secureConnectionStart,e.rq_=b.requestStart,e.rs_=b.responseStart,e._rs=b.responseEnd,e.dl_=b.domLoading,e.di_=b.domInteractive,e.de_=
b.domContentLoadedEventStart,e._de=b.domContentLoadedEventEnd,e._dc=b.domComplete,e.ld_=b.loadEventStart,e._ld=b.loadEventEnd,b=e.na_,c="function"!==typeof c.now||q(b)?0:new Date(b+c.now())-new Date,e.ntd=c+a.ue.t0);d&&(e.ty=d.type+a.ue.t0,e.rc=d.redirectCount+a.ue.t0);ue.collected=1}}function v(b){var c=p&&p.navigation?p.navigation.type:D,e=c&&2!=c,d=a.ue.bfini;a.ue.cfa2||(d&&1<d&&(b+="&bfform=1",e||(a.ue.isBFT=d-1)),2==c&&(b+="&bfnt=1",a.ue.isBFT=a.ue.isBFT||1),a.ue.ssw&&a.ue.isBFT&&(q(a.ue.isNRBF)&&
(c=a.ue.ssw(a.ue.oid),c.e||q(c.val)||(a.ue.isNRBF=1<c.val?0:1)),q(a.ue.isNRBF)||(b+="&nrbf="+a.ue.isNRBF)),a.ue.isBFT&&!a.ue.isNRBF&&(b+="&bft="+a.ue.isBFT));return b}function z(){a.ue.isl&&B("eod")}if(c||q(d)){for(var n in d)d.hasOwnProperty(n)&&g(n,c,d[n]);t("pc",c,d);n=g("id",c)||a.ue.id;var b=a.ue.url+"?"+e+"&v="+a.ue.v+"&id="+n,C=g("ctb",c)||g("wb",c),p=f.performance||f.webkitPerformance,m,k;ue._bf&&(b+="&bf="+ue._bf());C&&(b+="&ctb="+C);1<a.ueinit&&(b+="&ic="+a.ueinit);!a.ue._fi||"at"!=e||c&&
c!=n||(b+=a.ue._fi());if(!("ld"!=e&&"ul"!=e||c&&c!=n)){if("ld"==e){f.onbeforeunload&&f.onbeforeunload.isUeh&&(f.onbeforeunload=null);if(f.chrome)for(k=0;k<ue.ulh.length;k++)F("beforeunload",ue.ulh[k]);(k=document.ue_backdetect)&&k.ue_back&&k.ue_back.value++;a._uess&&(m=a._uess());a.ue.isl=1;a.ue_sdbbc&&y("beforeunload",z)}a.ue_navtiming&&p&&p.timing&&(g("ctb",n,"1"),1==a.ue_navtiming&&t("tc",D,D,p.timing.navigationStart));p&&h(p);a.ue.t.hob=a.ue_hob;a.ue.t.hoe=a.ue_hoe;a.ue.ifr&&(b+="&ifr=1")}t(e,
c,d);d="ld"==e&&c&&g("wb",c);var w;d?g("wb",c,2):"ld"==e&&(s.lid=A(n));for(w in a.ue.sc)if(1==g("wb",w))break;if(d){if(a.ue.s)return;b=u(b,null)}else k=u(b,null),k!=b&&(k=v(k),a.ue.b=k),m&&(b+=m),b=u(b,c||a.ue.id);b=v(b);if(a.ue.b||d)for(w in a.ue.sc)2==g("wb",w)&&delete a.ue.sc[w];m=0;ue._rt&&(b+="&rt="+ue._rt());d||(a.ue.s=0,(m=a.ue_err)&&0<m.ec&&m.pec<m.ec&&(m.pec=m.ec,b+="&ec="+m.ec+"&ecf="+m.ecf),m=g("ctb",c),g("t",c,{}));b&&a.ue.tag&&0<a.ue.tag().length&&(b+="&csmtags="+a.ue.tag().join("|"),
a.ue.tag=a.ue.tagC());b&&a.ue.viz&&0<a.ue.viz.length&&(b+="&viz="+a.ue.viz.join("|"),a.ue.viz=[]);b&&!q(a.ue_pty)&&(b+="&pty="+a.ue_pty+"&spty="+a.ue_spty+"&pti="+a.ue_pti);b&&a.ue.tabid&&(b+="&tid="+a.ue.tabid);b&&a.ue.aftb&&(b+="&aftb=1");b&&a.ue.sbf&&(b+="&sbf=1");!a.ue._ui||c&&c!=n||(b+=a.ue._ui());a.ue.a=b;l(b,e,m,d)}}function y(a,c,d){d=d||f;d.addEventListener?d.addEventListener(a,c,!1):d.attachEvent&&d.attachEvent("on"+a,c)}function F(a,c,d){d=d||f;d.removeEventListener?d.removeEventListener(a,
c,!1):d.detachEvent&&d.detachEvent("on"+a,c)}function z(){function e(){a.onUl()}function c(a){return function(){d[a]||(d[a]=1,B(a))}}var d=a.ue.r,g,l;a.onLd=c("ld");a.onLdEnd=c("ld");a.onUl=c("ul");g={stop:c("os")};f.chrome?(y("beforeunload",e),ue.ulh.push(e)):g[H]=a.onUl;for(l in g)g.hasOwnProperty(l)&&v(0,f,l,g[l]);a.ue_viz&&ue_viz();y("load",a.onLd);t("ue")}a.ueinit=(a.ueinit||0)+1;var s={t0:f.aPageStart||a.ue_t0,id:a.ue_id,url:a.ue_url,rid:a.ue_id,a:"",b:"",h:{},r:{ld:0,oe:0,ul:0},s:1,t:{},sc:{},
iel:[],ielf:[],fc_idx:{},viz:[],v:"0.172.0",d:a.ue&&a.ue.d,log:a.ue&&a.ue.log,clog:a.ue&&a.ue.clog,onflush:a.ue&&a.ue.onflush,onunload:a.ue&&a.ue.onunload,stub:a.ue&&a.ue.stub,lr:a.ue&&a.ue.lr,exec:a.ue&&a.ue.exec,ulh:[],cfa2:0},G=a.ue_fpf?1:0,E=a.ue_sbl,H="beforeunload",r="navigator",x="sendBeacon",D;s.oid=A(s.id);s.lid=A(s.id);a.ue=s;a.ue._t0=a.ue.t0;a.ue.tagC=function(){var a={};return function(c){c&&(a[c]=1);c=[];for(var d in a)a.hasOwnProperty(d)&&c.push(d);return c}};a.ue.tag=a.ue.tagC();a.ue.ifr=
f.top!==f.self||f.frameElement?1:0;ue.attach=y;ue.detach=F;ue.reset=function(e,c){e&&(a.ue_cel&&a.ue_cel.reset(),a.ue.t0=+new Date,a.ue.rid=e,a.ue.id=e,a.ue.fc_idx={},a.ue.viz=[])};a.uei=z;a.ueh=v;a.ues=g;a.uet=t;a.uex=B;z()})(ue_csm,window);



(function(g){var a=g.ue;a.cv={};a.cv.scopes={};a.count=function(b,e,c){var d={},f=a.cv;d.counter=b;d.value=e;d.t=a.d();c&&c.scope&&(f=a.cv.scopes[c.scope]=a.cv.scopes[c.scope]||{},d.scope=c.scope);if(void 0===e)return f[b];f[b]=e;b=0;c&&c.bf&&(b=1);a.clog&&0===b?a.clog(d,"csmcount",{bf:b}):a.log&&a.log(d,"csmcount",{c:1,bf:b})};a.count("baselineCounter2",1)})(ue_csm);

var ue_hoe=+new Date();
</script>

























<link href='http://z-ecx.images-amazon.com/images/G/01/nav2/gamma/websiteGlobalCSS/websiteGlobalCSS-websiteGlobal-10346._V1_.css' type='text/css' rel='stylesheet'>
<style type="text/css"><!--

.sans, .small, .h1, .h3color, .big, .tiny, .tinyprice, .highlight, .eyebrow,
    a:active, a:visited, a:link, div.unified_widget p.seeMore,
    div.unified_widget .carat, div.left_nav .carat, div.left_nav, div.left_nav
    h2, div.left_nav h3, div.left_nav a:link, div.left_nav a:visited,
    .popover-tiny, .horizontal-search, .horizontal-websearch, .topnav,
    .topnav-active a:link, .tabon a, .tabon a:visited, .taboff a, .taboff
    a:visited div.leftnav_popover h2, .signInMsg{
  font-family: verdana,arial,helvetica,sans-serif;
}
.listprice {
  font-family: arial,verdana,helvetica,sans-serif;
}
.price {
  font-family: arial,verdana,helvetica,sans-serif;
}
.serif, .sans, .h1, div.unified_widget .headline{
  font-size: medium;
}
.big {
  font-size: xx-large;
}
.small, .h3color, .highlight, .horizontal-search {
  font-size: small;
}
.signInMsg {
  font-size: x-small;
}
.tiny, .tinyprice, .popover-tiny, .horizontal-websearch {
  font-size: x-small;
}
body, td, th {
  font-family: verdana,arial,helvetica,sans-serif;
  font-size: small;
}
.eyebrowBackGroundColor {
  background-color: ;
}
div.left_nav, div.left_nav a:link, div.left_nav a:visited {
  font-family: Arial, sans-serif;
}

body {
  color: #000000;
  margin-top: 0px;
}
--></style> 




<style type="text/css"><!--

.crAuthorInfo {
  font-family:               verdana;
  font-size:                 0.86em;
  margin-left:               80px;
}

.crAuthorInfoCredibility {
  font-family:               verdana;
  font-size:                 0.86em;
}

.crBlue-bevel {
  background:                url(http://g-ecx.images-amazon.com/images/G/01/x-locale/communities/reviews/sliced-box-tbevel._CB192249888_.gif) repeat-x top;
  height:                    1.45em;
}

.crBlueBorder-tl {
  background:                url(http://g-ecx.images-amazon.com/images/G/01/x-locale/communities/reviews/border-box-tl._CB192249923_.gif) no-repeat top left;
  width:                     1em;
}
                                                                                                                                                             
.crBlueBorder-tc {
  background:                url(http://g-ecx.images-amazon.com/images/G/01/x-locale/communities/reviews/border-box-tc._CB192249922_.gif) repeat-x top;
}
                                                                                                                                                             
.crBlueBorder-tr {
  background:                url(http://g-ecx.images-amazon.com/images/G/01/x-locale/communities/reviews/border-box-tr._CB192249949_.gif) no-repeat top right;
  width:                     1em;
}
                                                                                                                                                             
.crBlueBorder-bl {
  background:                url(http://g-ecx.images-amazon.com/images/G/01/x-locale/communities/reviews/border-box-bl._CB192249926_.gif) no-repeat bottom left;
}
                                                                                                                                                             
.crBlueBorder-bc {
  background:                url(http://g-ecx.images-amazon.com/images/G/01/x-locale/communities/reviews/border-box-bc._CB192249923_.gif) repeat-x bottom;
}
                                                                                                                                                             
.crBlueBorder-br {
  background:                url(http://g-ecx.images-amazon.com/images/G/01/x-locale/communities/reviews/border-box-br._CB192249923_.gif) no-repeat bottom right;
}

.crBox {
  background:                #DFEDF7;
  padding:                   0.2em 1.5em 0.2em 1.5em;
}

.crBox-tl {
  background:                #DFEDF7 url(http://g-ecx.images-amazon.com/images/G/01/x-locale/communities/reviews/box-tl._CB192249949_.gif) no-repeat top left;
}

.crBox-tc {
  background:                url(http://g-ecx.images-amazon.com/images/G/01/x-locale/communities/reviews/box-tc._CB192249950_.gif) repeat-x top;
}

.crBox-tr {
  background:                url(http://g-ecx.images-amazon.com/images/G/01/x-locale/communities/reviews/box-tr._CB192249948_.gif) no-repeat top right;
}

.crBox-bl {
  background:                #DFEDF7 url(http://g-ecx.images-amazon.com/images/G/01/x-locale/communities/reviews/box-bl._CB192249921_.gif) no-repeat bottom left;
}

.crBox-bc {
  background:                url(http://g-ecx.images-amazon.com/images/G/01/x-locale/communities/reviews/box-bc._CB192249923_.gif) repeat-x bottom;
}

.crBox-br {
  background:                url(http://g-ecx.images-amazon.com/images/G/01/x-locale/communities/reviews/box-br._CB192249949_.gif) no-repeat bottom right;
}

.crColumnEndMarker {
  clear:                     both;
  height:                    13px;
  background-image:          url(http://g-ecx.images-amazon.com/images/G/01/x-locale/communities/people/column-bottom-edge._CB192250335_.gif);
  background-repeat:         no-repeat;
}

.crColumnEndMarker .rightEdge {
  float:                     right;
  background-image:          url(http://g-ecx.images-amazon.com/images/G/01/x-locale/communities/people/column-bottom-edge-right._CB192250334_.gif);
  background-position:       right top;
  background-repeat:         no-repeat;
  width:                     13px;
  height:                    13px;
}


.crCdDotsBottom {
  clear:                     both;
  padding:                   1px;;
  font-size:                 0.0625em;
  margin:                    0 0 5px 0;
  background-image:          url(http://g-ecx.images-amazon.com/images/G/01/x-locale/communities/people/dotborder._CB192250320_.gif);
  background-repeat:         repeat-x;
  background-position:       center;
}

.crDescription {
  font-family:               verdana;
  margin-left:               80px;
}


.crErrorMsg {
  color:                     red;
  font-weight:               bold;
}

.crFanlink {
  text-decoration: 	     none; 
  border-top-width:          0; 
  border-right-width:        0; 
  border-bottom-width:       1px;
  border-left-width:         0;
  border-top-color:          #146EB4;
  border-right-color:        #146EB4;
  border-bottom-color:       #146EB4;
  border-left-color:         #146EB4;
  border-top-style:          none;
  border-right-style:        none;
  border-bottom-style:       dashed;
  border-left-style:         none;
  color:                     #003399; 
}

.crFinePrint {
  font-size:                 0.7em;
  margin-top:                0.7em;
}

.crForm {
  width:                     100%;
  display:                   block;
}

.crHeaderText {
  color:                     #CC6600;
  padding-left:              0;
  padding-bottom:            5px;
  font-family:               helvetica,
  font-size:                 13px;
  font-weight:               bold;
  float:                     top;
  float:                     left;
}

h2.crHeading {
  color:                     #E47911;
  font-family:               Verdana,Helvetica,sans-serif;
  font-size:                 130%;
  margin:                    0 0 3px;
  padding-left:              0px;
}

h3.crHeading {
  color:                     #E47911;
  font-family:               Verdana,Helvetica,sans-serif;
  font-size:                 100%;
  margin:                    0 0 10px;
}

.crHeading {
  color:                     #c60;
  font-family:               sans-serif;
  font-size:                 1.5em;
  font-weight:               bold;
  padding-bottom:            0.5em;
  padding-left:              0.5em;
}

.crInnerBox {
  padding:                   0.6em 2em 0.6em 2em;
  background:                #EFF5F9;
  clear:                     both;
}

.crInnerBox-tl {
  background:                #EFF5F9 url(http://g-ecx.images-amazon.com/images/G/01/x-locale/communities/reviews/innerbox-tl._CB192249896_.gif) no-repeat top left;
  clear: both;
}

.crInnerBox-tr {
  background:                #EFF5F9 url(http://g-ecx.images-amazon.com/images/G/01/x-locale/communities/reviews/innerbox-tr._CB192249895_.gif) no-repeat top right;
  clear: both;
}

.crInnerBox-bl {
  background:                #EFF5F9 url(http://g-ecx.images-amazon.com/images/G/01/x-locale/communities/reviews/innerbox-bl._CB192249902_.gif) no-repeat bottom left;
}

.crInnerBox-br {
  background:                url(http://g-ecx.images-amazon.com/images/G/01/x-locale/communities/reviews/innerbox-br._CB192249902_.gif) no-repeat bottom right;
}

.crInputTitle {
  font-weight:               bold;
  vertical-align:            middle; 
}

.crInputFinePrint {
  color:                     #6E6E6E; 
  font-size:                 0.7em;
  padding-bottom:            1.5em; 
}

.crInput {
  padding:                   0em 0em 1.5em 0em;
  vertical-align:            middle;
}

.crInputFormField {
  font-family:               arial, helvetica, sans-serif;
}

.crInstruction {
  padding-bottom:            0.4em;
  float:                     left;
}

.crProductLinks {
  padding-bottom:            0.4em;
  float:                     right;
  vertical-align:            top;  
}

.crLargerTitle {
  font-family:               verdana, arial, helvetica, sans-serif;
  font-size:                 1.6em;
  color:                     #c60;
  padding-bottom:            5px;
  padding-top:               10px;
}

.crLine {
  clear:                     both;
  border:                    0;
  height:                    2px;
  color:                     #CADFE9;
  background-color:          #CADFE9;
  noshade:                   noshade;
}

.crPrevLeftButton {
  padding-left:              15px; 
  margin-bottom:             0px;
}

.crPrevRightButton {
  margin-bottom:             0px;
}

.crPicture {
  clear:                     both;
  float:                     left;
  text-align:                center;
  width:                     80px;
  overflow:                  hidden;
  padding-top:               0.2em;
}

.crReviewHeader  {
  font-family:               Verdana, Arial, Helvetica, sans-serif;
  font-size:                 1.5em;
  font-weight:               bold;
  color:                     #e47911;
  margin-top:                5px;
}

.crReviewSumBox {
  height:                    36px;
  background-image:          url(http://g-ecx.images-amazon.com/images/G/01/x-locale/communities/people/column-eyebrow-visitor._CB192250334_.gif);
  background-repeat:         no-repeat;
  font-family:               verdana;
  font-size:                 36px;
}

.crReviewSumBox .titleText {
  float:                     left;
  font-weight:               bold;
  padding-left:              10px;
  padding-top:               10px;
  font-size:                 13px;
  font-family:               verdana;
  color:                     #000000;
  white-space:               nowrap;
}

.crReviewSumBox .rightEdge {
  background-image:          url(http://g-ecx.images-amazon.com/images/G/01/x-locale/communities/people/column-eyebrow-visitor-right._CB192250335_.gif);
  width:                     12px;
  height:                    36px;
  background-repeat:         no-repeat;
  padding:                   0;
  float:                     right;
}

.crSectionTitle {
  color:                     #E57310;
  font-size:                 16px;
  font-weight:               bold;
  margin-top:                5px;
  margin-bottom:             5px;
}

.crProductReviewsSummary .crSolicitation {
  margin-top:               -20px;
}

.crSideHeading {
  color:                     #c60;
  font-weight:               bold;
  text-align:                center;
  padding-top:               0.4em;
}

.crStepNum {
  vertical-align:            top;
  padding:                   0em 0.6em 1.5em 0em;
}


.crTanBorder-tl {
  background:                url(http://g-ecx.images-amazon.com/images/G/01/x-locale/communities/boxes/boxfill/innerbox-tl._CB192251350_.gif) no-repeat top left;
  width:                     1em;
}
                                                                                                                                                             
.crTanBorder-tc {
  background:                url(http://g-ecx.images-amazon.com/images/G/01/x-locale/communities/boxes/boxfill/innerbox-tc._CB192251344_.gif) repeat-x top;
}
                                                                                                                                                             
.crTanBorder-tr {
  background:                url(http://g-ecx.images-amazon.com/images/G/01/x-locale/communities/boxes/boxfill/innerbox-tr._CB192244553_.gif) no-repeat top right;
  width:                     1em;
}
                                                                                                                                                             
.crTanBorder-bl {
  background:                url(http://g-ecx.images-amazon.com/images/G/01/x-locale/communities/boxes/boxfill/innerbox-bl._CB192251348_.gif) no-repeat bottom left;
}
                                                                                                                                                             
.crTanBorder-bc {
  background:                url(http://g-ecx.images-amazon.com/images/G/01/x-locale/communities/boxes/boxfill/innerbox-bc._CB192241903_.gif) repeat-x bottom;
}
                                                                                                                                                             
.crTanBorder-br {
  background:                url(http://g-ecx.images-amazon.com/images/G/01/x-locale/communities/boxes/boxfill/innerbox-br._CB192241895_.gif) no-repeat bottom right;
}

.crTextAreaHeader {
  background:                #B6CFE5;
  padding:                   0.4em 0em 0.4em 0em;
  width:                     620px;
}

.crTextTab {
  width:                     30%;
  float:                     left;
  white-space:               nowrap;
}

.crTextTabHeading {
  padding:                   0.3em 0 0.7em 0.6em;
}

.crThreadHeader {
  color:                     #CC6600;
  font-weight:               bold;
  float:                     left;
}

.crTipsBoxHeader {
  font-size:                 0.90em;
  font-weight:               bold;
  margin-bottom:             10px;
  margin-top:                10px;
}

.crTipsBoxTitle {
  color:                     #CC6600;
  font-size:                 1.1em;
  font-weight:               bold;
  margin-bottom:             10px;
}

h1.crTitle {
  color:                     #E47911;
  font-family:               Arial, Helvetica, sans-serif;
  font-size:                 218%;
  letter-spacing:            -0.03em;
  margin:                    0;
  padding:                   0;
}

.crTitle {
  font-family:               verdana, arial, helvetica, sans-serif;
  font-size:                 1.4em;
  font-weight:               bold;
}

.crTab-tl {
  background:                #EFF5F9 url(http://g-ecx.images-amazon.com/images/G/01/x-locale/communities/reviews/innerbox-tl._CB192249896_.gif) no-repeat top left;
}

.crTab-tr {
  background:                url(http://g-ecx.images-amazon.com/images/G/01/x-locale/communities/reviews/innerbox-tr._CB192249895_.gif) no-repeat top right;
}

.crVideoUpload {
  background:                #FFFFFF;
  border:                    0.1em solid #7F9DB9;
  text-align:                center;
  padding:                   0.4em;
}

.crVidTab {
  width:                     70%;
  float:                     left;
  white-space:               nowrap;
}

.crVidTabHeading {
  padding:                   0.3em 0 0.7em 0.6em;
}

table.crDataGrid th {
  background-color:          #EEEEEE;
  font-weight:               normal;
  font-size:                 70%;
  text-align:                left;
  color:                     #666666;
}

table.crDataGrid td {
  border-bottom:            1px solid #CCCCCC;
}

table.crDataGrid .img {
  height:                   92px;
}

table.crDataGrid .crNum {
  text-align:               right;
}

table.crDataGrid .crNumPercentHelpful {
  text-align:               right;
  padding-right:20px;
}

table.crDataGrid .crNumFanVoters {
  text-align:               right;
  border-left: solid 1px #cccccc;
}

ul.crBigBullet {
  margin:                    0em;
  padding:                   0em;
  list-style-image:          url(http://g-ecx.images-amazon.com/images/G/01/x-locale/communities/reviews/big-bullet._CB192249925_.gif);
}

ul.crSmallBullet {

  padding-left:              0;
  margin:                    0.4em 0em 0.6em 1.5em;
  list-style-image:          url(http://g-ecx.images-amazon.com/images/G/01/x-locale/communities/reviews/small-bullet._CB192249889_.gif);
}


.srCreateReview td.name {
  padding-left: 9px;
}

.srCreateReview .srPopoverList table.srList td a {
  margin-left: 0px;
}

.srCreateReview .srPopoverList table.srList td.name span.newAttribute {
  margin-left: 0px;
  color:       #000000;
}

.srCreateReview .srPopoverFooter {
  padding-left: 9px;
  padding-top:  9px;
}

.srCreateReview .srPopoverContentSection .heading {
  font-weight: normal;
}

#structuredRatingsList .cBox {
  width: 375px;
}

.structuredRatingsVisibilityLink {
  line-height: 2.5em;
  font-size: 0.86em;
}

.structuredRatingsVisibilityLinkText {
  margin-left: 5px;
}

#structuredRatingsListHelp {
  font-size: 0.86em;
  font-weight: normal;
}

#structuredRatingsList .srpopover .scrollSection {
  height: 210px;
}

.crVerifiedNew {
  font-size: 0.86em;
  font-weight: bold;
  color: #009900;
  margin-right: 0.5em;
} 

.crVerifyLearnMore {
  margin-left: 0.5em;
}

.crVerifiedPurchaseInputs {
  display: block;
  margin-bottom: 1em;
}

.crVerifiedBackfillSuboption {
  display: block;
  margin-left: 2em;
}

div.crCommentThread .cmPage {
  margin-left: 5px;
}

div#cdNonReplyPostBoxButton {
  margin-bottom: 40px;
}

#rdpItemInfo .crAvgStars {
  font-size: 10px;
}

.crIneligibleHeader {
  padding: 15px 9px 0 6px;
  color:                     #E47911;
  font-weight: 	             bold;
  font-size:                 218%;
  margin:                    0;
}

.crIneligibleMessage {
  font-size: 12px;
  border: solid 1px #0071B5;
  position: relative;
  background-color: #ffffdd;
  border-color: #E47911;
  padding: 18px 50px 18px 20px;
  margin: 10px 0 40px 10px;
}
.crIneligibleMessageImage {
  position: absolute;
}
.crIneligibleMessageHeader {
  font-size: 18px;
  font-weight: bold;
  margin: 0 0 4px 45px;
  padding: 0;
}
.crIneligibleMessageText {
  font-size:13px;
  margin: 0 0 6px 45px;
  width: 100%;
}


.crIFrame {
  margin: 10px;
}

.crIFrameLogo {
  margin-bottom: 20px;
}

.crIFrameHeaderLeftColumn {
  float: left;
  margin-right: 20px;
}

.crIFrameHeaderTitle {
  font-size:      24px;
  letter-spacing: -1px;
}

.crIFrameHeaderHistogram {
  float: left;
}

.crIFrameError {
  border-top:    1px solid #D1E6F7;
  border-bottom: 1px solid #D1E6F7;

  text-align:          center;
  line-height:         24px;
  width:               360px;
  padding:             20px;
  margin-top:          20px;
}

.crIFrameErrorText {
  font-size:  14px;
  font-weight: bold;
}

.crIFrameCreateReview {
  margin-bottom:   3px;
  white-space:     nowrap;
}

.crIFrameCreateReviewButton {
  vertical-align:  middle;
}

.crIFrameAverageReviewText {
  align: left;
  font-weight: bold;
}

.crIFrameNumCustReviews {
   white-space: nowrap;
}

.crIFrameReviewList {
  width: 100%;
  clear: left;
}


.CMheadingBar {
  background:url(http://g-ecx.images-amazon.com/images/G/01/nav2/images/gui/tile-blue-bg._CB46870869_.gif) repeat-x;
  border-top:1px solid #BADAE8;
  border-bottom:1px solid #BADAE8;
  padding:6px;
}

.CMpaginate {
  color:#666;
}

.CMpaginate .on {
  border:1px solid #CC6600;
  padding:3px;
  background-color:white;
  color:#CC6600;
  text-decoration:none;
}

.CMpaginate a:link,
.CMpaginate a:visited {
  padding:4px;
  text-decoration:none;
}

.CMpaginate a:hover {
  padding:3px;
  background-color:white;
  border:1px solid #CC6600;
  color:#CC6600;
}

a.areaLink, a.areaLink:visited {
  text-decoration: none;
  color: black;
  display: block;
}

.areaLink .innerLink {
  white-space: nowrap;
  text-decoration: underline;
  color: #039;
}

div.crVS {
  width:       46%;
  text-align:  center;
  white-space: nowrap;
}

.crClear { clear: both; }
.crLeft { float: left; }
.crRight { float: right; }

.attr-sheet { padding-left:5px; }
.attr-sheet ul { margin-left: 31px; padding: 0; list-style: none; border: solid 1px #eee; border-radius: 5px; }
.attr-sheet ul li { padding: 5px; }
.attr-sheet li.alt { background: #F8F5D8 }
.attr-sheet li .label { font-weight: bold }
.attr-sheet li .vm { vertical-align: middle; }
.attr-sheet li .option-line { width: 100%; line-height: 1.75em; }
.attr-sheet li .option-line .label { float: left; width: 35%; max-width: 300px }
.attr-sheet li .option-line .option { float: left; width: 30%; max-width: 200px }
.attr-sheet li .option-undo { float: right; font-size: xx-small; display:none; }
.attr-sheet li .textbar-text { margin-top: 2px; clear: both; }
.attr-sheet li .textbar .empty { width: 35%; max-width: 300px; float:left; }
.attr-sheet li .textbar input { width: 50%; margin-left:5px; float:left; }
.attr-sheet li .textbar .blur { color: #999; }
.attr-preview .boldLabel { font-weight: bold }
.attr-preview .head { padding: 20px 0 0 25px }
.attr-preview .head-detail { padding-top: 5px }
.attr-preview .line { padding: 5px 0 15px 0 }
.attr-preview .lines { padding: 10px 0 0 25px }

.rypWgtDiv { margin-bottom: 20px; }

.rypWgtImgLink { 
    display: block;
    width: 300px;
    height: 97px;
    background: url('http://g-ecx.images-amazon.com/images/G/01/x-locale/communities/reviews/ryp-page-image2sprite._CB399712482_.png') top;
    text-indent: -10000px;
}
.rypWgtImgLink:hover {
	background-position: bottom;
} 

--></style>

<META NAME="ROBOTS" CONTENT="NOINDEX, NOFOLLOW">

<script type="text/javascript">

var amznJQ,jQueryPatchIPadOffset=false;
(function() {
  function f(x) {return function(){x.push(arguments);}}
  function ch(y) {return String.fromCharCode(y);}
  var a=[],c=[],cs=[],d=[],l=[],o=[],s=[],p=[],t=[];
  amznJQ={
    _timesliceJS: false,
    _a:a,_c:c,_cs:cs,_d:d,_l:l,_o:o,_s:s,_pl:p,
    addLogical:f(l),
    addStyle:f(s),
    addPL:f(p),
    available:f(a),
    chars:{EOL:ch(10), SQUOTE:ch(39), DQUOTE:ch(34), BACKSLASH:ch(92), YEN:ch(165)},
    completedStage:f(cs),
    declareAvailable:f(d),
    onCompletion:f(c),
    onReady:f(o),
    strings:{}
  };
}());


</script>
<script type="text/javascript">
(function(d,c){function f(a){b.push(a)}function e(a){if(a){var c=d.head||d.getElementsByTagName("head")[0]||d.documentElement,b=d.createElement("script");b.async="async";b.src=a;c.insertBefore(b,c.firstChild)}}function g(){ue.uels=e;for(var a=0;a<b.length;a++)e(b[a]);ue.deffered=1}var b=[];c.ue&&(ue.uels=f,c.ue.attach&&c.ue.attach("load",g))})(document,window);

if (window.ue && window.ue.uels) {
    ue.uels("http://z-ecx.images-amazon.com/images/G/01/AUIClients/ClientSideMetricsAUIJavascript-b18401883bd2e97e2b999d805f9c020a312b9273._V2_.js");
}
ue_tbpv = 1;

(function(h,d){function e(c){c="";var b=a.isBFT?"b":"s",e=""+a.oid,d=""+a.lid,f=e;e!=d&&20==d.length&&(b+="a",f+="-"+d);a.tabid&&(c=a.tabid+"+");c+=b+"-"+f;c!=g&&100>c.length&&(g=c,document.cookie="csm-hit="+c+("|"+ +new Date)+l+"; path=/")}function m(){g=0}function k(b){!0===d[a.pageViz.propHid]?g=0:!1===d[a.pageViz.propHid]&&e({type:"visible"})}var l="; expires="+(new Date(+new Date+6048E5)).toGMTString(),g,b=h.ue_tbpv,a=h.ue||{},f=b&&a.pageViz&&a.pageViz.event&&a.pageViz.propHid;a.attach&&(a.attach("click",
e),a.attach("keyup",e),f&&4!=b&&5!=b||(a.attach("focus",e),a.attach("blur",m)),f&&a.attach(a.pageViz.event,k,d),!f||3!=b&&5!=b||k({}));a.aftb=1})(ue_csm,document);

(function(a){var b=a.alert;window.alert=function(){a.ueLogError&&a.ueLogError({message:"[CSM] Alert invocation detected with argument: "+arguments[0],logLevel:"WARN"});Function.prototype.apply.apply(b,[a,arguments||[]])}})(window);

(function(k,l,g){function m(a){c||(c=b[a.type].id,"undefined"===typeof a.clientX?(e=a.pageX,f=a.pageY):(e=a.clientX,f=a.clientY),2!=c||h&&(h!=e||n!=f)?(r(),d.isl&&l.setTimeout(function(){p("at",d.id)},0)):(h=e,n=f,c=0))}function r(){for(var a in b)b.hasOwnProperty(a)&&d.detach(a,m,b[a].parent)}function s(){for(var a in b)b.hasOwnProperty(a)&&d.attach(a,m,b[a].parent)}function t(){var a="";!q&&c&&(q=1,a+="&ui="+c);return a}var d=k.ue,p=k.uex,q=0,c=0,h,n,e,f,b={click:{id:1,parent:g},mousemove:{id:2,
parent:g},scroll:{id:3,parent:l},keydown:{id:4,parent:g}};d&&p&&(s(),d._ui=t)})(ue_csm,window,document);

(function(k,c){function l(a,b){return a.filter(function(a){return a.initiatorType==b})}function f(a,c){if(b.t[a]){var g=b.t[a]-b._t0,e=c.filter(function(a){return 0!==a.responseEnd&&m(a)<g}),f=l(e,"script"),h=l(e,"link"),k=l(e,"img"),n=e.map(function(a){return a.name.split("/")[2]}).filter(function(a,b,c){return a&&c.lastIndexOf(a)==b}),q=e.filter(function(a){return a.duration<p}),s=g-Math.max.apply(null,e.map(m))<r|0;"af"==a&&(b._afjs=f.length);return a+":"+[e[d],f[d],h[d],k[d],n[d],q[d],s].join("-")}}
function m(a){return a.responseEnd-(b._t0-c.timing.navigationStart)}function n(){var a=c[h]("resource"),d=f("cf",a),g=f("af",a),a=f("ld",a);delete b._rt;b._ld=b.t.ld-b._t0;b._art&&b._art();return[d,g,a].join("_")}var p=20,r=50,d="length",b=k.ue,h="getEntriesByType";b._rre=m;b._rt=c&&c.timing&&c[h]&&n})(ue_csm,window.performance);

ue_csm.ue.stub(ue,"impression");

</script>
</head>
<body><div style='display:none;visibility:hidden;'>
    <img src='//fls-na.amazon.com/1/batch/1/OP/ATVPDKIKX0DER:189-9613163-1872329:08DZFH54KE664F98XHC4$uedata=s:%2Freviews%2Fiframe%2Fuedata%2Fnvp%2Funsticky%2F189-9613163-1872329%2FCustomerReviews%2Fntpoffrw%3Fstaticb%26id%3D08DZFH54KE664F98XHC4%26pty%3DYourAccount%26spty%3DYOByFilterDeBr%26pti%3D:1000' />


</div>

<div class="crIFrame">
  
  






  























  




















    








  


  

































  
  











<div class="crIFrameLogo">
  <a href="http://www.amazon.com/ref=cm_cr_if_logo/189-9613163-1872329?ie=UTF8&amp;linkCode=sp1&amp;tag=wat072-20" target="_top"><img src="http://g-ecx.images-amazon.com/images/G/01/x-locale/common/amazon-logo-tiny._CB192256679_.gif" width="113" alt="Amazon.com" height="23" border="0" /></a>
</div>



      <div class="crIframeHeaderTitle">Customer Reviews</div>
      
































    






























<table class="crIFrameReviewList">
<tr>
  <td>
    




















    











    
    











    
































<!-- BOUNDARY -->
<a name="R10OHULL3QB3II"></a><br />


<div style="margin-left:0.5em;">
    
      <div style="margin-bottom:0.5em;">
        6 of 6 people found the following review helpful
      </div>
      <div style="margin-bottom:0.5em;">
        <span style='margin-left: -5px;'><img src="http://g-ecx.images-amazon.com/images/G/01/x-locale/common/customer-reviews/stars-5-0._CB192240867_.gif" width="64" alt="5.0 out of 5 stars" title="5.0 out of 5 stars" height="12" border="0" /> </span>
        <b>Great on the move or at home.</b>, <nobr>November 12, 2014</nobr>
      </div>
      <div style="margin-bottom:0.5em;">
        <div><div style="float:left;">By&nbsp;</div><div style="float:left;"><a href="http://www.amazon.com/gp/pdp/profile/A3TFLAXT7B713W/ref=cm_cr_if_pdp/189-9613163-1872329?ie=UTF8&linkCode=sp1&tag=wat072-20" target="_top"><span style = "font-weight: bold;">dallas mlakar</span></a>  - <a href="http://www.amazon.com/gp/cdp/member-reviews/A3TFLAXT7B713W/ref=cm_cr_if_auth_rev/189-9613163-1872329?ie=UTF8&amp;linkCode=sp1&amp;sort_by=MostRecentReview&amp;tag=wat072-20" target="_top">See all my reviews</a></div></div><div style="clear:both;"></div>
      </div>
      <div class="tiny" style="margin-bottom:0.5em;">
        <span class="crVerifiedStripe"><b class="h3color tiny" style="margin-right: 0.5em;">Verified Purchase</b><span class="tiny verifyWhatsThis">(<a href="http://www.amazon.com/gp/community-help/amazon-verified-purchase/189-9613163-1872329" target="AmazonHelp" onclick="amz_js_PopWin('http://www.amazon.com/gp/community-help/amazon-verified-purchase/189-9613163-1872329', 'AmazonHelp', 'width=400,height=500,resizable=1,scrollbars=1,toolbar=0,status=1');return false; ">What's this?</a>)</span></span>
      </div>
      <div class="tiny" style="margin-bottom:0.5em;">
        <b><span class="h3color tiny">This review is from: </span>Acer K137 Portable Home Theater Projector (White) (Electronics)</b>
      </div>

<div class="reviewText">As always Amazon delivers. This is a great portable projector good brightness and awesome sound from in built speakers. I am in Australia and have been using the qumi q2 for a few years but this is the next level quality wise. With a large array of connection ports available it is a great way to entertain on the go.</div>
0      <hr size="1" style="border-top: 1px dashed #ACACAC;"/><div style="padding-top: 10px; clear: both; width: 100%; display:none;">

  




        <div class="reviews-voting-stripe" style="float:left; padding-right:15px; border-right:1px solid #CCCCCC"><div style="padding-bottom:5px;"><b class="tiny" style="color:#666666;white-space:nowrap;">Help other customers find the most helpful reviews</b>&nbsp;</div><div style="width:300px;">









<a name="R10OHULL3QB3II.2115.Helpful.Reviews" style="font-size:1px;"> </a><span
class="crVotingButtons"><nobr><span class="votingPrompt">Was this review helpful to you?&nbsp;</span><a rel="nofollow" class="votingButtonReviews yesButton" href="http://www.amazon.com/gp/voting/cast/Reviews/2115/R10OHULL3QB3II/Helpful/1/ref=cm_cr_ifvoteyn/189-9613163-1872329?ie=UTF8&target=aHR0cDovL3d3dy5hbWF6b24uY29tL3Byb2R1Y3QtcmV2aWV3cy9CMDBJMzZHWldBL3JlZj1jbV9jcl9pZnZvdGVyZHIvMTg5LTk2MTMxNjMtMTg3MjMyOT9fZW5jb2Rpbmc9VVRGOCZha2lkPUFLSUFKRTdCUUg2V1IzQkE0M1JRJmFsaW5rQ29kZT1zcDEmYXNpbj1CMDBJMzZHWldBJmF0YWc9d2F0MDcyLTIwJmV4cD0yMDE1LTExLTI0VDA0JTNBNTMlM0EyMFombGlua0NvZGU9c3AxJnNpZz1iUzdwd2lRcUh0bXZmU2ZUWkhvcTNWaHRmazQ2NDNDU1ZTTmdBZ1BNSkMwJTNEJnN1bW1hcnk9MCZ0YWc9d2F0MDcyLTIwJnRydW5jYXRlPTAmdj0y&token=BC50E092E1B5EEED897802D1FE06B7AAA256A323&voteAnchorName=R10OHULL3QB3II.2115.Helpful.Reviews&voteSessionID=189-9613163-1872329"><img src="http://g-ecx.images-amazon.com/images/G/01/x-locale/communities/reviews/btn-yes-sec-md._CB192249951_.gif" width="35" alt="Yes" style="vertical-align:middle;" height="18" border="0" /></a>
<a rel="nofollow" class="votingButtonReviews noButton" href="http://www.amazon.com/gp/voting/cast/Reviews/2115/R10OHULL3QB3II/Helpful/-1/ref=cm_cr_ifvoteyn/189-9613163-1872329?ie=UTF8&target=aHR0cDovL3d3dy5hbWF6b24uY29tL3Byb2R1Y3QtcmV2aWV3cy9CMDBJMzZHWldBL3JlZj1jbV9jcl9pZnZvdGVyZHIvMTg5LTk2MTMxNjMtMTg3MjMyOT9fZW5jb2Rpbmc9VVRGOCZha2lkPUFLSUFKRTdCUUg2V1IzQkE0M1JRJmFsaW5rQ29kZT1zcDEmYXNpbj1CMDBJMzZHWldBJmF0YWc9d2F0MDcyLTIwJmV4cD0yMDE1LTExLTI0VDA0JTNBNTMlM0EyMFombGlua0NvZGU9c3AxJnNpZz1iUzdwd2lRcUh0bXZmU2ZUWkhvcTNWaHRmazQ2NDNDU1ZTTmdBZ1BNSkMwJTNEJnN1bW1hcnk9MCZ0YWc9d2F0MDcyLTIwJnRydW5jYXRlPTAmdj0y&token=59095D08784DE866A7252E324ADF2757D954B1CC&voteAnchorName=R10OHULL3QB3II.2115.Helpful.Reviews&voteSessionID=189-9613163-1872329"><img src="http://g-ecx.images-amazon.com/images/G/01/x-locale/communities/reviews/btn-no-sec-md._CB192249949_.gif" width="35" alt="No" style="vertical-align:middle;" height="18" border="0" /></a></nobr> <span class="votingMessage"></span></span>

</div></div><div style="float:left;"><div style="padding-left:15px;"><div style="white-space:nowrap;"><span class='tiny'>








<a name="R10OHULL3QB3II.2115.Inappropriate.Reviews" style="font-size:1px;"> </a><span class="reportingButton"><nobr><a rel="nofollow" class="reportingButton" href="http://www.amazon.com/gp/voting/cast/Reviews/2115/R10OHULL3QB3II/Inappropriate/1/ref=cm_cr_ifvoteyn/189-9613163-1872329?ie=UTF8&target=aHR0cDovL3d3dy5hbWF6b24uY29tL3Byb2R1Y3QtcmV2aWV3cy9CMDBJMzZHWldBL3JlZj1jbV9jcl9pZnZvdGVyZHIvMTg5LTk2MTMxNjMtMTg3MjMyOT9fZW5jb2Rpbmc9VVRGOCZha2lkPUFLSUFKRTdCUUg2V1IzQkE0M1JRJmFsaW5rQ29kZT1zcDEmYXNpbj1CMDBJMzZHWldBJmF0YWc9d2F0MDcyLTIwJmV4cD0yMDE1LTExLTI0VDA0JTNBNTMlM0EyMFombGlua0NvZGU9c3AxJnNpZz1iUzdwd2lRcUh0bXZmU2ZUWkhvcTNWaHRmazQ2NDNDU1ZTTmdBZ1BNSkMwJTNEJnN1bW1hcnk9MCZ0YWc9d2F0MDcyLTIwJnRydW5jYXRlPTAmdj0y&token=58A975A6E6976719F1B4CF6BAFB3DCE1BAF05274&voteAnchorName=R10OHULL3QB3II.2115.Inappropriate.Reviews&voteSessionID=189-9613163-1872329"
>Report abuse</a></nobr></span>
</span> <span style="color:#CCCCCC;">|</span> <span class="tiny"><a href="http://www.amazon.com/review/R10OHULL3QB3II/ref=cm_cr_if_perm/?ie=UTF8&ASIN=B00I36GZWA&linkCode=sp1&tag=wat072-20" target="_top">Permalink</a></span></div><div style="white-space:nowrap;padding-left:-5px;padding-top:5px;"><a href="http://www.amazon.com/review/R10OHULL3QB3II/ref=cm_cr_if_cmt/189-9613163-1872329?ie=UTF8&ASIN=B00I36GZWA&linkCode=sp1&tag=wat072-20#wasThisHelpful" target="_top"><img src="http://g-ecx.images-amazon.com/images/G/01/x-locale/communities/discussion_boards/comment-sm._CB192250344_.gif" width="16" alt="Comment" hspace="3" align="absmiddle" height="16" border="0" /></a>&nbsp;<a href="http://www.amazon.com/review/R10OHULL3QB3II/ref=cm_cr_if_cmt/189-9613163-1872329?ie=UTF8&ASIN=B00I36GZWA&linkCode=sp1&tag=wat072-20#wasThisHelpful" target="_top">Comment</a></div></div></div><div style="clear:both;"></div>
      </div>
      <br />

</div>

  












































<!-- BOUNDARY -->
<a name="R2RBD3E0ZI5PXQ"></a><br />


<div style="margin-left:0.5em;">
    
      <div style="margin-bottom:0.5em;">
        2 of 2 people found the following review helpful
      </div>
      <div style="margin-bottom:0.5em;">
        <span style='margin-left: -5px;'><img src="http://g-ecx.images-amazon.com/images/G/01/x-locale/common/customer-reviews/stars-1-0._CB192241078_.gif" width="64" alt="1.0 out of 5 stars" title="1.0 out of 5 stars" height="12" border="0" /> </span>
        <b>Unable to read the USB driver you have to install stuck on connecting</b>, <nobr>January 29, 2015</nobr>
      </div>
      <div style="margin-bottom:0.5em;">
        <div><div style="float:left;">By&nbsp;</div><div style="float:left;"><a href="http://www.amazon.com/gp/pdp/profile/AHKI5Y8L00E3G/ref=cm_cr_if_pdp/189-9613163-1872329?ie=UTF8&linkCode=sp1&tag=wat072-20" target="_top"><span style = "font-weight: bold;">ramona</span></a> (Los Angeles, CA)  - <a href="http://www.amazon.com/gp/cdp/member-reviews/AHKI5Y8L00E3G/ref=cm_cr_if_auth_rev/189-9613163-1872329?ie=UTF8&amp;linkCode=sp1&amp;sort_by=MostRecentReview&amp;tag=wat072-20" target="_top">See all my reviews</a></div></div><div style="clear:both;"></div>
      </div>
      <div class="tiny" style="margin-bottom:0.5em;">
        <b><span class="h3color tiny">This review is from: </span>Acer K137 Portable Home Theater Projector (White) (Electronics)</b>
      </div>

After lots of research I decided to purchase this Acer model for business meetings. This was the worst mistake I made and I had to return the item which was defective out of the box. The main reason I decided on this projector, it's advertised that you can display media files via a USB stick which is exactly what we needed for pitch meetings.<br /><br />Out of the box:<br />1) It's required to install a &#34;USB driver&#34; from the CD it comes with (in order to project media files via a USB stick)<br />2) The instructions are written really poorly and don't walk you through the installation of the driver they skip a lot of steps.<br />3) After I installed the driver it was impossible for the projector to read the driver itself. The projector kept displaying a message how to install the driver after we completed this step. (Picture attached)<br />4) We couldn't get anyone on the phone from Acer for troubleshooting, we were only able to instant chat with technical support. Total...






<a href="http://www.amazon.com/Acer-K137-Portable-Theater-Projector/product-reviews/B00I36GZWA/ref=cm_cr_if/189-9613163-1872329?ie=UTF8&linkCode=sp1&showViewpoints=0&tag=wat072-20#R2RBD3E0ZI5PXQ" target="_top">Read more</a>
      <hr size="1" style="border-top: 1px dashed #ACACAC;"/><div style="padding-top: 10px; clear: both; width: 100%; display:none;">

  




<div id="R2RBD3E0ZI5PXQ_imageSection_30020B24-919E-11E5-ADA9-D2DD8C6B7CC2">
          <div style="overflow-x: hidden; overflow-y: hidden;">
                  <img class="review-image-thumbnail" src="https://images-na.ssl-images-amazon.com/images/I/51PQRHUH1+L._SL256_.jpg" large-image-url="https://images-na.ssl-images-amazon.com/images/I/51PQRHUH1+L._SL1600_.jpg" style="background-position:center;
                                         background-repeat: no-repeat;
                                         overflow: hidden;background-size: cover;
                                         display:inline-block;
                                         margin-right: 1px;
                                         margin-bottom: 4px;
                                         cursor: pointer;
                                         width:auto;height:88px">
          </div>
</div>




<script>
    amznJQ.onReady('jQuery', function() { 
        amznJQ.available('popover', function() { 
            var widgetDom = jQuery("#R2RBD3E0ZI5PXQ_imageSection_30020B24-919E-11E5-ADA9-D2DD8C6B7CC2");
            var images = widgetDom.find(".review-image-thumbnail"); 
            for (var c=0;c<images.length;c++) {  
                var imageURL = jQuery(images[c]).attr("large-image-url"); 
                jQuery(images[c]).amazonPopoverTrigger({
                    showOnHover:true,
                    literalContent: '<img src="'+ imageURL +'" style="max-width:100%;max-height:100%;">'
                });
            }
        });
    });
</script>






        <div class="reviews-voting-stripe" style="float:left; padding-right:15px; border-right:1px solid #CCCCCC"><div style="padding-bottom:5px;"><b class="tiny" style="color:#666666;white-space:nowrap;">Help other customers find the most helpful reviews</b>&nbsp;</div><div style="width:300px;">









<a name="R2RBD3E0ZI5PXQ.2115.Helpful.Reviews" style="font-size:1px;"> </a><span
class="crVotingButtons"><nobr><span class="votingPrompt">Was this review helpful to you?&nbsp;</span><a rel="nofollow" class="votingButtonReviews yesButton" href="http://www.amazon.com/gp/voting/cast/Reviews/2115/R2RBD3E0ZI5PXQ/Helpful/1/ref=cm_cr_ifvoteyn/189-9613163-1872329?ie=UTF8&target=aHR0cDovL3d3dy5hbWF6b24uY29tL3Byb2R1Y3QtcmV2aWV3cy9CMDBJMzZHWldBL3JlZj1jbV9jcl9pZnZvdGVyZHIvMTg5LTk2MTMxNjMtMTg3MjMyOT9fZW5jb2Rpbmc9VVRGOCZha2lkPUFLSUFKRTdCUUg2V1IzQkE0M1JRJmFsaW5rQ29kZT1zcDEmYXNpbj1CMDBJMzZHWldBJmF0YWc9d2F0MDcyLTIwJmV4cD0yMDE1LTExLTI0VDA0JTNBNTMlM0EyMFombGlua0NvZGU9c3AxJnNpZz1iUzdwd2lRcUh0bXZmU2ZUWkhvcTNWaHRmazQ2NDNDU1ZTTmdBZ1BNSkMwJTNEJnN1bW1hcnk9MCZ0YWc9d2F0MDcyLTIwJnRydW5jYXRlPTAmdj0y&token=50809B36660BDF37E21F48571395B6E32A00AC2D&voteAnchorName=R2RBD3E0ZI5PXQ.2115.Helpful.Reviews&voteSessionID=189-9613163-1872329"><img src="http://g-ecx.images-amazon.com/images/G/01/x-locale/communities/reviews/btn-yes-sec-md._CB192249951_.gif" width="35" alt="Yes" style="vertical-align:middle;" height="18" border="0" /></a>
<a rel="nofollow" class="votingButtonReviews noButton" href="http://www.amazon.com/gp/voting/cast/Reviews/2115/R2RBD3E0ZI5PXQ/Helpful/-1/ref=cm_cr_ifvoteyn/189-9613163-1872329?ie=UTF8&target=aHR0cDovL3d3dy5hbWF6b24uY29tL3Byb2R1Y3QtcmV2aWV3cy9CMDBJMzZHWldBL3JlZj1jbV9jcl9pZnZvdGVyZHIvMTg5LTk2MTMxNjMtMTg3MjMyOT9fZW5jb2Rpbmc9VVRGOCZha2lkPUFLSUFKRTdCUUg2V1IzQkE0M1JRJmFsaW5rQ29kZT1zcDEmYXNpbj1CMDBJMzZHWldBJmF0YWc9d2F0MDcyLTIwJmV4cD0yMDE1LTExLTI0VDA0JTNBNTMlM0EyMFombGlua0NvZGU9c3AxJnNpZz1iUzdwd2lRcUh0bXZmU2ZUWkhvcTNWaHRmazQ2NDNDU1ZTTmdBZ1BNSkMwJTNEJnN1bW1hcnk9MCZ0YWc9d2F0MDcyLTIwJnRydW5jYXRlPTAmdj0y&token=212F719FA39D12B65C19091291FB655445D08D8D&voteAnchorName=R2RBD3E0ZI5PXQ.2115.Helpful.Reviews&voteSessionID=189-9613163-1872329"><img src="http://g-ecx.images-amazon.com/images/G/01/x-locale/communities/reviews/btn-no-sec-md._CB192249949_.gif" width="35" alt="No" style="vertical-align:middle;" height="18" border="0" /></a></nobr> <span class="votingMessage"></span></span>

</div></div><div style="float:left;"><div style="padding-left:15px;"><div style="white-space:nowrap;"><span class='tiny'>








<a name="R2RBD3E0ZI5PXQ.2115.Inappropriate.Reviews" style="font-size:1px;"> </a><span class="reportingButton"><nobr><a rel="nofollow" class="reportingButton" href="http://www.amazon.com/gp/voting/cast/Reviews/2115/R2RBD3E0ZI5PXQ/Inappropriate/1/ref=cm_cr_ifvoteyn/189-9613163-1872329?ie=UTF8&target=aHR0cDovL3d3dy5hbWF6b24uY29tL3Byb2R1Y3QtcmV2aWV3cy9CMDBJMzZHWldBL3JlZj1jbV9jcl9pZnZvdGVyZHIvMTg5LTk2MTMxNjMtMTg3MjMyOT9fZW5jb2Rpbmc9VVRGOCZha2lkPUFLSUFKRTdCUUg2V1IzQkE0M1JRJmFsaW5rQ29kZT1zcDEmYXNpbj1CMDBJMzZHWldBJmF0YWc9d2F0MDcyLTIwJmV4cD0yMDE1LTExLTI0VDA0JTNBNTMlM0EyMFombGlua0NvZGU9c3AxJnNpZz1iUzdwd2lRcUh0bXZmU2ZUWkhvcTNWaHRmazQ2NDNDU1ZTTmdBZ1BNSkMwJTNEJnN1bW1hcnk9MCZ0YWc9d2F0MDcyLTIwJnRydW5jYXRlPTAmdj0y&token=6A4EA3B9F37DD6E2F577ACF52C7C034478A86F75&voteAnchorName=R2RBD3E0ZI5PXQ.2115.Inappropriate.Reviews&voteSessionID=189-9613163-1872329"
>Report abuse</a></nobr></span>
</span> <span style="color:#CCCCCC;">|</span> <span class="tiny"><a href="http://www.amazon.com/review/R2RBD3E0ZI5PXQ/ref=cm_cr_if_perm/?ie=UTF8&ASIN=B00I36GZWA&linkCode=sp1&tag=wat072-20" target="_top">Permalink</a></span></div><div style="white-space:nowrap;padding-left:-5px;padding-top:5px;"><a href="http://www.amazon.com/review/R2RBD3E0ZI5PXQ/ref=cm_cr_if_cmt/189-9613163-1872329?ie=UTF8&ASIN=B00I36GZWA&linkCode=sp1&tag=wat072-20#wasThisHelpful" target="_top"><img src="http://g-ecx.images-amazon.com/images/G/01/x-locale/communities/discussion_boards/comment-sm._CB192250344_.gif" width="16" alt="Comment" hspace="3" align="absmiddle" height="16" border="0" /></a>&nbsp;<a href="http://www.amazon.com/review/R2RBD3E0ZI5PXQ/ref=cm_cr_if_cmt/189-9613163-1872329?ie=UTF8&ASIN=B00I36GZWA&linkCode=sp1&tag=wat072-20#wasThisHelpful" target="_top">Comment</a></div></div></div><div style="clear:both;"></div>
      </div>
      <br />

</div>

  












































<!-- BOUNDARY -->
<a name="RDILKYDMJT94"></a><br />


<div style="margin-left:0.5em;">
    
      <div style="margin-bottom:0.5em;">
        2 of 2 people found the following review helpful
      </div>
      <div style="margin-bottom:0.5em;">
        <span style='margin-left: -5px;'><img src="http://g-ecx.images-amazon.com/images/G/01/x-locale/common/customer-reviews/stars-5-0._CB192240867_.gif" width="64" alt="5.0 out of 5 stars" title="5.0 out of 5 stars" height="12" border="0" /> </span>
        <b>Five Stars</b>, <nobr>August 13, 2014</nobr>
      </div>
      <div style="margin-bottom:0.5em;">
        <div><div style="float:left;">By&nbsp;</div><div style="float:left;"><a href="http://www.amazon.com/gp/pdp/profile/A5QRGU7WZC6E0/ref=cm_cr_if_pdp/189-9613163-1872329?ie=UTF8&linkCode=sp1&tag=wat072-20" target="_top"><span style = "font-weight: bold;">B. Olson</span></a>  - <a href="http://www.amazon.com/gp/cdp/member-reviews/A5QRGU7WZC6E0/ref=cm_cr_if_auth_rev/189-9613163-1872329?ie=UTF8&amp;linkCode=sp1&amp;sort_by=MostRecentReview&amp;tag=wat072-20" target="_top">See all my reviews</a></div></div><div style="clear:both;"></div>
      </div>
      <div class="tiny" style="margin-bottom:0.5em;">
        <span class="crVerifiedStripe"><b class="h3color tiny" style="margin-right: 0.5em;">Verified Purchase</b><span class="tiny verifyWhatsThis">(<a href="http://www.amazon.com/gp/community-help/amazon-verified-purchase/189-9613163-1872329" target="AmazonHelp" onclick="amz_js_PopWin('http://www.amazon.com/gp/community-help/amazon-verified-purchase/189-9613163-1872329', 'AmazonHelp', 'width=400,height=500,resizable=1,scrollbars=1,toolbar=0,status=1');return false; ">What's this?</a>)</span></span>
      </div>
      <div class="tiny" style="margin-bottom:0.5em;">
        <b><span class="h3color tiny">This review is from: </span>Acer K137 Portable Home Theater Projector (White) (Electronics)</b>
      </div>

<div class="reviewText">Excellent bright image. Perfect for traveling.</div>
0      <hr size="1" style="border-top: 1px dashed #ACACAC;"/><div style="padding-top: 10px; clear: both; width: 100%; display:none;">

  




        <div class="reviews-voting-stripe" style="float:left; padding-right:15px; border-right:1px solid #CCCCCC"><div style="padding-bottom:5px;"><b class="tiny" style="color:#666666;white-space:nowrap;">Help other customers find the most helpful reviews</b>&nbsp;</div><div style="width:300px;">









<a name="RDILKYDMJT94.2115.Helpful.Reviews" style="font-size:1px;"> </a><span
class="crVotingButtons"><nobr><span class="votingPrompt">Was this review helpful to you?&nbsp;</span><a rel="nofollow" class="votingButtonReviews yesButton" href="http://www.amazon.com/gp/voting/cast/Reviews/2115/RDILKYDMJT94/Helpful/1/ref=cm_cr_ifvoteyn/189-9613163-1872329?ie=UTF8&target=aHR0cDovL3d3dy5hbWF6b24uY29tL3Byb2R1Y3QtcmV2aWV3cy9CMDBJMzZHWldBL3JlZj1jbV9jcl9pZnZvdGVyZHIvMTg5LTk2MTMxNjMtMTg3MjMyOT9fZW5jb2Rpbmc9VVRGOCZha2lkPUFLSUFKRTdCUUg2V1IzQkE0M1JRJmFsaW5rQ29kZT1zcDEmYXNpbj1CMDBJMzZHWldBJmF0YWc9d2F0MDcyLTIwJmV4cD0yMDE1LTExLTI0VDA0JTNBNTMlM0EyMFombGlua0NvZGU9c3AxJnNpZz1iUzdwd2lRcUh0bXZmU2ZUWkhvcTNWaHRmazQ2NDNDU1ZTTmdBZ1BNSkMwJTNEJnN1bW1hcnk9MCZ0YWc9d2F0MDcyLTIwJnRydW5jYXRlPTAmdj0y&token=C95509B1E8F2096D6C7F588F6FA1CABFA4B55409&voteAnchorName=RDILKYDMJT94.2115.Helpful.Reviews&voteSessionID=189-9613163-1872329"><img src="http://g-ecx.images-amazon.com/images/G/01/x-locale/communities/reviews/btn-yes-sec-md._CB192249951_.gif" width="35" alt="Yes" style="vertical-align:middle;" height="18" border="0" /></a>
<a rel="nofollow" class="votingButtonReviews noButton" href="http://www.amazon.com/gp/voting/cast/Reviews/2115/RDILKYDMJT94/Helpful/-1/ref=cm_cr_ifvoteyn/189-9613163-1872329?ie=UTF8&target=aHR0cDovL3d3dy5hbWF6b24uY29tL3Byb2R1Y3QtcmV2aWV3cy9CMDBJMzZHWldBL3JlZj1jbV9jcl9pZnZvdGVyZHIvMTg5LTk2MTMxNjMtMTg3MjMyOT9fZW5jb2Rpbmc9VVRGOCZha2lkPUFLSUFKRTdCUUg2V1IzQkE0M1JRJmFsaW5rQ29kZT1zcDEmYXNpbj1CMDBJMzZHWldBJmF0YWc9d2F0MDcyLTIwJmV4cD0yMDE1LTExLTI0VDA0JTNBNTMlM0EyMFombGlua0NvZGU9c3AxJnNpZz1iUzdwd2lRcUh0bXZmU2ZUWkhvcTNWaHRmazQ2NDNDU1ZTTmdBZ1BNSkMwJTNEJnN1bW1hcnk9MCZ0YWc9d2F0MDcyLTIwJnRydW5jYXRlPTAmdj0y&token=C41AD5F917CCE1CC99BEF952245BCFFB898469DC&voteAnchorName=RDILKYDMJT94.2115.Helpful.Reviews&voteSessionID=189-9613163-1872329"><img src="http://g-ecx.images-amazon.com/images/G/01/x-locale/communities/reviews/btn-no-sec-md._CB192249949_.gif" width="35" alt="No" style="vertical-align:middle;" height="18" border="0" /></a></nobr> <span class="votingMessage"></span></span>

</div></div><div style="float:left;"><div style="padding-left:15px;"><div style="white-space:nowrap;"><span class='tiny'>








<a name="RDILKYDMJT94.2115.Inappropriate.Reviews" style="font-size:1px;"> </a><span class="reportingButton"><nobr><a rel="nofollow" class="reportingButton" href="http://www.amazon.com/gp/voting/cast/Reviews/2115/RDILKYDMJT94/Inappropriate/1/ref=cm_cr_ifvoteyn/189-9613163-1872329?ie=UTF8&target=aHR0cDovL3d3dy5hbWF6b24uY29tL3Byb2R1Y3QtcmV2aWV3cy9CMDBJMzZHWldBL3JlZj1jbV9jcl9pZnZvdGVyZHIvMTg5LTk2MTMxNjMtMTg3MjMyOT9fZW5jb2Rpbmc9VVRGOCZha2lkPUFLSUFKRTdCUUg2V1IzQkE0M1JRJmFsaW5rQ29kZT1zcDEmYXNpbj1CMDBJMzZHWldBJmF0YWc9d2F0MDcyLTIwJmV4cD0yMDE1LTExLTI0VDA0JTNBNTMlM0EyMFombGlua0NvZGU9c3AxJnNpZz1iUzdwd2lRcUh0bXZmU2ZUWkhvcTNWaHRmazQ2NDNDU1ZTTmdBZ1BNSkMwJTNEJnN1bW1hcnk9MCZ0YWc9d2F0MDcyLTIwJnRydW5jYXRlPTAmdj0y&token=B0EA975FBA92ADC824B21CBD194F561DF56CB049&voteAnchorName=RDILKYDMJT94.2115.Inappropriate.Reviews&voteSessionID=189-9613163-1872329"
>Report abuse</a></nobr></span>
</span> <span style="color:#CCCCCC;">|</span> <span class="tiny"><a href="http://www.amazon.com/review/RDILKYDMJT94/ref=cm_cr_if_perm/?ie=UTF8&ASIN=B00I36GZWA&linkCode=sp1&tag=wat072-20" target="_top">Permalink</a></span></div><div style="white-space:nowrap;padding-left:-5px;padding-top:5px;"><a href="http://www.amazon.com/review/RDILKYDMJT94/ref=cm_cr_if_cmt/189-9613163-1872329?ie=UTF8&ASIN=B00I36GZWA&linkCode=sp1&tag=wat072-20#wasThisHelpful" target="_top"><img src="http://g-ecx.images-amazon.com/images/G/01/x-locale/communities/discussion_boards/comment-sm._CB192250344_.gif" width="16" alt="Comment" hspace="3" align="absmiddle" height="16" border="0" /></a>&nbsp;<a href="http://www.amazon.com/review/RDILKYDMJT94/ref=cm_cr_if_cmt/189-9613163-1872329?ie=UTF8&ASIN=B00I36GZWA&linkCode=sp1&tag=wat072-20#wasThisHelpful" target="_top">Comment</a></div></div></div><div style="clear:both;"></div>
      </div>
      <br />

</div>

  



  </td>
</tr>
</table>
<br />
<div class="crIFrameCreateReview" >
  Share your thoughts with other customers:
  <span class="crIFrameCreateReviewButton"><a href="http://www.amazon.com/review/create-review/ref=cm_cr_if_wr/189-9613163-1872329?ie=UTF8&amp;asin=B00I36GZWA&amp;linkCode=sp1&amp;nodeID=&amp;tag=wat072-20" target="_top"><img src="http://g-ecx.images-amazon.com/images/G/01/x-locale/communities/reviews/btn-create-own-review-md._CB192249922_.gif" width="145" alt="" height="22" border="0" /></a></span>
</div>
<span class="small"><b><b class="h3color">&rsaquo;</b>&nbsp;<a href="http://www.amazon.com/Acer-K137-Portable-Theater-Projector/product-reviews/B00I36GZWA/ref=cm_cr_if_all_link/189-9613163-1872329?ie=UTF8&linkCode=sp1&showViewpoints=1&sortBy=bySubmissionDateDescending&tag=wat072-20" target="_top">See all 7 customer reviews...</a></b></span>






</div>
<script type='text/javascript'>
    
    window.ue_csm.cel_widgets = [
         {  id: "DAra1"  } , {  c: "celwidget"  } , {  id: "fallbacksessionShvl"  } , {  id: "rhf"  } 
    ];




</script>

<div id='be' style='display:none;visibility:hidden;'><form name='ue_backdetect'><input name='ue_back' value='1' type='hidden'></form><script type="text/javascript">
(function(a){var b=document.ue_backdetect;b&&b.ue_back&&a.ue&&(a.ue.bfini=b.ue_back.value);a.uet&&a.uet("be");a.onLdEnd&&(window.addEventListener?window.addEventListener("load",a.onLdEnd,!1):window.attachEvent&&window.attachEvent("onload",a.onLdEnd));a.ueh&&a.ueh(0,window,"load",a.onLd,1);a.ue&&a.ue.tag&&(a.ue_furl&&a.ue_furl.split?(b=a.ue_furl.split("."))&&b[0]&&a.ue.tag(b[0]):a.ue.tag("nofls"))})(ue_csm);


var ue_pty='CustomerReviews', ue_spty='IFrameMostHelpful', ue_pti='iframe';

</script>

<a href='http://www.amazon.com/reviews/iframe/uedata/nvp/unsticky/189-9613163-1872329/CustomerReviews/ntpoffrw?tepes=1&amp;id=08DZFH54KE664F98XHC4'>v</a>
<noscript>
     <img src='http://www.amazon.com/reviews/iframe/uedata/nvp/unsticky/189-9613163-1872329/CustomerReviews/ntpoffrw?noscript&amp;id=08DZFH54KE664F98XHC4&amp;pty=CustomerReviews&amp;spty=IFrameMostHelpful&amp;pti=iframe' />
     <img src='//fls-na.amazon.com/1/batch/1/OP/ATVPDKIKX0DER:189-9613163-1872329:08DZFH54KE664F98XHC4$uedata=s:%2Freviews%2Fiframe%2Fuedata%2Fnvp%2Funsticky%2F189-9613163-1872329%2FCustomerReviews%2Fntpoffrw%3Fnoscript%26id%3D08DZFH54KE664F98XHC4%26pty%3DCustomerReviews%26spty%3DIFrameMostHelpful%26pti%3Diframe:2000' />

</noscript>
</div>
<script type='text/javascript'>
(function(g,h){function d(a,d){var b={};if(!e||!f)try{var c=h.sessionStorage;c?a&&("undefined"!==typeof d?c.setItem(a,d):b.val=c.getItem(a)):f=1}catch(g){e=1}e&&(b.e=1);return b}var b=g.ue||{},a="",f,e,c,a=d("csmtid");f?a="NA":a.e?a="ET":(a=a.val,a||(a=b.oid||"NI",d("csmtid",a)),c=d(b.oid),c.e||(c.val=c.val||0,d(b.oid,c.val+1)),b.ssw=d);b.tabid=a})(ue_csm,window);

</script>
<script type='text/javascript'>
(function(b,c){var a=c.images;a&&a.length&&b.ue.count("totalImages",a.length)})(ue_csm,document);

</script>
<script type='text/javascript'>
(function(m,l){function I(a){if(a)return a.replace(/^\s+|\s+$/g,"")}function x(a,e){if(!a)return{};a.m&&a.m[n]&&(a=a.m);var b=e.m||e[n]||"",b=a.m&&a.m[n]?b+a.m[n]:a.m&&a.m.target&&a.m.target.tagName?b+("Error handler invoked by "+a.m.target.tagName+" tag"):a.m?b+a.m:a[n]?b+a[n]:b+"Unknown error",b={m:b,f:a.f||a.sourceURL||a.fileName||a.filename||a.m&&a.m.target&&a.m.target.src,l:a.l||a.line||a.lineno||a.lineNumber,c:a.c?""+a.c:a.c,s:[],t:m.ue.d(),name:a.name,type:a.type,csm:J+" "+(a.fromOnError?"onerror":
"ueLogError")},c,d,f=0,g=0,k;d=l.location;c=a.stack||(a.err?a.err.stack:"");b[y]=e[y]||d&&d.href||"missing";b[p]=e[p]||z;(d=e[q])&&(b[q]=""+d);if(c&&c.split)for(b.csm+=" stack",d=c.split("\n");f<d.length&&b.s.length<A;)(c=d[f++])&&b.s.push(I(c));else for(b.csm+=" callee",d=B(a.args||arguments,"callee"),g=f=0;d&&f<A;)k=v,d[s]||(c=d.toString())&&c.substr&&(k=0===g?4*v:k,k=1==g?2*v:k,b.s.push(c.substr(0,k)),g++),d=B(d,"caller"),f++;!b.f&&0<b.s.length&&(f=b,c=(f||{}).s||[],d=c[1]||"",c=(c[0]||"").match(K)||
d.match(L))&&(f.f=c[1],f.l=c[2]);return b}function B(a,e){try{return a[e]}catch(b){}}function C(a,e){if(a&&!(h.ec>h.mxe)){h.ec++;h.ter.push(a);e=e||{};var b=a[p]||e[p];e[p]=b;e[q]=a[q]||e[q];b&&b!=z||h.ecf++;w(a,e)}}function w(a,e){if(a){var b=x(a,e),c=e.channel||M;if(ue.log.isStub&&l[t]&&l[t][u]){var d={};d[c]=b;try{var f=l[t][u]({rid:ue.rid,sid:m.ue_sid,mid:m.ue_mid,sn:m.ue_sn,reqs:[d]}),g=l[N],k;if(k=!(g[D]&&g[D](E,f)))if(l[F]){var h=new l[F];h.onerror=r;h.ontimeout=r;h.onprogress=r;h.onload=r;
h.timeout=0;k=h}else if(l[G]){var n=new l[G];k="withCredentials"in n?n:void 0}else k=void 0;if(c=k){c.open("POST",E,!0);if(c[H])c[H]("Content-type","text/plain");c.send(f)}}catch(p){}}else m.ue.log(b,c,{nb:1});f=l.console||{};c=f.error||f.log||r;d=l[t];g="Error logged: ";if(d&&d[u])try{g+=d[u](b)}catch(q){g+="no info provided; converting to string failed"}else g+=b.m;c.apply(f,[g,b])}}var G="XMLHttpRequest",F="XDomainRequest",N="navigator",D="sendBeacon",u="stringify",t="JSON",p="logLevel",q="attribution",
y="pageURL",s="skipTrace",H="setRequestHeader",n="message",r=function(){},E="//"+m.ue_furl+"/1/batch/1/OE/",h=m.ue_err,M=m.ue_err_chan||"jserr",z="FATAL",J="v6",A=20,v=256,L=RegExp(" (?([^ s]*):( d+): d+ )?".split(" ").join(String.fromCharCode(92))),K=/.*@(.*):(\d*)/;x[s]=1;C[s]=1;w[s]=1;(function(){for(var a,e=0;e<(h.erl||[]).length;e++)a=h.erl[e],w(a.ex,a.info);h.erl=[]})();m.ueLogError=C})(ue_csm,window);

</script>
<script type='text/javascript'>
(function(c,d){var b=c.ue,a=d.navigator;b&&b.tag&&a&&(a=a.connection||a.mozConnection||a.webkitConnection)&&a.type&&b.tag("netInfo:"+a.type)})(ue_csm,window);

</script>
<script type="text/javascript">
(function(c,d){function l(a,b){for(var c=[],d=0;d<a.length;d++){var e=a[d],f=b.encode(e);if(e[h]){var g=b.metaSep,e=e[h],l=b.metaPairSep,k=[],m=void 0;for(m in e)e.hasOwnProperty(m)&&k.push(m+"="+e[m]);e=k.join(l);f+=g+e}c.push(f)}return c.join(b.resourceSep)}function r(a){var b=a[h]=a[h]||{};b[s]||(b[s]=c.ue_mid);b[t]||(b[t]=c.ue_sid);b[f]||(b[f]=c.ue_id);b.csm=1;a="//"+c.ue_furl+"/1/"+a[u]+"/1/OP/"+a[v]+"/"+a[w]+"/"+l([a],x);if(k)try{k.call(d[n],a)}catch(g){c.ue.sbf=1,(new Image).src=a}else(new Image).src=
a}function p(){g&&g.isStub&&g.replay(function(a,b,c){a=a[0];b=a[h]=a[h]||{};b[f]=b[f]||c;r(a)});c.ue.impression=r;g=null}if(!(1<c.ueinit)){var h="metadata",w="impressionType",u="foresterChannel",v="programGroup",s="marketplaceId",t="session",f="requestId",n="navigator",k=d[n]&&d[n].sendBeacon,q=function(a,b,c,d){return{encode:d,resourceSep:a,metaSep:b,metaPairSep:c}},x=q("","?","&",function(a){return l(a.impressionData,y)}),y=q("/",":",",",function(a){return a.featureName+":"+l(a.resources,z)}),z=
q(",","@","|",function(a){return a.id}),g=c.ue.impression;ue.impression({programGroup:"csm",impressionType:"action",impressionData:[{featureName:"csm-features",resources:[{id:"impression-tracking"}]}],foresterChannel:"action-impressions"});k?p():(ue.attach("load",p),ue.attach("beforeunload",p));d.P&&d.P.register&&d.P.register("impression-client",function(){})}})(ue_csm,window);

</script>
<script type='text/javascript'>
ue_csm.ue.exec(function(d,e,a){function b(a,b){return{name:a,getFeatureValue:function(){return void 0!==b|0}}}function h(a,b,c){return{name:a,getFeatureValue:function(){return b===c|0}}}function g(a,b){return{name:a,getFeatureValue:function(){for(var a=0;a<b.length;a++)if(void 0!==b[a])return 1;return 0}}}var k=d.ue_unbf,f=d.ue||{},c=[b("dall",e.all),b("dcm",e.compatMode),b("xhr",a.XMLHttpRequest),b("qs",e.querySelector),b("ael",e.addEventListener),b("atob",a.atob)];if(k){try{c.push(h("no",a.navigator.onLine,
!1))}catch(l){c.push({name:"no",getFeatureValue:function(){return 2}})}c.push(g("pjs",[a.callPhantom,a._phantom,a.PhantomEmitter,a.__phantomas]),b("njs",a.Buffer),b("cjs",a.emit),b("rhn",a.spawn),b("sel",a.webdriver),g("chrm",[a.domAutomation,a.domAutomationController]),{name:"plg",getFeatureValue:function(){return(void 0!==a.navigator.plugins&&0<a.navigator.plugins.length)|0}})}f._bf=d.ue.exec(function(){for(var a="",b=0;b<c.length;b++)a+=c[b].name+"_"+c[b].getFeatureValue()+"-";(d.ue||{})._bf=null;
return a},"ue.bf");f._bf.modules=c;f._bf.mpm=b},"bf")(ue_csm,document,window);

</script>
<!--[if IE 5]>
<script type='text/javascript'> ue._bf.modules.push( ue._bf.mpm("cc_ie5", 1) ) </script>
<![endif]-->
<!--[if IE 6]>
<script type='text/javascript'> ue._bf.modules.push( ue._bf.mpm("cc_ie6", 1) ) </script>
<![endif]-->
<!--[if IE 7]>
<script type='text/javascript'> ue._bf.modules.push( ue._bf.mpm("cc_ie7", 1) ) </script>
<![endif]-->
<!--[if IE 8]>
<script type='text/javascript'> ue._bf.modules.push( ue._bf.mpm("cc_ie8", 1) ) </script>
<![endif]-->
<!--[if IE 9]>
<script type='text/javascript'> ue._bf.modules.push( ue._bf.mpm("cc_ie9", 1) ) </script>
<![endif]-->
<script type='text/javascript'>
(function(c,a){var b=c.ue.tag||function(){};a.ga&&a.ga.q&&b("has-google-analytics");a.BOOMR&&b("has-boomerang");a.NREUM&&b("has-new-relic");a.Bucky&&b("has-bucky");a.ADRUM&&b("has-appdynamics")})(ue_csm,window);

</script>
<script type='text/javascript'>
(function(g,b,h){function c(){var a;a=h.cookie.match(/session-id=([\w\-]+)/);a=null!==a?a[1]:null;var b=ue_sid,c;c=Date.now?Date.now():(new Date).getTime();d[a]||(e.log({k:k,t:c,nsid:a,osid:b},f),d[a]=1)}var k="sbk",f="csm";b=b.navigator.cookieEnabled?!0:!1;var e=g.ue,d={};e.log({k:"cinf",enbl:b},f);b&&ue_sid&&(d[ue_sid]=1,e.attach("beforeunload",c),setInterval(c,1E3))})(ue_csm,window,document);

</script>
<script type="text/javascript">
//<![CDATA[
    try
    {
        parent.$('amazon_customer_reviews').style.width = '100%';
        parent.$('amazon_customer_reviews').style.display = 'block';
        parent.$('amazon_customer_reviews').style.height = getBodyHeight() + 'px';
    }
    catch(err)
    {
        // ---
    }

    function getBodyHeight()
    {
        var frameBody = document.body, frameHtml = document.documentElement, myHeight = 0;
        if (frameBody.scrollHeight > myHeight) myHeight = frameBody.scrollHeight;
        if (frameBody.offsetHeight > myHeight) myHeight = frameBody.offsetHeight;
        if (frameHtml.clientHeight > myHeight) myHeight = frameHtml.clientHeight;
        if (frameHtml.scrollHeight > myHeight) myHeight = frameHtml.scrollHeight;
        if (frameHtml.offsetHeight > myHeight) myHeight = frameHtml.offsetHeight;
        return myHeight;
    }
//]]>
</script></body>
</html>






















