


  
  









  
  












<html>
<head>
<script type="text/javascript">var ue_t0=ue_t0||+new Date();</script>
<script type='text/javascript'>
var ue_id='08T5BTK9CP4SDQ0F5MDX',
ue_csm = window,
ue_err_chan = 'jserr-rw',
ue = {};
ue_csm.ue_hob=ue_csm.ue_hob||+new Date();(function(c){var a=c.ue,b=(Date.now||function(){return +new Date()});a.lr=[];a.log=function(f,e,d){if(a.lr.length==500){return}a.lr.push(["l",f,e,d,a.d(),c.ue_id])};a.log.isStub=1;a.d=function(d){return b()-(d?0:c.ue_t0)}})(ue_csm);ue_csm.ue_hoe=+new Date();
ue_csm.ue_hob=ue_csm.ue_hob||+new Date();(function(f,a){var b="FATAL",c={ec:0,ecf:0,pec:0,ts:0,erl:[],ter:[],mxe:50,startTimer:function(){c.ts++;setInterval(function(){if(f.ue&&(c.pec<c.ec)){f.uex("at")}c.pec=c.ec},10000)}};function e(i,h){if(c.ec>c.mxe||!i){return}c.ec++;c.ter.push(i);h=h||{};var g=i.logLevel||h.logLevel;if(!g||(g==b)){c.ecf++}h.pageURL=""+(a.location?a.location.href:"");h.logLevel=g;h.attribution=i.attribution||h.attribution;c.erl.push({ex:i,info:h})}function d(l,k,g,i,h){var j={m:l,f:k,l:g,c:""+i,err:h,fromOnError:1,args:arguments};f.ueLogError(j);return false}d.skipTrace=1;e.skipTrace=1;f.ueLogError=e;f.ue_err=c;a.onerror=d})(ue_csm,window);ue_csm.ue_hoe=+new Date();


var ue_url='http://www.amazon.com/reviews/iframe/uedata/nvp/unsticky/179-3648256-6922542/CustomerReviews/ntpoffrw',
ue_sid='179-3648256-6922542',
ue_mid='ATVPDKIKX0DER',
ue_sn='www.amazon.com',
ue_furl='fls-na.amazon.com',
ue_navtiming=1,
ue_log_idx=0,
ue_fcsn=1,
ue_isrw=true,
ue_fpf='//fls-na.amazon.com/1/batch/1/OP/ATVPDKIKX0DER:179-3648256-6922542:08T5BTK9CP4SDQ0F5MDX$uedata=s:',
ue_lnb=0,
ue_lwl=0,
ue_ran=0,
ue_nb=0,
ue_hpfi=200,
ue_lpfi=15000,
ue_osfp=0,
ue_novizfix=0,
ue_ssbf=1,
ue_fixnt=1,
ue_mce='mousedown';
if (!window.ue_csm) {var ue_csm = window;}
ue_csm.ue_hob=ue_csm.ue_hob||+new Date();function ue_viz(){(function(d,l,h){var k=0,b,n,f,a,c=["webkit","o","ms","moz",""],m=0,g=20,j="addEventListener";for(var e=0;(e<c.length&&!m);e++){b=c[e];n=(b?b+"H":"h")+"idden";m=typeof l[n]=="boolean";if(m){f=b+"visibilitychange";if(h.ue_novizfix!=1){a=(b?b+"V":"v")+"isibilityState"}else{a=b+"VisibilityState"}}}function o(r){if((d.ue.viz.length<g)&&!k){var q=r.type,i=r.originalEvent;if(!(/^focus./.test(q)&&i&&(i.toElement||i.fromElement||i.relatedTarget))){var s=l[a]||(q=="blur"||q=="focusout"?"hidden":"visible"),p=+new Date()-d.ue.t0;d.ue.viz.push(s+":"+p);if(s=="visible"){if(ue.isl){uex("at")}k=1}}}}o({});if(m){l[j](f,o,0)}if(d.ue&&m){d.ue.pageViz={event:f,propHid:n}}})(ue_csm,document,window)}ue_csm.ue_hoe=+new Date();
ue_csm.ue_hob=ue_csm.ue_hob||+new Date();(function(n,j){n.ueinit=(n.ueinit||0)+1;var c={t0:j.aPageStart||n.ue_t0,id:n.ue_id,url:n.ue_url,rid:n.ue_id,a:"",b:"",h:{},r:{ld:0,oe:0,ul:0},s:1,t:{},sc:{},iel:[],ielf:[],fc_idx:{},viz:[],v:"0.160.0",d:n.ue&&n.ue.d,log:n.ue&&n.ue.log,lr:n.ue&&n.ue.lr,ulh:[],cfa2:0},p=n.ue_fpf?1:0,b="beforeunload",e;function i(s){return s&&s.replace&&s.replace(/^\s+|\s+$/g,"")}function d(s){return typeof s==="undefined"}function a(s){return typeof s==="function"}function g(t,s){return(a(t.now)&&!d(s))?(new Date(s+t.now())-(new Date())):0}c.oid=i(c.id);c.lid=i(c.id);n.ue=c;n.ue._t0=n.ue.t0;function f(u){if(!n.ue_fpf||!j.encodeURIComponent||!u){return}var s=new Image(),t=""+n.ue_fpf+j.encodeURIComponent(u)+":"+(+new Date()-n.ue_t0);n.ue.iel.push(s);s.src=t}n.ue.tagC=function(){var s={};return function(t){if(t){s[t]=1}var v=[];for(var u in s){if(s.hasOwnProperty(u)){v.push(u)}}return v}};n.ue.tag=n.ue.tagC();n.ue.ifr=((j.top!==j.self)||(j.frameElement))?1:0;function l(u,x,z,w){var y=w||(+new Date()),v,s;if(x||d(z)){if(u){v=x?m("t",x)||m("t",x,{}):n.ue.t;v[u]=y;for(s in z){if(z.hasOwnProperty(s)){m(s,x,z[s])}}}return y}}function m(u,v,w){var t=n.ue,s=(v&&v!=t.id)?t.sc[v]:t;if(!s){s=(t.sc[v]={})}if(u=="id"&&w){t.cfa2=1;if(n.ue_ran&&n.ue_cel){n.ue_cel.reset(w)}}return(s[u]=(w||s[u]))}function r(w,x,v,t,s){var u="on"+v,y=x[u];if(a(y)){if(w){n.ue.h[w]=y}}else{y=function(){}}x[u]=s?function(z){t(z);y(z)}:function(z){y(z);t(z)};x[u].isUeh=1}function k(C,w,B){function u(ad,ab){var Z=[ad],U=0,aa={},S,T;if(ab){Z.push("m=1");aa[ab]=1}else{aa=n.ue.sc}for(T in aa){if(aa.hasOwnProperty(T)){var V=m("wb",T),Y=m("t",T)||{},X=m("t0",T)||n.ue.t0,ac,W;if(ab||V==2){ac=V?U++:"";Z.push("sc"+ac+"="+T);for(W in Y){if(W.length<=3&&Y[W]){Z.push(W+ac+"="+(Y[W]-X))}}Z.push("t"+ac+"="+Y[C]);if(m("ctb",T)||m("wb",T)){S=1}}}}if(!x&&S){Z.push("ctb=1")}return Z.join("&")}function N(S,T){if(n.ue.b){var U=n.ue.b;n.ue.b="";G(U,S,T,1)}}function G(S,V,Y,U){if(!S){return}var W=new Image(),aa=!U||!n.ue.log||!(j.amznJQ||j.P)||(j.amznJQ&&j.amznJQ.Ok),T=n.ue_err,X,Z;if(n.ue_osfp!=1&&aa){n.ue.iel.push(W);W.src=S}if(n.ue_osfp!=3){if(p){f(S)}else{if(n.ue.log){X=j.chrome&&(V=="ul");Z=(!U&&X)?1:0;n.ue.log(S,"uedata",n.ue_svi?{n:1,img:Z}:{n:1});n.ue.ielf.push(S)}}}if(T&&!T.ts){T.startTimer()}N(V,Y)}function Q(T){if(!ue.collected){var V=T.timing,U=T.navigation,S=ue.t;if(V){S.na_=V.navigationStart;S.ul_=V.unloadEventStart;S._ul=V.unloadEventEnd;S.rd_=V.redirectStart;S._rd=V.redirectEnd;S.fe_=V.fetchStart;S.lk_=V.domainLookupStart;S._lk=V.domainLookupEnd;S.co_=V.connectStart;S._co=V.connectEnd;S.sc_=V.secureConnectionStart;S.rq_=V.requestStart;S.rs_=V.responseStart;S._rs=V.responseEnd;S.dl_=V.domLoading;S.di_=V.domInteractive;S.de_=V.domContentLoadedEventStart;S._de=V.domContentLoadedEventEnd;S._dc=V.domComplete;S.ld_=V.loadEventStart;S._ld=V.loadEventEnd;if(n.ue_fixnt){S.ntd=g(T,S.na_)+n.ue.t0}}if(U){S.ty=U.type+n.ue.t0;S.rc=U.redirectCount+n.ue.t0}ue.collected=1}}if(!w&&!d(B)){return}for(var s in B){if(B.hasOwnProperty(s)){m(s,w,B[s])}}l("pc",w,B);var I=m("id",w)||n.ue.id,y=n.ue.url+"?"+C+"&v="+n.ue.v+"&id="+I,x=m("ctb",w)||m("wb",w),M=j.performance||j.webkitPerformance,J=n.ue.bfini,A=(M&&M.navigation?M.navigation.type:e),z=(A==2),E=(A&&(A!=2)),t,P;if(x){y+="&ctb="+x}if(n.ueinit>1){y+="&ic="+n.ueinit}if(!n.ue.cfa2){if(J&&J>1){y+="&bfform=1";if(!E){n.ue.isBFT=(J-1)}}if(z){y+="&bfnt=1";n.ue.isBFT=n.ue.isBFT||1}if(n.ue_ssbf&&n.ue.ssw&&n.ue.isBFT){if(d(n.ue.isNRBF)){var L=n.ue.ssw(n.ue.oid);if(!L.e&&!d(L.val)){n.ue.isNRBF=(L.val>1)?0:1}}if(!d(n.ue.isNRBF)){y+="&nrbf="+n.ue.isNRBF}}else{n.ue_ssbf=0}if(n.ue.isBFT&&!n.ue.isNRBF){y+="&bft="+n.ue.isBFT}}if(n.ue._fi&&C=="at"&&(!w||w==I)){y+=n.ue._fi()}if((C=="ld"||C=="ul")&&(!w||w==I)){if(C=="ld"){if(j.onbeforeunload&&j.onbeforeunload.isUeh){j.onbeforeunload=null}if(j.chrome){for(P=0;P<ue.ulh.length;P++){o("beforeunload",ue.ulh[P])}}var O=document.ue_backdetect;if(O&&O.ue_back){O.ue_back.value++}if(n._uess){t=n._uess()}n.ue.isl=1}if(n.ue_navtiming&&M&&M.timing){m("ctb",I,"1");if(n.ue_navtiming==1){l("tc",e,e,M.timing.navigationStart)}}if(M){Q(M)}n.ue.t.hob=n.ue_hob;n.ue.t.hoe=n.ue_hoe;if(n.ue.ifr){y+="&ifr=1"}}l(C,w,B);var H=(C=="ld"&&w&&m("wb",w)),K=1,F,v,R;if(H){m("wb",w,2)}else{if(C=="ld"){c.lid=i(I)}}for(F in n.ue.sc){if(m("wb",F)==1){K=0;break}}if(H){if(!n.ue.s){y=u(y,null)}else{return}}else{R=u(y,null);if(R!=y){n.ue.b=R}if(t){y+=t}y=u(y,w||n.ue.id)}if(n.ue.b||H){for(F in n.ue.sc){if(m("wb",F)==2){delete n.ue.sc[F]}}}var D=0;if(ue._rt){y+="&rt="+ue._rt()}if(!H){n.ue.s=0;v=n.ue_err;if(v&&v.ec>0&&(v.pec<v.ec)){v.pec=v.ec;y+="&ec="+v.ec+"&ecf="+v.ecf}D=m("ctb",w);m("t",w,{})}if(y&&n.ue.tag&&n.ue.tag().length>0){y+="&csmtags="+n.ue.tag().join("|");n.ue.tag=n.ue.tagC()}if(y&&n.ue.viz&&n.ue.viz.length>0){y+="&viz="+n.ue.viz.join("|");n.ue.viz=[]}if(y&&!d(n.ue_pty)){y+="&pty="+n.ue_pty+"&spty="+n.ue_spty+"&pti="+n.ue_pti}if(y&&n.ue.tabid){y+="&tid="+n.ue.tabid}if(y&&n.ue.aftb){y+="&aftb=1"}if(n.ue._ui&&(!w||w==I)){y+=n.ue._ui()}n.ue.a=y;G(y,C,D,H)}function h(s,t,u){u=u||j;if(u.addEventListener){u.addEventListener(s,t,false)}else{if(u.attachEvent){u.attachEvent("on"+s,t)}}}ue.attach=h;function o(s,t,u){u=u||j;if(u.removeEventListener){u.removeEventListener(s,t,false)}else{if(u.detachEvent){u.detachEvent("on"+s,t)}}}ue.detach=o;function q(){var v=n.ue.r,s,w;function t(){n.onUl()}function u(x){return function(){if(!v[x]){v[x]=1;k(x)}}}n.onLd=u("ld");n.onLdEnd=u("ld");n.onUl=u("ul");s={stop:u("os")};if(!j.chrome){s[b]=n.onUl}else{h("beforeunload",t);ue.ulh.push(t)}for(w in s){if(s.hasOwnProperty(w)){r(0,j,w,s[w])}}if(n.ue_viz){ue_viz()}h("load",n.onLd);l("ue")}ue.reset=function(t,s){if(t){if(n.ue_cel){n.ue_cel.reset()}n.ue.t0=+new Date();n.ue.rid=t;n.ue.id=t;n.ue.fc_idx={};n.ue.viz=[]}};n.uei=q;n.ueh=r;n.ues=m;n.uet=l;n.uex=k;q()})(ue_csm,window);ue_csm.ue_hoe=+new Date();


</script>
<script type='text/javascript'>
ue_csm.ue_hob=ue_csm.ue_hob||+new Date();(function(a){a.ue.cv={};a.ue.cv.scopes={};a.ue.count=function(d,b,c){var f={},e=a.ue.cv;f.counter=d;f.value=b;f.t=a.ue.d();if(c&&c.scope){e=a.ue.cv.scopes[c.scope]=a.ue.cv.scopes[c.scope]||{};f.scope=c.scope}if(b===undefined){return e[d]}e[d]=b;if(a.ue.log){a.ue.log(f,"csmcount",{c:1})}}})(ue_csm);ue_csm.ue_hoe=+new Date();
</script>

























<link href='http://z-ecx.images-amazon.com/images/G/01/nav2/gamma/websiteGlobalCSS/websiteGlobalCSS-websiteGlobal-10346._V1_.css' type='text/css' rel='stylesheet'>
<style type="text/css"><!--

.sans, .small, .h1, .h3color, .big, .tiny, .tinyprice, .highlight, .eyebrow,
    a:active, a:visited, a:link, div.unified_widget p.seeMore,
    div.unified_widget .carat, div.left_nav .carat, div.left_nav, div.left_nav
    h2, div.left_nav h3, div.left_nav a:link, div.left_nav a:visited,
    .popover-tiny, .horizontal-search, .horizontal-websearch, .topnav,
    .topnav-active a:link, .tabon a, .tabon a:visited, .taboff a, .taboff
    a:visited div.leftnav_popover h2, .signInMsg{
  font-family: verdana,arial,helvetica,sans-serif;
}
.listprice {
  font-family: arial,verdana,helvetica,sans-serif;
}
.price {
  font-family: arial,verdana,helvetica,sans-serif;
}
.serif, .sans, .h1, div.unified_widget .headline{
  font-size: medium;
}
.big {
  font-size: xx-large;
}
.small, .h3color, .highlight, .horizontal-search {
  font-size: small;
}
.signInMsg {
  font-size: x-small;
}
.tiny, .tinyprice, .popover-tiny, .horizontal-websearch {
  font-size: x-small;
}
body, td, th {
  font-family: verdana,arial,helvetica,sans-serif;
  font-size: small;
}
.eyebrowBackGroundColor {
  background-color: ;
}
div.left_nav, div.left_nav a:link, div.left_nav a:visited {
  font-family: Arial, sans-serif;
}

body {
  color: #000000;
  margin-top: 0px;
}
--></style> 




<style type="text/css"><!--

.crAuthorInfo {
  font-family:               verdana;
  font-size:                 0.86em;
  margin-left:               80px;
}

.crAuthorInfoCredibility {
  font-family:               verdana;
  font-size:                 0.86em;
}

.crBlue-bevel {
  background:                url(http://g-ecx.images-amazon.com/images/G/01/x-locale/communities/reviews/sliced-box-tbevel._V192249888_.gif) repeat-x top;
  height:                    1.45em;
}

.crBlueBorder-tl {
  background:                url(http://g-ecx.images-amazon.com/images/G/01/x-locale/communities/reviews/border-box-tl._V192249923_.gif) no-repeat top left;
  width:                     1em;
}
                                                                                                                                                             
.crBlueBorder-tc {
  background:                url(http://g-ecx.images-amazon.com/images/G/01/x-locale/communities/reviews/border-box-tc._V192249922_.gif) repeat-x top;
}
                                                                                                                                                             
.crBlueBorder-tr {
  background:                url(http://g-ecx.images-amazon.com/images/G/01/x-locale/communities/reviews/border-box-tr._V192249949_.gif) no-repeat top right;
  width:                     1em;
}
                                                                                                                                                             
.crBlueBorder-bl {
  background:                url(http://g-ecx.images-amazon.com/images/G/01/x-locale/communities/reviews/border-box-bl._V192249926_.gif) no-repeat bottom left;
}
                                                                                                                                                             
.crBlueBorder-bc {
  background:                url(http://g-ecx.images-amazon.com/images/G/01/x-locale/communities/reviews/border-box-bc._V192249923_.gif) repeat-x bottom;
}
                                                                                                                                                             
.crBlueBorder-br {
  background:                url(http://g-ecx.images-amazon.com/images/G/01/x-locale/communities/reviews/border-box-br._V192249923_.gif) no-repeat bottom right;
}

.crBox {
  background:                #DFEDF7;
  padding:                   0.2em 1.5em 0.2em 1.5em;
}

.crBox-tl {
  background:                #DFEDF7 url(http://g-ecx.images-amazon.com/images/G/01/x-locale/communities/reviews/box-tl._V192249949_.gif) no-repeat top left;
}

.crBox-tc {
  background:                url(http://g-ecx.images-amazon.com/images/G/01/x-locale/communities/reviews/box-tc._V192249950_.gif) repeat-x top;
}

.crBox-tr {
  background:                url(http://g-ecx.images-amazon.com/images/G/01/x-locale/communities/reviews/box-tr._V192249948_.gif) no-repeat top right;
}

.crBox-bl {
  background:                #DFEDF7 url(http://g-ecx.images-amazon.com/images/G/01/x-locale/communities/reviews/box-bl._V192249921_.gif) no-repeat bottom left;
}

.crBox-bc {
  background:                url(http://g-ecx.images-amazon.com/images/G/01/x-locale/communities/reviews/box-bc._V192249923_.gif) repeat-x bottom;
}

.crBox-br {
  background:                url(http://g-ecx.images-amazon.com/images/G/01/x-locale/communities/reviews/box-br._V192249949_.gif) no-repeat bottom right;
}

.crColumnEndMarker {
  clear:                     both;
  height:                    13px;
  background-image:          url(http://g-ecx.images-amazon.com/images/G/01/x-locale/communities/people/column-bottom-edge._V192250335_.gif);
  background-repeat:         no-repeat;
}

.crColumnEndMarker .rightEdge {
  float:                     right;
  background-image:          url(http://g-ecx.images-amazon.com/images/G/01/x-locale/communities/people/column-bottom-edge-right._V192250334_.gif);
  background-position:       right top;
  background-repeat:         no-repeat;
  width:                     13px;
  height:                    13px;
}


.crCdDotsBottom {
  clear:                     both;
  padding:                   1px;;
  font-size:                 0.0625em;
  margin:                    0 0 5px 0;
  background-image:          url(http://g-ecx.images-amazon.com/images/G/01/x-locale/communities/people/dotborder._V192250320_.gif);
  background-repeat:         repeat-x;
  background-position:       center;
}

.crDescription {
  font-family:               verdana;
  margin-left:               80px;
}


.crErrorMsg {
  color:                     red;
  font-weight:               bold;
}

.crFanlink {
  text-decoration: 	     none; 
  border-top-width:          0; 
  border-right-width:        0; 
  border-bottom-width:       1px;
  border-left-width:         0;
  border-top-color:          #146EB4;
  border-right-color:        #146EB4;
  border-bottom-color:       #146EB4;
  border-left-color:         #146EB4;
  border-top-style:          none;
  border-right-style:        none;
  border-bottom-style:       dashed;
  border-left-style:         none;
  color:                     #003399; 
}

.crFinePrint {
  font-size:                 0.7em;
  margin-top:                0.7em;
}

.crForm {
  width:                     100%;
  display:                   block;
}

.crHeaderText {
  color:                     #CC6600;
  padding-left:              0;
  padding-bottom:            5px;
  font-family:               helvetica,
  font-size:                 13px;
  font-weight:               bold;
  float:                     top;
  float:                     left;
}

h2.crHeading {
  color:                     #E47911;
  font-family:               Verdana,Helvetica,sans-serif;
  font-size:                 130%;
  margin:                    0 0 3px;
  padding-left:              0px;
}

h3.crHeading {
  color:                     #E47911;
  font-family:               Verdana,Helvetica,sans-serif;
  font-size:                 100%;
  margin:                    0 0 10px;
}

.crHeading {
  color:                     #c60;
  font-family:               sans-serif;
  font-size:                 1.5em;
  font-weight:               bold;
  padding-bottom:            0.5em;
  padding-left:              0.5em;
}

.crInnerBox {
  padding:                   0.6em 2em 0.6em 2em;
  background:                #EFF5F9;
  clear:                     both;
}

.crInnerBox-tl {
  background:                #EFF5F9 url(http://g-ecx.images-amazon.com/images/G/01/x-locale/communities/reviews/innerbox-tl._V192249896_.gif) no-repeat top left;
  clear: both;
}

.crInnerBox-tr {
  background:                #EFF5F9 url(http://g-ecx.images-amazon.com/images/G/01/x-locale/communities/reviews/innerbox-tr._V192249895_.gif) no-repeat top right;
  clear: both;
}

.crInnerBox-bl {
  background:                #EFF5F9 url(http://g-ecx.images-amazon.com/images/G/01/x-locale/communities/reviews/innerbox-bl._V192249902_.gif) no-repeat bottom left;
}

.crInnerBox-br {
  background:                url(http://g-ecx.images-amazon.com/images/G/01/x-locale/communities/reviews/innerbox-br._V192249902_.gif) no-repeat bottom right;
}

.crInputTitle {
  font-weight:               bold;
  vertical-align:            middle; 
}

.crInputFinePrint {
  color:                     #6E6E6E; 
  font-size:                 0.7em;
  padding-bottom:            1.5em; 
}

.crInput {
  padding:                   0em 0em 1.5em 0em;
  vertical-align:            middle;
}

.crInputFormField {
  font-family:               arial, helvetica, sans-serif;
}

.crInstruction {
  padding-bottom:            0.4em;
  float:                     left;
}

.crProductLinks {
  padding-bottom:            0.4em;
  float:                     right;
  vertical-align:            top;  
}

.crLargerTitle {
  font-family:               verdana, arial, helvetica, sans-serif;
  font-size:                 1.6em;
  color:                     #c60;
  padding-bottom:            5px;
  padding-top:               10px;
}

.crLine {
  clear:                     both;
  border:                    0;
  height:                    2px;
  color:                     #CADFE9;
  background-color:          #CADFE9;
  noshade:                   noshade;
}

.crPrevLeftButton {
  padding-left:              15px; 
  margin-bottom:             0px;
}

.crPrevRightButton {
  margin-bottom:             0px;
}

.crPicture {
  clear:                     both;
  float:                     left;
  text-align:                center;
  width:                     80px;
  overflow:                  hidden;
  padding-top:               0.2em;
}

.crReviewHeader  {
  font-family:               Verdana, Arial, Helvetica, sans-serif;
  font-size:                 1.5em;
  font-weight:               bold;
  color:                     #e47911;
  margin-top:                5px;
}

.crReviewSumBox {
  height:                    36px;
  background-image:          url(http://g-ecx.images-amazon.com/images/G/01/x-locale/communities/people/column-eyebrow-visitor._V192250334_.gif);
  background-repeat:         no-repeat;
  font-family:               verdana;
  font-size:                 36px;
}

.crReviewSumBox .titleText {
  float:                     left;
  font-weight:               bold;
  padding-left:              10px;
  padding-top:               10px;
  font-size:                 13px;
  font-family:               verdana;
  color:                     #000000;
  white-space:               nowrap;
}

.crReviewSumBox .rightEdge {
  background-image:          url(http://g-ecx.images-amazon.com/images/G/01/x-locale/communities/people/column-eyebrow-visitor-right._V192250335_.gif);
  width:                     12px;
  height:                    36px;
  background-repeat:         no-repeat;
  padding:                   0;
  float:                     right;
}

.crSectionTitle {
  color:                     #E57310;
  font-size:                 16px;
  font-weight:               bold;
  margin-top:                5px;
  margin-bottom:             5px;
}

.crProductReviewsSummary .crSolicitation {
  margin-top:               -20px;
}

.crSideHeading {
  color:                     #c60;
  font-weight:               bold;
  text-align:                center;
  padding-top:               0.4em;
}

.crStepNum {
  vertical-align:            top;
  padding:                   0em 0.6em 1.5em 0em;
}


.crTanBorder-tl {
  background:                url(http://g-ecx.images-amazon.com/images/G/01/x-locale/communities/boxes/boxfill/innerbox-tl._V192251350_.gif) no-repeat top left;
  width:                     1em;
}
                                                                                                                                                             
.crTanBorder-tc {
  background:                url(http://g-ecx.images-amazon.com/images/G/01/x-locale/communities/boxes/boxfill/innerbox-tc._V192251344_.gif) repeat-x top;
}
                                                                                                                                                             
.crTanBorder-tr {
  background:                url(http://g-ecx.images-amazon.com/images/G/01/x-locale/communities/boxes/boxfill/innerbox-tr._V192244553_.gif) no-repeat top right;
  width:                     1em;
}
                                                                                                                                                             
.crTanBorder-bl {
  background:                url(http://g-ecx.images-amazon.com/images/G/01/x-locale/communities/boxes/boxfill/innerbox-bl._V192251348_.gif) no-repeat bottom left;
}
                                                                                                                                                             
.crTanBorder-bc {
  background:                url(http://g-ecx.images-amazon.com/images/G/01/x-locale/communities/boxes/boxfill/innerbox-bc._V192241903_.gif) repeat-x bottom;
}
                                                                                                                                                             
.crTanBorder-br {
  background:                url(http://g-ecx.images-amazon.com/images/G/01/x-locale/communities/boxes/boxfill/innerbox-br._V192241895_.gif) no-repeat bottom right;
}

.crTextAreaHeader {
  background:                #B6CFE5;
  padding:                   0.4em 0em 0.4em 0em;
  width:                     620px;
}

.crTextTab {
  width:                     30%;
  float:                     left;
  white-space:               nowrap;
}

.crTextTabHeading {
  padding:                   0.3em 0 0.7em 0.6em;
}

.crThreadHeader {
  color:                     #CC6600;
  font-weight:               bold;
  float:                     left;
}

.crTipsBoxHeader {
  font-size:                 0.90em;
  font-weight:               bold;
  margin-bottom:             10px;
  margin-top:                10px;
}

.crTipsBoxTitle {
  color:                     #CC6600;
  font-size:                 1.1em;
  font-weight:               bold;
  margin-bottom:             10px;
}

h1.crTitle {
  color:                     #E47911;
  font-family:               Arial, Helvetica, sans-serif;
  font-size:                 218%;
  letter-spacing:            -0.03em;
  margin:                    0;
  padding:                   0;
}

.crTitle {
  font-family:               verdana, arial, helvetica, sans-serif;
  font-size:                 1.4em;
  font-weight:               bold;
}

.crTab-tl {
  background:                #EFF5F9 url(http://g-ecx.images-amazon.com/images/G/01/x-locale/communities/reviews/innerbox-tl._V192249896_.gif) no-repeat top left;
}

.crTab-tr {
  background:                url(http://g-ecx.images-amazon.com/images/G/01/x-locale/communities/reviews/innerbox-tr._V192249895_.gif) no-repeat top right;
}

.crVideoUpload {
  background:                #FFFFFF;
  border:                    0.1em solid #7F9DB9;
  text-align:                center;
  padding:                   0.4em;
}

.crVidTab {
  width:                     70%;
  float:                     left;
  white-space:               nowrap;
}

.crVidTabHeading {
  padding:                   0.3em 0 0.7em 0.6em;
}

table.crDataGrid th {
  background-color:          #EEEEEE;
  font-weight:               normal;
  font-size:                 70%;
  text-align:                left;
  color:                     #666666;
}

table.crDataGrid td {
  border-bottom:            1px solid #CCCCCC;
}

table.crDataGrid .img {
  height:                   92px;
}

table.crDataGrid .crNum {
  text-align:               right;
}

table.crDataGrid .crNumPercentHelpful {
  text-align:               right;
  padding-right:20px;
}

table.crDataGrid .crNumFanVoters {
  text-align:               right;
  border-left: solid 1px #cccccc;
}

ul.crBigBullet {
  margin:                    0em;
  padding:                   0em;
  list-style-image:          url(http://g-ecx.images-amazon.com/images/G/01/x-locale/communities/reviews/big-bullet._V192249925_.gif);
}

ul.crSmallBullet {

  padding-left:              0;
  margin:                    0.4em 0em 0.6em 1.5em;
  list-style-image:          url(http://g-ecx.images-amazon.com/images/G/01/x-locale/communities/reviews/small-bullet._V192249889_.gif);
}


.srCreateReview td.name {
  padding-left: 9px;
}

.srCreateReview .srPopoverList table.srList td a {
  margin-left: 0px;
}

.srCreateReview .srPopoverList table.srList td.name span.newAttribute {
  margin-left: 0px;
  color:       #000000;
}

.srCreateReview .srPopoverFooter {
  padding-left: 9px;
  padding-top:  9px;
}

.srCreateReview .srPopoverContentSection .heading {
  font-weight: normal;
}

#structuredRatingsList .cBox {
  width: 375px;
}

.structuredRatingsVisibilityLink {
  line-height: 2.5em;
  font-size: 0.86em;
}

.structuredRatingsVisibilityLinkText {
  margin-left: 5px;
}

#structuredRatingsListHelp {
  font-size: 0.86em;
  font-weight: normal;
}

#structuredRatingsList .srpopover .scrollSection {
  height: 210px;
}

.crVerifiedNew {
  font-size: 0.86em;
  font-weight: bold;
  color: #009900;
  margin-right: 0.5em;
} 

.crVerifyLearnMore {
  margin-left: 0.5em;
}

.crVerifiedPurchaseInputs {
  display: block;
  margin-bottom: 1em;
}

.crVerifiedBackfillSuboption {
  display: block;
  margin-left: 2em;
}

div.crCommentThread .cmPage {
  margin-left: 5px;
}

div#cdNonReplyPostBoxButton {
  margin-bottom: 40px;
}

#rdpItemInfo .crAvgStars {
  font-size: 10px;
}

.crIneligibleHeader {
  padding: 15px 9px 0 6px;
  color:                     #E47911;
  font-weight: 	             bold;
  font-size:                 218%;
  margin:                    0;
}

.crIneligibleMessage {
  font-size: 12px;
  border: solid 1px #0071B5;
  position: relative;
  background-color: #ffffdd;
  border-color: #E47911;
  padding: 18px 50px 18px 20px;
  margin: 10px 0 40px 10px;
}
.crIneligibleMessageImage {
  position: absolute;
}
.crIneligibleMessageHeader {
  font-size: 18px;
  font-weight: bold;
  margin: 0 0 4px 45px;
  padding: 0;
}
.crIneligibleMessageText {
  font-size:13px;
  margin: 0 0 6px 45px;
  width: 100%;
}


.crIFrame {
  margin: 10px;
}

.crIFrameLogo {
  margin-bottom: 20px;
}

.crIFrameHeaderLeftColumn {
  float: left;
  margin-right: 20px;
}

.crIFrameHeaderTitle {
  font-size:      24px;
  letter-spacing: -1px;
}

.crIFrameHeaderHistogram {
  float: left;
}

.crIFrameError {
  border-top:    1px solid #D1E6F7;
  border-bottom: 1px solid #D1E6F7;

  text-align:          center;
  line-height:         24px;
  width:               360px;
  padding:             20px;
  margin-top:          20px;
}

.crIFrameErrorText {
  font-size:  14px;
  font-weight: bold;
}

.crIFrameCreateReview {
  margin-bottom:   3px;
  white-space:     nowrap;
}

.crIFrameCreateReviewButton {
  vertical-align:  middle;
}

.crIFrameAverageReviewText {
  align: left;
  font-weight: bold;
}

.crIFrameNumCustReviews {
   white-space: nowrap;
}

.crIFrameReviewList {
  width: 100%;
  clear: left;
}


.CMheadingBar {
  background:url(http://g-ecx.images-amazon.com/images/G/01/nav2/images/gui/tile-blue-bg._V46870869_.gif) repeat-x;
  border-top:1px solid #BADAE8;
  border-bottom:1px solid #BADAE8;
  padding:6px;
}

.CMpaginate {
  color:#666;
}

.CMpaginate .on {
  border:1px solid #CC6600;
  padding:3px;
  background-color:white;
  color:#CC6600;
  text-decoration:none;
}

.CMpaginate a:link,
.CMpaginate a:visited {
  padding:4px;
  text-decoration:none;
}

.CMpaginate a:hover {
  padding:3px;
  background-color:white;
  border:1px solid #CC6600;
  color:#CC6600;
}

a.areaLink, a.areaLink:visited {
  text-decoration: none;
  color: black;
  display: block;
}

.areaLink .innerLink {
  white-space: nowrap;
  text-decoration: underline;
  color: #039;
}

div.crVS {
  width:       46%;
  text-align:  center;
  white-space: nowrap;
}

.crClear { clear: both; }
.crLeft { float: left; }
.crRight { float: right; }

.attr-sheet { padding-left:5px; }
.attr-sheet ul { margin-left: 31px; padding: 0; list-style: none; border: solid 1px #eee; border-radius: 5px; }
.attr-sheet ul li { padding: 5px; }
.attr-sheet li.alt { background: #F8F5D8 }
.attr-sheet li .label { font-weight: bold }
.attr-sheet li .vm { vertical-align: middle; }
.attr-sheet li .option-line { width: 100%; line-height: 1.75em; }
.attr-sheet li .option-line .label { float: left; width: 35%; max-width: 300px }
.attr-sheet li .option-line .option { float: left; width: 30%; max-width: 200px }
.attr-sheet li .option-undo { float: right; font-size: xx-small; display:none; }
.attr-sheet li .textbar-text { margin-top: 2px; clear: both; }
.attr-sheet li .textbar .empty { width: 35%; max-width: 300px; float:left; }
.attr-sheet li .textbar input { width: 50%; margin-left:5px; float:left; }
.attr-sheet li .textbar .blur { color: #999; }
.attr-preview .boldLabel { font-weight: bold }
.attr-preview .head { padding: 20px 0 0 25px }
.attr-preview .head-detail { padding-top: 5px }
.attr-preview .line { padding: 5px 0 15px 0 }
.attr-preview .lines { padding: 10px 0 0 25px }

.rypWgtDiv { margin-bottom: 20px; }

.rypWgtImgLink { 
    display: block;
    width: 300px;
    height: 97px;
    background: url('http://g-ecx.images-amazon.com/images/G/01/x-locale/communities/reviews/ryp-page-image2sprite._V399712482_.png') top;
    text-indent: -10000px;
}
.rypWgtImgLink:hover {
	background-position: bottom;
} 

--></style>

<META NAME="ROBOTS" CONTENT="NOINDEX, NOFOLLOW">

<script type="text/javascript">

var amznJQ,jQueryPatchIPadOffset=false;
(function() {
  function f(x) {return function(){x.push(arguments);}}
  function ch(y) {return String.fromCharCode(y);}
  var a=[],c=[],cs=[],d=[],l=[],o=[],s=[],p=[],t=[];
  amznJQ={
    _timesliceJS: false,
    _a:a,_c:c,_cs:cs,_d:d,_l:l,_o:o,_s:s,_pl:p,
    addLogical:f(l),
    addStyle:f(s),
    addPL:f(p),
    available:f(a),
    chars:{EOL:ch(10), SQUOTE:ch(39), DQUOTE:ch(34), BACKSLASH:ch(92), YEN:ch(165)},
    completedStage:f(cs),
    declareAvailable:f(d),
    onCompletion:f(c),
    onReady:f(o),
    strings:{}
  };
}());


</script>
<script type="text/javascript">
(function(f,c){var b=[];function d(g){b.push(g)}function a(h){if(!h){return}var g=f.head||f.getElementsByTagName("head")[0]||f.documentElement,i=f.createElement("script");i.async="async";i.src=h;g.insertBefore(i,g.firstChild)}function e(){ue.uels=a;for(var g=0;g<b.length;g++){a(b[g])}ue.deffered=1}if(c.ue){ue.uels=d;if(c.ue.attach){c.ue.attach("load",e)}}})(document,window);

    if (window.ue && window.ue.uels) {
    ue.uels("http://z-ecx.images-amazon.com/images/G/01/browser-scripts/csm-base-v2/csm-base-v2-min-858824421._V1_.js");
}
 else if (window.amznJQ) {
    amznJQ.addLogical('csm-base-v2', ["http://z-ecx.images-amazon.com/images/G/01/browser-scripts/csm-base-v2/csm-base-v2-min-858824421._V1_.js"]);
    amznJQ.available('csm-base-v2', function() {});
}


var ue_tbno = 0,
ue_tble = 0,
ue_sstb = 0,
ue_ssle = 0,
ue_tbpv = 0;

(function(c,m){var b=("; expires="+new Date(+new Date()+604800000).toGMTString()),j,h=c.ue_sstb,p=c.ue_tbno,k=c.ue_tble,i=c.ue_tbpv,o=c.ue||{},e=i&&o.pageViz&&o.pageViz.event&&o.pageViz.propHid;function n(q){j=q;document.cookie="csm-hit="+q+("|"+(+new Date()))+b+"; path=/"}function l(){var r="",t=o.isBFT?"b":"s",u=""+o.oid,q=""+o.lid,s=u;if((u!=q)&&(q.length==20)){t+="a";s+=("-"+q)}if(h&&o.tabid){r=o.tabid+"+"}r+=(t+"-"+s);return r}function d(r){var q=l();if((p||(q!=j))&&(q.length<100)){n(q)}if(k){a(""+(r?r.type:"interaction")+" "+q)}}function g(){j=0;if(k){a("blur")}}function a(q){if(o.log){o.log(q,"csm")}}function f(q){if(m[o.pageViz.propHid]===false){g()}else{if(m[o.pageViz.propHid]===true){d({type:"visible"})}}}if(o.attach){o.attach("click",d);o.attach("keyup",d);if(!p){if(!e||(i==4)||(i==5)){o.attach("focus",d);o.attach("blur",g)}if(e){o.attach(o.pageViz.event,f)}if(e&&((i==3)||(i==5))){f({})}}}o.aftb=1})(ue_csm,document);
(function(c){var a="[CSM] Alert invocation detected with argument: ",e="WARN",b=c.alert;function d(){if(c.ueLogError){c.ueLogError({message:a+arguments[0],logLevel:e})}Function.prototype.apply.apply(b,[c,arguments||[]])}window.alert=d})(window);
(function(c,g,k){var n=c.ue,b=c.uex,h=0,j=0,l,m,e,f,a={click:1,mousemove:2,scroll:3,keydown:4};if(!n||!b){return}function p(r){if(j){return}j=a[r.type];if(typeof r.clientX==="undefined"){e=r.pageX;f=r.pageY}else{e=r.clientX;f=r.clientY}if(j==2&&(!l||(l==e&&m==f))){l=e;m=f;j=0;return}for(var q in a){if(a.hasOwnProperty(q)){n.detach(q,p,k)}}if(n.isl){g.setTimeout(function(){b("at",n.id)},0)}}function o(){var i="";if(!h&&j){h=1;i+="&ui="+j}return i}for(var d in a){if(a.hasOwnProperty(d)){n.attach(d,p,k)}}n._ui=o})(ue_csm,window,document);
(function(b,g){var h=20,i=50,f="length",j=b.ue,d="getEntriesByType";function a(m,l){return m.filter(function(n){return n.initiatorType==l})}function e(l,n){if(!j.t[l]){return}var u=j.t[l]-j._t0,m=n.filter(function(v){return v.responseEnd!==0&&(k(v)<u)}),q=a(m,"script"),o=a(m,"link"),s=a(m,"img"),t=m.map(function(w){var v=w.name.match(new RegExp("^(https|http)?://(.+?)/","i"));return v&&v[2]}).filter(function(x,w,v){return x&&v.lastIndexOf(x)==w}),p=m.filter(function(v){return v.duration<h}),r=((u-Math.max.apply(null,m.map(k)))<i)|0;if(l=="af"){j._afjs=q.length}return l+":"+[m[f],q[f],o[f],s[f],t[f],p[f],r].join("-")}function k(l){return l.responseEnd-(j._t0-g.timing.navigationStart)}function c(){var o=g[d]("resource"),n=e("cf",o),l=e("af",o),m=e("ld",o);delete j._rt;j._ld=j.t.ld-j._t0;if(j._art){j._art()}return[n,l,m].join("_")}j._rre=k;j._rt=g&&g.timing&&g[d]&&c})(ue_csm,window.performance);

</script>
</head>
<body><div style='display:none;visibility:hidden;'>
    <img src='//fls-na.amazon.com/1/batch/1/OP/ATVPDKIKX0DER:179-3648256-6922542:08T5BTK9CP4SDQ0F5MDX$uedata=s:%2Freviews%2Fiframe%2Fuedata%2Fnvp%2Funsticky%2F179-3648256-6922542%2FCustomerReviews%2Fntpoffrw%3Fstaticb%26id%3D08T5BTK9CP4SDQ0F5MDX%26pty%3DSellerAAG%26spty%3DMain%26pti%3DA06814542WRO2UY8O7CAZ:1000' />


</div>
<script type='text/javascript'>
(function(){window.amzn=window.amzn||{};amzn.copilot=amzn.copilot||{};var f=window,k=document;var d=k.head||k.getElementsByTagName("head")[0],m="cpidv",b=0,j="cpJQUnavailable",a="cpLoadResourceError";amzn.copilot.checkCoPilotSession=function(){if(k.cookie.match(m)){if(typeof jQuery!=="undefined"){i(jQuery)}else{if(f.P&&f.P.when){f.P.when("jQuery").execute(function(n){i(n)})}else{if(f.amznJQ&&f.amznJQ.available){f.amznJQ.available("jQuery",function(){i(jQuery)})}else{c()}}}}};var c=function(){if(!b){b=1;if(k.addEventListener){k.addEventListener("DOMContentLoaded",amzn.copilot.checkCoPilotSession,false)}else{if(k.attachEvent){k.attachEvent("onreadystatechange",function(){if(k.readyState==="complete"){amzn.copilot.checkCoPilotSession()}})}}}else{if(f.ue&&(typeof f.ue.count==="function")){f.ue.count(j,1)}}};var i=function(p){amzn.copilot.jQuery=p;var o=l("debugJS"),n=f.location.protocol==="https:"?1:0;if(amzn.copilot.jQuery.ajax){amzn.copilot.jQuery.ajax({url:"/gp/copilot/handlers/copilot_strings_resources.html",dataType:"json",data:{isDebug:o,isSecure:n},success:function(q){amzn.copilot.vip=q.serviceEndPoint;g(q)},error:function(){f.ue.count(a,1)}})}};var g=function(o){var s=amzn.copilot.jQuery;var n=function(){amzn.copilot.setup(s.extend({isContinuedSession:true},o))};var q=o.CSSUrls||[copilotCSSUrl];s.each(q,function(t,u){e(u)});var r=l("forceSynchronousJS");var p=o.JSUrls[0]||[copilotJSUrl];s.each(p,function(t,u){if(t===p.length-1){h(u,r,n)}else{h(u,r)}})},h=function(o,q,n){var p=k.createElement("script");p.type="text/javascript";p.src=o;p.async=q?false:true;if(n){p.onload=n}d.appendChild(p)},e=function(n){var o=k.createElement("link");o.type="text/css";o.rel="stylesheet";o.href=n;d.appendChild(o)};function l(q){var o=f.location.search.substring(1);var n=o.split("&");for(var p=0;p<n.length;p++){var r=n[p].split("=");if(r[0]===q){return r[1]}}}})();
amzn.copilot.checkCoPilotSession();
</script>

<div class="crIFrame">
  
  






  























  




















    








  


  

































  
  











<div class="crIFrameLogo">
  <a href="http://www.amazon.com/ref=cm_cr_if_logo/179-3648256-6922542?ie=UTF8&amp;linkCode=sp1&amp;tag=wat081-20" target="_top"><img src="http://g-ecx.images-amazon.com/images/G/01/x-locale/common/amazon-logo-tiny._V192256679_.gif" width="113" alt="Amazon.com" height="23" border="0" /></a>
</div>



      <div class="crIframeHeaderTitle">Customer Reviews</div>
      
































    






























<table class="crIFrameReviewList">
<tr>
  <td>
    




















    











    
    











    


































<!-- BOUNDARY -->
<a name="R3QQGWYDLWEBYL"></a><br />


<div style="margin-left:0.5em;">
    
      <div style="margin-bottom:0.5em;">
        1,130 of 1,175 people found the following review helpful
      </div>
      <div style="margin-bottom:0.5em;">
        <span style='margin-left: -5px;'><img src="http://g-ecx.images-amazon.com/images/G/01/x-locale/common/customer-reviews/stars-5-0._V192240867_.gif" width="64" alt="5.0 out of 5 stars" title="5.0 out of 5 stars" height="12" border="0" /> </span>
        <b>Awesome TV you will love it but set it up!</b>, <nobr>April 22, 2014</nobr>
      </div>
      <div style="margin-bottom:0.5em;">
        <div><div style="float:left;">By&nbsp;</div><div style="float:left;"><a href="http://www.amazon.com/gp/pdp/profile/A3TFJE04LTJDLI/ref=cm_cr_if_pdp/179-3648256-6922542?ie=UTF8&linkCode=sp1&tag=wat081-20" target="_top"><span style = "font-weight: bold;">FALCON</span></a> (Lakeland Fl)  - <a href="http://www.amazon.com/gp/cdp/member-reviews/A3TFJE04LTJDLI/ref=cm_cr_if_auth_rev/179-3648256-6922542?ie=UTF8&amp;linkCode=sp1&amp;sort_by=MostRecentReview&amp;tag=wat081-20" target="_top">See all my reviews</a></div></div><div style="clear:both;"></div>
      </div>
      <div class="tiny" style="margin-bottom:0.5em;">
        <b><span class="h3color tiny">This review is from: </span><a href="http://www.amazon.com/Samsung-UN65HU8550-65-Inch-Ultra-120Hz/dp/B00ID2HJJM/ref=cm_cr_if_orig_subj/179-3648256-6922542?ie=UTF8&linkCode=sp1&tag=wat081-20" target="_top">Samsung UN65HU8550 65-Inch 4K Ultra HD 120Hz 3D Smart LED TV (Electronics)</a></b>
      </div>

I am not affiliated with Samsung or CNET.<br />[Side Note:  I believe Samsung should provide free 2014 One connect boxes to F9000 owners because of the H265 codec, Google's superior VP9 codec, and HDMI 2.0 as a gesture of good faith toward early adopters.]<br /><br />This review will help you get the most out of your HU8550.  I won't waste your time listing all the specs.<br /><br />I am posting here because some people badmouthed and down rated the Samsung F9000 because they did not know how to use it.  I do not want the same thing to happen to this excellent TV.  I have last year's top-of-the-line F9000 4K model which is virtually the exact same TV as this, released only 5 months earlier.  Only the Smart Hub software and HDMI ports changed.<br /><br />I cannot believe how absolutely amazing the picture is.  It's colors explode, it's blacks are black, it's whites are white, flesh tones are real, and all of it is super sharp.  With newscasts or interviews, people look like they're...






<a href="http://www.amazon.com/Samsung-UN85HU8550-85-Inch-Ultra-120Hz/product-reviews/B00KSBBHQ2/ref=cm_cr_if/179-3648256-6922542?ie=UTF8&linkCode=sp1&showViewpoints=0&tag=wat081-20#R3QQGWYDLWEBYL" target="_top">Read more</a>
      <hr size="1" style="border-top: 1px dashed #ACACAC;"/><div style="padding-top: 10px; clear: both; width: 100%; display:none;">

  




        <div class="reviews-voting-stripe" style="float:left; padding-right:15px; border-right:1px solid #CCCCCC"><div style="padding-bottom:5px;"><b class="tiny" style="color:#666666;white-space:nowrap;">Help other customers find the most helpful reviews</b>&nbsp;</div><div style="width:300px;">









<a name="R3QQGWYDLWEBYL.2115.Helpful.Reviews" style="font-size:1px;"> </a><span
class="crVotingButtons"><nobr><span class="votingPrompt">Was this review helpful to you?&nbsp;</span><a rel="nofollow" class="votingButtonReviews yesButton" href="http://www.amazon.com/gp/voting/cast/Reviews/2115/R3QQGWYDLWEBYL/Helpful/1/ref=cm_cr_ifvoteyn/179-3648256-6922542?ie=UTF8&target=aHR0cDovL3d3dy5hbWF6b24uY29tL3Byb2R1Y3QtcmV2aWV3cy9CMDBLU0JCSFEyL3JlZj1jbV9jcl9pZnZvdGVyZHIvMTc5LTM2NDgyNTYtNjkyMjU0Mj9fZW5jb2Rpbmc9VVRGOCZha2lkPUFLSUFKMk5ZMkUzWU1MS0o2NFpRJmFsaW5rQ29kZT1zcDEmYXNpbj1CMDBLU0JCSFEyJmF0YWc9d2F0MDgxLTIwJmV4cD0yMDE1LTAxLTIxVDA4JTNBMDIlM0E1N1ombGlua0NvZGU9c3AxJnNpZz1zYmxjRzNIT1hKZHlIdTVlQ05NeFNRRzROT0NQYWE2bXZmTGkxNXJDRFBzJTNEJnN1bW1hcnk9MCZ0YWc9d2F0MDgxLTIwJnRydW5jYXRlPTAmdj0y&token=BE5979484F752D81ED3FB8FD8C59A5F2FD674C1D&voteAnchorName=R3QQGWYDLWEBYL.2115.Helpful.Reviews&voteSessionID=179-3648256-6922542"><img src="http://g-ecx.images-amazon.com/images/G/01/x-locale/communities/reviews/btn-yes-sec-md._V192249951_.gif" width="35" alt="Yes" style="vertical-align:middle;" height="18" border="0" /></a>
<a rel="nofollow" class="votingButtonReviews noButton" href="http://www.amazon.com/gp/voting/cast/Reviews/2115/R3QQGWYDLWEBYL/Helpful/-1/ref=cm_cr_ifvoteyn/179-3648256-6922542?ie=UTF8&target=aHR0cDovL3d3dy5hbWF6b24uY29tL3Byb2R1Y3QtcmV2aWV3cy9CMDBLU0JCSFEyL3JlZj1jbV9jcl9pZnZvdGVyZHIvMTc5LTM2NDgyNTYtNjkyMjU0Mj9fZW5jb2Rpbmc9VVRGOCZha2lkPUFLSUFKMk5ZMkUzWU1MS0o2NFpRJmFsaW5rQ29kZT1zcDEmYXNpbj1CMDBLU0JCSFEyJmF0YWc9d2F0MDgxLTIwJmV4cD0yMDE1LTAxLTIxVDA4JTNBMDIlM0E1N1ombGlua0NvZGU9c3AxJnNpZz1zYmxjRzNIT1hKZHlIdTVlQ05NeFNRRzROT0NQYWE2bXZmTGkxNXJDRFBzJTNEJnN1bW1hcnk9MCZ0YWc9d2F0MDgxLTIwJnRydW5jYXRlPTAmdj0y&token=B0B678AD9FAAA8C8046578662FA84D1C4C701EF0&voteAnchorName=R3QQGWYDLWEBYL.2115.Helpful.Reviews&voteSessionID=179-3648256-6922542"><img src="http://g-ecx.images-amazon.com/images/G/01/x-locale/communities/reviews/btn-no-sec-md._V192249949_.gif" width="35" alt="No" style="vertical-align:middle;" height="18" border="0" /></a></nobr> <span class="votingMessage"></span></span>

</div></div><div style="float:left;"><div style="padding-left:15px;"><div style="white-space:nowrap;"><span class='tiny'>








<a name="R3QQGWYDLWEBYL.2115.Inappropriate.Reviews" style="font-size:1px;"> </a><span class="reportingButton"><nobr><a rel="nofollow" class="reportingButton" href="http://www.amazon.com/gp/voting/cast/Reviews/2115/R3QQGWYDLWEBYL/Inappropriate/1/ref=cm_cr_ifvoteyn/179-3648256-6922542?ie=UTF8&target=aHR0cDovL3d3dy5hbWF6b24uY29tL3Byb2R1Y3QtcmV2aWV3cy9CMDBLU0JCSFEyL3JlZj1jbV9jcl9pZnZvdGVyZHIvMTc5LTM2NDgyNTYtNjkyMjU0Mj9fZW5jb2Rpbmc9VVRGOCZha2lkPUFLSUFKMk5ZMkUzWU1MS0o2NFpRJmFsaW5rQ29kZT1zcDEmYXNpbj1CMDBLU0JCSFEyJmF0YWc9d2F0MDgxLTIwJmV4cD0yMDE1LTAxLTIxVDA4JTNBMDIlM0E1N1ombGlua0NvZGU9c3AxJnNpZz1zYmxjRzNIT1hKZHlIdTVlQ05NeFNRRzROT0NQYWE2bXZmTGkxNXJDRFBzJTNEJnN1bW1hcnk9MCZ0YWc9d2F0MDgxLTIwJnRydW5jYXRlPTAmdj0y&token=2ABAFFF421DB4189DE066C153DEA5E42E29747A7&voteAnchorName=R3QQGWYDLWEBYL.2115.Inappropriate.Reviews&voteSessionID=179-3648256-6922542"
>Report abuse</a></nobr></span>
</span> <span style="color:#CCCCCC;">|</span> <span class="tiny"><a href="http://www.amazon.com/review/R3QQGWYDLWEBYL/ref=cm_cr_if_perm/?ie=UTF8&ASIN=B00ID2HJJM&linkCode=sp1&tag=wat081-20" target="_top">Permalink</a></span></div><div style="white-space:nowrap;padding-left:-5px;padding-top:5px;"><a href="http://www.amazon.com/review/R3QQGWYDLWEBYL/ref=cm_cr_if_cmt/179-3648256-6922542?ie=UTF8&ASIN=B00ID2HJJM&linkCode=sp1&tag=wat081-20#wasThisHelpful" target="_top"><img src="http://g-ecx.images-amazon.com/images/G/01/x-locale/communities/discussion_boards/comment-sm._V192250344_.gif" width="16" alt="Comment" hspace="3" align="absmiddle" height="16" border="0" /></a>&nbsp;<a href="http://www.amazon.com/review/R3QQGWYDLWEBYL/ref=cm_cr_if_cmt/179-3648256-6922542?ie=UTF8&ASIN=B00ID2HJJM&linkCode=sp1&tag=wat081-20#wasThisHelpful" target="_top">Comments (218)</a></div></div></div><div style="clear:both;"></div>
      </div>
      <br />

</div>

  














































































<!-- BOUNDARY -->
<a name="R2ZWUMDI69ELO0"></a><br />


<div style="margin-left:0.5em;">
    
      <div style="margin-bottom:0.5em;">
        425 of 457 people found the following review helpful
      </div>
      <div style="margin-bottom:0.5em;">
        <span style='margin-left: -5px;'><img src="http://g-ecx.images-amazon.com/images/G/01/x-locale/common/customer-reviews/stars-4-0._V192240704_.gif" width="64" alt="4.0 out of 5 stars" title="4.0 out of 5 stars" height="12" border="0" /> </span>
        <b>Samsung Second Generation 4k UHD - Very Impressive</b>, <nobr>April 17, 2014</nobr>
      </div>
      <div style="margin-bottom:0.5em;">
        <div><div style="float:left;">By&nbsp;</div><div style="float:left;"><a href="http://www.amazon.com/gp/pdp/profile/A1JZFGZEZVWQPY/ref=cm_cr_if_pdp/179-3648256-6922542?ie=UTF8&linkCode=sp1&tag=wat081-20" target="_top"><span style = "font-weight: bold;">Professor  H "1amazonreviewer @ gmail . com"</span></a> (USA)  - <a href="http://www.amazon.com/gp/cdp/member-reviews/A1JZFGZEZVWQPY/ref=cm_cr_if_auth_rev/179-3648256-6922542?ie=UTF8&amp;linkCode=sp1&amp;sort_by=MostRecentReview&amp;tag=wat081-20" target="_top">See all my reviews</a><br />
<a href="http://www.amazon.com/gp/help/customer/display.html/ref=cm_rn_bdg_help/179-3648256-6922542?ie=UTF8&nodeId=14279681&pop-up=1#VN" target="AmazonHelp" onclick="return amz_js_PopWin(this.href,'AmazonHelp','width=340,height=340,resizable=1,scrollbars=1,toolbar=1,status=1');"  ><img src="http://g-ecx.images-amazon.com/images/G/01/x-locale/communities/reputation/c7y_badge_vn_1._V192249933_.gif" width="62" align="absmiddle" alt="(VINE VOICE)" height="15" border="0" /></a>
&nbsp;&nbsp;
<a href="http://www.amazon.com/gp/help/customer/display.html/ref=cm_rn_bdg_help/179-3648256-6922542?ie=UTF8&nodeId=14279681&pop-up=1#TR" target="AmazonHelp" onclick="return amz_js_PopWin(this.href,'AmazonHelp','width=340,height=340,resizable=1,scrollbars=1,toolbar=1,status=1');"  ><img src="http://g-ecx.images-amazon.com/images/G/01/x-locale/communities/reputation/c7y_badge_tr_3._V192249968_.gif" width="94" align="absmiddle" alt="(TOP 50 REVIEWER)" height="15" border="0" /></a>
&nbsp;&nbsp;


</div></div><div style="clear:both;"></div>
      </div>
      <div class="tiny" style="margin-bottom:0.5em;">
        <b><span class="h3color tiny">This review is from: </span><a href="http://www.amazon.com/Samsung-UN65HU8550-65-Inch-Ultra-120Hz/dp/B00ID2HJJM/ref=cm_cr_if_orig_subj/179-3648256-6922542?ie=UTF8&linkCode=sp1&tag=wat081-20" target="_top">Samsung UN65HU8550 65-Inch 4K Ultra HD 120Hz 3D Smart LED TV (Electronics)</a></b>
      </div>

This is the best picture quality of any TV I have had. It is a 4K TV and even though there isn't any 4K content yet without getting movie on a hard drive and paying out the nose. This Samsung upscales the content up and it looks pretty darn great. Noticeably sharper then others that I looked at. The sound is also very good. There are plenty of smart features and internet hookup without having any external devices like Roku, Apple TV. Upconverts any source inputted. Samsungs latest backlighting technology.<br /><br />I bought the TV for the picture quality not really for the 3D. Most of the smart features are just extra pluses.<br />It does a decent job of upscaling the HD content, but remember it is trying to upscale from HD to near 4K and the information is just not there for it to do real 4K. It, for the lack of better terms, makes a guess on what 4K should be. That withstanding it does guess well, and will offer a better picture than standard HD, just not UHD so expect that...






<a href="http://www.amazon.com/Samsung-UN85HU8550-85-Inch-Ultra-120Hz/product-reviews/B00KSBBHQ2/ref=cm_cr_if/179-3648256-6922542?ie=UTF8&linkCode=sp1&showViewpoints=0&tag=wat081-20#R2ZWUMDI69ELO0" target="_top">Read more</a>
      <hr size="1" style="border-top: 1px dashed #ACACAC;"/><div style="padding-top: 10px; clear: both; width: 100%; display:none;">

  




        <div class="reviews-voting-stripe" style="float:left; padding-right:15px; border-right:1px solid #CCCCCC"><div style="padding-bottom:5px;"><b class="tiny" style="color:#666666;white-space:nowrap;">Help other customers find the most helpful reviews</b>&nbsp;</div><div style="width:300px;">









<a name="R2ZWUMDI69ELO0.2115.Helpful.Reviews" style="font-size:1px;"> </a><span
class="crVotingButtons"><nobr><span class="votingPrompt">Was this review helpful to you?&nbsp;</span><a rel="nofollow" class="votingButtonReviews yesButton" href="http://www.amazon.com/gp/voting/cast/Reviews/2115/R2ZWUMDI69ELO0/Helpful/1/ref=cm_cr_ifvoteyn/179-3648256-6922542?ie=UTF8&target=aHR0cDovL3d3dy5hbWF6b24uY29tL3Byb2R1Y3QtcmV2aWV3cy9CMDBLU0JCSFEyL3JlZj1jbV9jcl9pZnZvdGVyZHIvMTc5LTM2NDgyNTYtNjkyMjU0Mj9fZW5jb2Rpbmc9VVRGOCZha2lkPUFLSUFKMk5ZMkUzWU1MS0o2NFpRJmFsaW5rQ29kZT1zcDEmYXNpbj1CMDBLU0JCSFEyJmF0YWc9d2F0MDgxLTIwJmV4cD0yMDE1LTAxLTIxVDA4JTNBMDIlM0E1N1ombGlua0NvZGU9c3AxJnNpZz1zYmxjRzNIT1hKZHlIdTVlQ05NeFNRRzROT0NQYWE2bXZmTGkxNXJDRFBzJTNEJnN1bW1hcnk9MCZ0YWc9d2F0MDgxLTIwJnRydW5jYXRlPTAmdj0y&token=2DDD64EB91D7C27B7B482910E6473E29B3B20132&voteAnchorName=R2ZWUMDI69ELO0.2115.Helpful.Reviews&voteSessionID=179-3648256-6922542"><img src="http://g-ecx.images-amazon.com/images/G/01/x-locale/communities/reviews/btn-yes-sec-md._V192249951_.gif" width="35" alt="Yes" style="vertical-align:middle;" height="18" border="0" /></a>
<a rel="nofollow" class="votingButtonReviews noButton" href="http://www.amazon.com/gp/voting/cast/Reviews/2115/R2ZWUMDI69ELO0/Helpful/-1/ref=cm_cr_ifvoteyn/179-3648256-6922542?ie=UTF8&target=aHR0cDovL3d3dy5hbWF6b24uY29tL3Byb2R1Y3QtcmV2aWV3cy9CMDBLU0JCSFEyL3JlZj1jbV9jcl9pZnZvdGVyZHIvMTc5LTM2NDgyNTYtNjkyMjU0Mj9fZW5jb2Rpbmc9VVRGOCZha2lkPUFLSUFKMk5ZMkUzWU1MS0o2NFpRJmFsaW5rQ29kZT1zcDEmYXNpbj1CMDBLU0JCSFEyJmF0YWc9d2F0MDgxLTIwJmV4cD0yMDE1LTAxLTIxVDA4JTNBMDIlM0E1N1ombGlua0NvZGU9c3AxJnNpZz1zYmxjRzNIT1hKZHlIdTVlQ05NeFNRRzROT0NQYWE2bXZmTGkxNXJDRFBzJTNEJnN1bW1hcnk9MCZ0YWc9d2F0MDgxLTIwJnRydW5jYXRlPTAmdj0y&token=B57FD22A8BB63187129D3E629741EE7479C46D01&voteAnchorName=R2ZWUMDI69ELO0.2115.Helpful.Reviews&voteSessionID=179-3648256-6922542"><img src="http://g-ecx.images-amazon.com/images/G/01/x-locale/communities/reviews/btn-no-sec-md._V192249949_.gif" width="35" alt="No" style="vertical-align:middle;" height="18" border="0" /></a></nobr> <span class="votingMessage"></span></span>

</div></div><div style="float:left;"><div style="padding-left:15px;"><div style="white-space:nowrap;"><span class='tiny'>








<a name="R2ZWUMDI69ELO0.2115.Inappropriate.Reviews" style="font-size:1px;"> </a><span class="reportingButton"><nobr><a rel="nofollow" class="reportingButton" href="http://www.amazon.com/gp/voting/cast/Reviews/2115/R2ZWUMDI69ELO0/Inappropriate/1/ref=cm_cr_ifvoteyn/179-3648256-6922542?ie=UTF8&target=aHR0cDovL3d3dy5hbWF6b24uY29tL3Byb2R1Y3QtcmV2aWV3cy9CMDBLU0JCSFEyL3JlZj1jbV9jcl9pZnZvdGVyZHIvMTc5LTM2NDgyNTYtNjkyMjU0Mj9fZW5jb2Rpbmc9VVRGOCZha2lkPUFLSUFKMk5ZMkUzWU1MS0o2NFpRJmFsaW5rQ29kZT1zcDEmYXNpbj1CMDBLU0JCSFEyJmF0YWc9d2F0MDgxLTIwJmV4cD0yMDE1LTAxLTIxVDA4JTNBMDIlM0E1N1ombGlua0NvZGU9c3AxJnNpZz1zYmxjRzNIT1hKZHlIdTVlQ05NeFNRRzROT0NQYWE2bXZmTGkxNXJDRFBzJTNEJnN1bW1hcnk9MCZ0YWc9d2F0MDgxLTIwJnRydW5jYXRlPTAmdj0y&token=ADE9B292B3B711FE537195280733E1D694AEF0E1&voteAnchorName=R2ZWUMDI69ELO0.2115.Inappropriate.Reviews&voteSessionID=179-3648256-6922542"
>Report abuse</a></nobr></span>
</span> <span style="color:#CCCCCC;">|</span> <span class="tiny"><a href="http://www.amazon.com/review/R2ZWUMDI69ELO0/ref=cm_cr_if_perm/?ie=UTF8&ASIN=B00ID2HJJM&linkCode=sp1&tag=wat081-20" target="_top">Permalink</a></span></div><div style="white-space:nowrap;padding-left:-5px;padding-top:5px;"><a href="http://www.amazon.com/review/R2ZWUMDI69ELO0/ref=cm_cr_if_cmt/179-3648256-6922542?ie=UTF8&ASIN=B00ID2HJJM&linkCode=sp1&tag=wat081-20#wasThisHelpful" target="_top"><img src="http://g-ecx.images-amazon.com/images/G/01/x-locale/communities/discussion_boards/comment-sm._V192250344_.gif" width="16" alt="Comment" hspace="3" align="absmiddle" height="16" border="0" /></a>&nbsp;<a href="http://www.amazon.com/review/R2ZWUMDI69ELO0/ref=cm_cr_if_cmt/179-3648256-6922542?ie=UTF8&ASIN=B00ID2HJJM&linkCode=sp1&tag=wat081-20#wasThisHelpful" target="_top">Comments (29)</a></div></div></div><div style="clear:both;"></div>
      </div>
      <br />

</div>

  














































<!-- BOUNDARY -->
<a name="R327LE4ZA93ETT"></a><br />


<div style="margin-left:0.5em;">
    
      <div style="margin-bottom:0.5em;">
        384 of 426 people found the following review helpful
      </div>
      <div style="margin-bottom:0.5em;">
        <span style='margin-left: -5px;'><img src="http://g-ecx.images-amazon.com/images/G/01/x-locale/common/customer-reviews/stars-3-0._V192240710_.gif" width="64" alt="3.0 out of 5 stars" title="3.0 out of 5 stars" height="12" border="0" /> </span>
        <b>Great for Blu Ray and 4K content, not so much sports</b>, <nobr>May 6, 2014</nobr>
      </div>
      <div style="margin-bottom:0.5em;">
        <div><div style="float:left;">By&nbsp;</div><div style="float:left;"><a href="http://www.amazon.com/gp/pdp/profile/A1BS7P23FOTYX9/ref=cm_cr_if_pdp/179-3648256-6922542?ie=UTF8&linkCode=sp1&tag=wat081-20" target="_top"><span style = "font-weight: bold;">matt kramer</span></a>  - <a href="http://www.amazon.com/gp/cdp/member-reviews/A1BS7P23FOTYX9/ref=cm_cr_if_auth_rev/179-3648256-6922542?ie=UTF8&amp;linkCode=sp1&amp;sort_by=MostRecentReview&amp;tag=wat081-20" target="_top">See all my reviews</a></div></div><div style="clear:both;"></div>
      </div>
      <div class="tiny" style="margin-bottom:0.5em;">
        <b><span class="h3color tiny">This review is from: </span><a href="http://www.amazon.com/Samsung-UN65HU8550-65-Inch-Ultra-120Hz/dp/B00ID2HJJM/ref=cm_cr_if_orig_subj/179-3648256-6922542?ie=UTF8&linkCode=sp1&tag=wat081-20" target="_top">Samsung UN65HU8550 65-Inch 4K Ultra HD 120Hz 3D Smart LED TV (Electronics)</a></b>
      </div>

I waited a few weeks to write this review b.c I wanted to be sure I had time to really appreciate the TV.  It is closer to 3.5 stars for me and my personal use.<br /><br />First of all, the TV makes Bluray content look fantastic.  The tv's built in upscaler does a great job.  4K content is out of this world good (netflix, house of cards).  It brings a whole new level of clarity to television that I did not think was possible.  Last night I was watching Pacific Rim on Bluray and it made my jaw drop!<br /><br />The built in apps are really fast and convenient.  If you are not using a separate audio source, you will struggle to get proper lip sync with the built in apps.  It gets close, but without a separate receiver it is slightly off.<br /><br />So far so good, right? Well, I am a huge sports viewer, and this is where this TV struggles.  I tried literally all of the settings possible and there is always a slight judder.  It is mostly noticeable when watching hockey, and it irks me...






<a href="http://www.amazon.com/Samsung-UN85HU8550-85-Inch-Ultra-120Hz/product-reviews/B00KSBBHQ2/ref=cm_cr_if/179-3648256-6922542?ie=UTF8&linkCode=sp1&showViewpoints=0&tag=wat081-20#R327LE4ZA93ETT" target="_top">Read more</a>
      <hr size="1" style="border-top: 1px dashed #ACACAC;"/><div style="padding-top: 10px; clear: both; width: 100%; display:none;">

  




        <div class="reviews-voting-stripe" style="float:left; padding-right:15px; border-right:1px solid #CCCCCC"><div style="padding-bottom:5px;"><b class="tiny" style="color:#666666;white-space:nowrap;">Help other customers find the most helpful reviews</b>&nbsp;</div><div style="width:300px;">









<a name="R327LE4ZA93ETT.2115.Helpful.Reviews" style="font-size:1px;"> </a><span
class="crVotingButtons"><nobr><span class="votingPrompt">Was this review helpful to you?&nbsp;</span><a rel="nofollow" class="votingButtonReviews yesButton" href="http://www.amazon.com/gp/voting/cast/Reviews/2115/R327LE4ZA93ETT/Helpful/1/ref=cm_cr_ifvoteyn/179-3648256-6922542?ie=UTF8&target=aHR0cDovL3d3dy5hbWF6b24uY29tL3Byb2R1Y3QtcmV2aWV3cy9CMDBLU0JCSFEyL3JlZj1jbV9jcl9pZnZvdGVyZHIvMTc5LTM2NDgyNTYtNjkyMjU0Mj9fZW5jb2Rpbmc9VVRGOCZha2lkPUFLSUFKMk5ZMkUzWU1MS0o2NFpRJmFsaW5rQ29kZT1zcDEmYXNpbj1CMDBLU0JCSFEyJmF0YWc9d2F0MDgxLTIwJmV4cD0yMDE1LTAxLTIxVDA4JTNBMDIlM0E1N1ombGlua0NvZGU9c3AxJnNpZz1zYmxjRzNIT1hKZHlIdTVlQ05NeFNRRzROT0NQYWE2bXZmTGkxNXJDRFBzJTNEJnN1bW1hcnk9MCZ0YWc9d2F0MDgxLTIwJnRydW5jYXRlPTAmdj0y&token=EE5756EBF14FB7E45E7D2F79BBDBF1F37D7CCAA1&voteAnchorName=R327LE4ZA93ETT.2115.Helpful.Reviews&voteSessionID=179-3648256-6922542"><img src="http://g-ecx.images-amazon.com/images/G/01/x-locale/communities/reviews/btn-yes-sec-md._V192249951_.gif" width="35" alt="Yes" style="vertical-align:middle;" height="18" border="0" /></a>
<a rel="nofollow" class="votingButtonReviews noButton" href="http://www.amazon.com/gp/voting/cast/Reviews/2115/R327LE4ZA93ETT/Helpful/-1/ref=cm_cr_ifvoteyn/179-3648256-6922542?ie=UTF8&target=aHR0cDovL3d3dy5hbWF6b24uY29tL3Byb2R1Y3QtcmV2aWV3cy9CMDBLU0JCSFEyL3JlZj1jbV9jcl9pZnZvdGVyZHIvMTc5LTM2NDgyNTYtNjkyMjU0Mj9fZW5jb2Rpbmc9VVRGOCZha2lkPUFLSUFKMk5ZMkUzWU1MS0o2NFpRJmFsaW5rQ29kZT1zcDEmYXNpbj1CMDBLU0JCSFEyJmF0YWc9d2F0MDgxLTIwJmV4cD0yMDE1LTAxLTIxVDA4JTNBMDIlM0E1N1ombGlua0NvZGU9c3AxJnNpZz1zYmxjRzNIT1hKZHlIdTVlQ05NeFNRRzROT0NQYWE2bXZmTGkxNXJDRFBzJTNEJnN1bW1hcnk9MCZ0YWc9d2F0MDgxLTIwJnRydW5jYXRlPTAmdj0y&token=28D5B32B3C37622DFCA0BC5486B0D07FD7077BEC&voteAnchorName=R327LE4ZA93ETT.2115.Helpful.Reviews&voteSessionID=179-3648256-6922542"><img src="http://g-ecx.images-amazon.com/images/G/01/x-locale/communities/reviews/btn-no-sec-md._V192249949_.gif" width="35" alt="No" style="vertical-align:middle;" height="18" border="0" /></a></nobr> <span class="votingMessage"></span></span>

</div></div><div style="float:left;"><div style="padding-left:15px;"><div style="white-space:nowrap;"><span class='tiny'>








<a name="R327LE4ZA93ETT.2115.Inappropriate.Reviews" style="font-size:1px;"> </a><span class="reportingButton"><nobr><a rel="nofollow" class="reportingButton" href="http://www.amazon.com/gp/voting/cast/Reviews/2115/R327LE4ZA93ETT/Inappropriate/1/ref=cm_cr_ifvoteyn/179-3648256-6922542?ie=UTF8&target=aHR0cDovL3d3dy5hbWF6b24uY29tL3Byb2R1Y3QtcmV2aWV3cy9CMDBLU0JCSFEyL3JlZj1jbV9jcl9pZnZvdGVyZHIvMTc5LTM2NDgyNTYtNjkyMjU0Mj9fZW5jb2Rpbmc9VVRGOCZha2lkPUFLSUFKMk5ZMkUzWU1MS0o2NFpRJmFsaW5rQ29kZT1zcDEmYXNpbj1CMDBLU0JCSFEyJmF0YWc9d2F0MDgxLTIwJmV4cD0yMDE1LTAxLTIxVDA4JTNBMDIlM0E1N1ombGlua0NvZGU9c3AxJnNpZz1zYmxjRzNIT1hKZHlIdTVlQ05NeFNRRzROT0NQYWE2bXZmTGkxNXJDRFBzJTNEJnN1bW1hcnk9MCZ0YWc9d2F0MDgxLTIwJnRydW5jYXRlPTAmdj0y&token=CD93AB5EF17B79985C1B5D1B6BF7A4C652BB477B&voteAnchorName=R327LE4ZA93ETT.2115.Inappropriate.Reviews&voteSessionID=179-3648256-6922542"
>Report abuse</a></nobr></span>
</span> <span style="color:#CCCCCC;">|</span> <span class="tiny"><a href="http://www.amazon.com/review/R327LE4ZA93ETT/ref=cm_cr_if_perm/?ie=UTF8&ASIN=B00ID2HJJM&linkCode=sp1&tag=wat081-20" target="_top">Permalink</a></span></div><div style="white-space:nowrap;padding-left:-5px;padding-top:5px;"><a href="http://www.amazon.com/review/R327LE4ZA93ETT/ref=cm_cr_if_cmt/179-3648256-6922542?ie=UTF8&ASIN=B00ID2HJJM&linkCode=sp1&tag=wat081-20#wasThisHelpful" target="_top"><img src="http://g-ecx.images-amazon.com/images/G/01/x-locale/communities/discussion_boards/comment-sm._V192250344_.gif" width="16" alt="Comment" hspace="3" align="absmiddle" height="16" border="0" /></a>&nbsp;<a href="http://www.amazon.com/review/R327LE4ZA93ETT/ref=cm_cr_if_cmt/179-3648256-6922542?ie=UTF8&ASIN=B00ID2HJJM&linkCode=sp1&tag=wat081-20#wasThisHelpful" target="_top">Comments (40)</a></div></div></div><div style="clear:both;"></div>
      </div>
      <br />

</div>

  



  </td>
</tr>
</table>
<br />
<div class="crIFrameCreateReview" >
  Share your thoughts with other customers:
  <span class="crIFrameCreateReviewButton"><a href="http://www.amazon.com/review/create-review/ref=cm_cr_if_wr/179-3648256-6922542?ie=UTF8&amp;asin=B00KSBBHQ2&amp;linkCode=sp1&amp;nodeID=&amp;tag=wat081-20" target="_top"><img src="http://g-ecx.images-amazon.com/images/G/01/x-locale/communities/reviews/btn-create-own-review-md._V192249922_.gif" width="145" alt="" height="22" border="0" /></a></span>
</div>
<span class="small"><b><b class="h3color">&rsaquo;</b>&nbsp;<a href="http://www.amazon.com/Samsung-UN85HU8550-85-Inch-Ultra-120Hz/product-reviews/B00KSBBHQ2/ref=cm_cr_if_all_link/179-3648256-6922542?ie=UTF8&linkCode=sp1&showViewpoints=1&sortBy=bySubmissionDateDescending&tag=wat081-20" target="_top">See all 267 customer reviews...</a></b></span>






</div>
<script type='text/javascript'>
    
    window.ue_csm.cel_widgets = [
         {  id: "DAra1"  } , {  c: "celwidget"  } , {  id: "fallbacksessionShvl"  } , {  id: "rhf"  } 
    ];



</script>

<div id='be' style='display:none;visibility:hidden;'><form name='ue_backdetect'><input name='ue_back' value='1' type='hidden'></form><script type="text/javascript">
(function(c){var a=document.ue_backdetect;if(a&&a.ue_back&&c.ue){c.ue.bfini=a.ue_back.value}if(c.uet){c.uet("be")}if(c.onLdEnd){if(window.addEventListener){window.addEventListener("load",c.onLdEnd,false)}else{if(window.attachEvent){window.attachEvent("onload",c.onLdEnd)}}}if(c.ueh){c.ueh(0,window,"load",c.onLd,1)}if(c.ue&&c.ue.tag){if(c.ue_furl&&c.ue_furl.split){var b=c.ue_furl.split(".");if(b&&b[0]){c.ue.tag(b[0])}}else{c.ue.tag("nofls")}}})(ue_csm);

var ue_pty='CustomerReviews', ue_spty='IFrameMostHelpful', ue_pti='iframe'; 

</script>

<a href='http://www.amazon.com/gp/uedata/nvp/unsticky/179-3648256-6922542//ntpoffrw?tepes=1&amp;id=08T5BTK9CP4SDQ0F5MDX'>v</a>
<noscript>
     <img src='http://www.amazon.com/gp/uedata/nvp/unsticky/179-3648256-6922542//ntpoffrw?noscript&amp;id=08T5BTK9CP4SDQ0F5MDX&amp;pty=CustomerReviews&amp;spty=IFrameMostHelpful&amp;pti=iframe' />
     <img src='//fls-na.amazon.com/1/batch/1/OP/ATVPDKIKX0DER:179-3648256-6922542:08T5BTK9CP4SDQ0F5MDX$uedata=s:%2Freviews%2Fiframe%2Fuedata%2Fnvp%2Funsticky%2F179-3648256-6922542%2FCustomerReviews%2Fntpoffrw%3Fnoscript%26id%3D08T5BTK9CP4SDQ0F5MDX%26pty%3DCustomerReviews%26spty%3DIFrameMostHelpful%26pti%3Diframe:2000' />

</noscript>
</div>
<script type='text/javascript'>
(function(b,c){var a=c.images;if(a&&a.length){b.ue.count("totalImages",a.length)}})(ue_csm,document);
</script>
<script type='text/javascript'>
(function(e,c){var a=e.ue,b=c.navigator,d;if(a&&a.tag&&b){d=b.connection||b.mozConnection||b.webkitConnection;if(d&&d.type){a.tag("netInfo:"+d.type)}}})(ue_csm,window);
</script>
<script type="text/javascript">
//<![CDATA[
    try
    {
        parent.$('amazon_customer_reviews').style.width = '100%';
        parent.$('amazon_customer_reviews').style.display = 'block';
        parent.$('amazon_customer_reviews').style.height = getBodyHeight() + 'px';
    }
    catch(err)
    {
        // ---
    }

    function getBodyHeight()
    {
        var frameBody = document.body, frameHtml = document.documentElement, myHeight = 0;
        if (frameBody.scrollHeight > myHeight) myHeight = frameBody.scrollHeight;
        if (frameBody.offsetHeight > myHeight) myHeight = frameBody.offsetHeight;
        if (frameHtml.clientHeight > myHeight) myHeight = frameHtml.clientHeight;
        if (frameHtml.scrollHeight > myHeight) myHeight = frameHtml.scrollHeight;
        if (frameHtml.offsetHeight > myHeight) myHeight = frameHtml.offsetHeight;
        return myHeight;
    }
//]]>
</script></body>
</html>






















