


  
  









  
  












<html>
<head>
<script type="text/javascript">var ue_t0=ue_t0||+new Date();</script>
<script type="text/javascript">
var ue_hob=+new Date();

var ue_id='13W0EENCVE5D9185WZMQ',
ue_csm = window,
ue_err_chan = 'jserr-rw',
ue = {};
(function(a){var d=a.ue=a.ue||{},f=Date.now||function(){return+new Date};d.d=function(b){return f()-(b?0:a.ue_t0)};d.stub=function(b,c){if(!b[c]){var e=[];b[c]=function(){e.push([e.slice.call(arguments),d.d(),a.ue_id])};b[c].replay=function(b){for(var a;a=e.shift();)b(a[0],a[1],a[2])};b[c].isStub=1}}})(ue_csm);

ue.stub(ue,"log");ue.stub(ue,"onunload");

(function(f,a){var b="FATAL",c={ec:0,ecf:0,pec:0,ts:0,erl:[],ter:[],mxe:50,startTimer:function(){c.ts++;setInterval(function(){if(f.ue&&(c.pec<c.ec)){f.uex("at")}c.pec=c.ec},10000)}};function e(i,h){if(c.ec>c.mxe||!i){return}c.ec++;c.ter.push(i);h=h||{};var g=i.logLevel||h.logLevel;if(!g||(g==b)){c.ecf++}h.pageURL=""+(a.location?a.location.href:"");h.logLevel=g;h.attribution=i.attribution||h.attribution;c.erl.push({ex:i,info:h})}function d(l,k,g,i,h){var j={m:l,f:k,l:g,c:""+i,err:h,fromOnError:1,args:arguments};f.ueLogError(j);return false}d.skipTrace=1;e.skipTrace=1;e.isStub=1;f.ueLogError=e;f.ue_err=c;a.onerror=d})(ue_csm,window);


var ue_url='http://www.amazon.com/reviews/iframe/uedata/nvp/unsticky/184-4609731-5298851/CustomerReviews/ntpoffrw',
ue_sid='184-4609731-5298851',
ue_mid='ATVPDKIKX0DER',
ue_sn='www.amazon.com',
ue_furl='fls-na.amazon.com',
ue_navtiming=1,
ue_log_idx=0,
ue_fcsn=1,
ue_isrw=true,
ue_fpf='//fls-na.amazon.com/1/batch/1/OP/ATVPDKIKX0DER:184-4609731-5298851:13W0EENCVE5D9185WZMQ$uedata=s:',
ue_lnb=0,
ue_lwl=0,
ue_ran=0,
ue_osfp=0,
ue_novizfix=0,
ue_qsl=0,
ue_bli=0,
ue_blc=3,
ue_ueh=1,
ue_mce='click';
if (!window.ue_csm) {var ue_csm = window;}
function ue_viz(){(function(d,l,h){var k=0,b,n,f,a,c=["webkit","o","ms","moz",""],m=0,g=20,j="addEventListener";for(var e=0;(e<c.length&&!m);e++){b=c[e];n=(b?b+"H":"h")+"idden";m=typeof l[n]=="boolean";if(m){f=b+"visibilitychange";if(h.ue_novizfix!=1){a=(b?b+"V":"v")+"isibilityState"}else{a=b+"VisibilityState"}}}function o(r){if((d.ue.viz.length<g)&&!k){var q=r.type,i=r.originalEvent;if(!(/^focus./.test(q)&&i&&(i.toElement||i.fromElement||i.relatedTarget))){var s=l[a]||(q=="blur"||q=="focusout"?"hidden":"visible"),p=+new Date()-d.ue.t0;d.ue.viz.push(s+":"+p);if(s=="visible"){if(ue.isl){uex("at")}k=1}}}}o({});if(m){l[j](f,o,0)}if(d.ue&&m){d.ue.pageViz={event:f,propHid:n}}})(ue_csm,document,window)};
(function(n,j){n.ueinit=(n.ueinit||0)+1;var c={t0:j.aPageStart||n.ue_t0,id:n.ue_id,url:n.ue_url,rid:n.ue_id,a:"",b:"",h:{},r:{ld:0,oe:0,ul:0},s:1,t:{},sc:{},iel:[],ielf:[],fc_idx:{},viz:[],v:"0.416.0",d:n.ue&&n.ue.d,log:n.ue&&n.ue.log,onunload:n.ue&&n.ue.onunload,stub:n.ue&&n.ue.stub,lr:n.ue&&n.ue.lr,ulh:[],cfa2:0},p=n.ue_fpf?1:0,b="beforeunload",e;function i(s){return s&&s.replace&&s.replace(/^\s+|\s+$/g,"")}function d(s){return typeof s==="undefined"}function a(s){return typeof s==="function"}function g(t,s){return(a(t.now)&&!d(s))?(new Date(s+t.now())-(new Date())):0}c.oid=i(c.id);c.lid=i(c.id);n.ue=c;n.ue._t0=n.ue.t0;function f(u){if(!n.ue_fpf||!j.encodeURIComponent||!u){return}var s=new Image(),t=""+n.ue_fpf+j.encodeURIComponent(u)+":"+(+new Date()-n.ue_t0);n.ue.iel.push(s);s.src=t}n.ue.tagC=function(){var s={};return function(t){if(t){s[t]=1}var v=[];for(var u in s){if(s.hasOwnProperty(u)){v.push(u)}}return v}};n.ue.tag=n.ue.tagC();n.ue.ifr=((j.top!==j.self)||(j.frameElement))?1:0;function l(u,x,z,w){var y=w||(+new Date()),v,s;if(x||d(z)){if(u){v=x?m("t",x)||m("t",x,{}):n.ue.t;v[u]=y;for(s in z){if(z.hasOwnProperty(s)){m(s,x,z[s])}}}return y}}function m(u,v,w){var t=n.ue,s=(v&&v!=t.id)?t.sc[v]:t;if(!s){s=(t.sc[v]={})}if(u=="id"&&w){t.cfa2=1;if(n.ue_ran&&n.ue_cel){n.ue_cel.reset(w)}}return(s[u]=(w||s[u]))}function r(w,x,v,t,s){var u="on"+v,y=x[u];if(a(y)){if(w){n.ue.h[w]=y}}else{y=function(){}}x[u]=s?function(z){t(z);y(z)}:function(z){y(z);t(z)};x[u].isUeh=1}function k(A,w,z){function u(Z,X){var V=[Z],Q=0,W={},O,P;if(X){V.push("m=1");W[X]=1}else{W=n.ue.sc}for(P in W){if(W.hasOwnProperty(P)){var R=m("wb",P),U=m("t",P)||{},T=m("t0",P)||n.ue.t0,Y,S;if(X||R==2){Y=R?Q++:"";V.push("sc"+Y+"="+P);for(S in U){if(S.length<=3&&!d(U[S])&&U[S]!==null){V.push(S+Y+"="+(U[S]-T))}}V.push("t"+Y+"="+U[A]);if(m("ctb",P)||m("wb",P)){O=1}}}}if(!x&&O){V.push("ctb=1")}return V.join("&")}function I(O,P){if(n.ue.b){var Q=n.ue.b;n.ue.b="";D(Q,O,P,1)}}function D(O,R,U,Q){if(!O){return}var S=new Image(),W=!Q||!n.ue.log||!(j.amznJQ||j.P)||(j.amznJQ&&j.amznJQ.Ok),P=n.ue_err,T,V;if(n.ue_osfp!=1&&W){n.ue.iel.push(S);S.src=O}if(n.ue_osfp!=3){if(p){f(O)}else{if(n.ue.log){T=j.chrome&&(R=="ul");V=(!Q&&T)?1:0;n.ue.log(O,"uedata",n.ue_svi?{n:1,img:V}:{n:1});n.ue.ielf.push(O)}}}if(P&&!P.ts){P.startTimer()}I(R,U)}function M(P){if(!ue.collected){var R=P.timing,Q=P.navigation,O=ue.t;if(R){O.na_=R.navigationStart;O.ul_=R.unloadEventStart;O._ul=R.unloadEventEnd;O.rd_=R.redirectStart;O._rd=R.redirectEnd;O.fe_=R.fetchStart;O.lk_=R.domainLookupStart;O._lk=R.domainLookupEnd;O.co_=R.connectStart;O._co=R.connectEnd;O.sc_=R.secureConnectionStart;O.rq_=R.requestStart;O.rs_=R.responseStart;O._rs=R.responseEnd;O.dl_=R.domLoading;O.di_=R.domInteractive;O.de_=R.domContentLoadedEventStart;O._de=R.domContentLoadedEventEnd;O._dc=R.domComplete;O.ld_=R.loadEventStart;O._ld=R.loadEventEnd;O.ntd=g(P,O.na_)+n.ue.t0}if(Q){O.ty=Q.type+n.ue.t0;O.rc=Q.redirectCount+n.ue.t0}ue.collected=1}}function K(T){var P=(H&&H.navigation?H.navigation.type:e),S=(P==2),Q=(P&&(P!=2)),R=n.ue.bfini;if(!n.ue.cfa2){if(R&&R>1){T+="&bfform=1";if(!Q){n.ue.isBFT=(R-1)}}if(S){T+="&bfnt=1";n.ue.isBFT=n.ue.isBFT||1}if(n.ue.ssw&&n.ue.isBFT){if(d(n.ue.isNRBF)){var O=n.ue.ssw(n.ue.oid);if(!O.e&&!d(O.val)){n.ue.isNRBF=(O.val>1)?0:1}}if(!d(n.ue.isNRBF)){T+="&nrbf="+n.ue.isNRBF}}if(n.ue.isBFT&&!n.ue.isNRBF){T+="&bft="+n.ue.isBFT}}return T}if(!w&&!d(z)){return}for(var s in z){if(z.hasOwnProperty(s)){m(s,w,z[s])}}l("pc",w,z);var F=m("id",w)||n.ue.id,y=n.ue.url+"?"+A+"&v="+n.ue.v+"&id="+F,x=m("ctb",w)||m("wb",w),H=j.performance||j.webkitPerformance,t,J;if(x){y+="&ctb="+x}if(n.ueinit>1){y+="&ic="+n.ueinit}if(n.ue._fi&&A=="at"&&(!w||w==F)){y+=n.ue._fi()}if((A=="ld"||A=="ul")&&(!w||w==F)){if(A=="ld"){if(j.onbeforeunload&&j.onbeforeunload.isUeh){j.onbeforeunload=null}if(j.chrome){for(J=0;J<ue.ulh.length;J++){o("beforeunload",ue.ulh[J])}}var L=document.ue_backdetect;if(L&&L.ue_back){L.ue_back.value++}if(n._uess){t=n._uess()}n.ue.isl=1}if(n.ue_navtiming&&H&&H.timing){m("ctb",F,"1");if(n.ue_navtiming==1){l("tc",e,e,H.timing.navigationStart)}}if(H){M(H)}n.ue.t.hob=n.ue_hob;n.ue.t.hoe=n.ue_hoe;if(n.ue.ifr){y+="&ifr=1"}}l(A,w,z);var E=(A=="ld"&&w&&m("wb",w)),G=1,C,v,N;if(E){m("wb",w,2)}else{if(A=="ld"){c.lid=i(F)}}for(C in n.ue.sc){if(m("wb",C)==1){G=0;break}}if(E){if(!n.ue.s){y=u(y,null)}else{return}}else{N=u(y,null);if(N!=y){N=K(N);n.ue.b=N}if(t){y+=t}y=u(y,w||n.ue.id)}y=K(y);if(n.ue.b||E){for(C in n.ue.sc){if(m("wb",C)==2){delete n.ue.sc[C]}}}var B=0;if(ue._rt){y+="&rt="+ue._rt()}if(!E){n.ue.s=0;v=n.ue_err;if(v&&v.ec>0&&(v.pec<v.ec)){v.pec=v.ec;y+="&ec="+v.ec+"&ecf="+v.ecf}B=m("ctb",w);m("t",w,{})}if(y&&n.ue.tag&&n.ue.tag().length>0){y+="&csmtags="+n.ue.tag().join("|");n.ue.tag=n.ue.tagC()}if(y&&n.ue.viz&&n.ue.viz.length>0){y+="&viz="+n.ue.viz.join("|");n.ue.viz=[]}if(y&&!d(n.ue_pty)){y+="&pty="+n.ue_pty+"&spty="+n.ue_spty+"&pti="+n.ue_pti}if(y&&n.ue.tabid){y+="&tid="+n.ue.tabid}if(y&&n.ue.aftb){y+="&aftb=1"}if(n.ue._ui&&(!w||w==F)){y+=n.ue._ui()}if(n.ue.count&&n.ue_blc===1){n.ue.count("baselineCounter1",1)}n.ue.a=y;D(y,A,B,E)}function h(s,t,u){u=u||j;if(u.addEventListener){u.addEventListener(s,t,false)}else{if(u.attachEvent){u.attachEvent("on"+s,t)}}}ue.attach=h;function o(s,t,u){u=u||j;if(u.removeEventListener){u.removeEventListener(s,t,false)}else{if(u.detachEvent){u.detachEvent("on"+s,t)}}}ue.detach=o;function q(){var v=n.ue.r,s,w;function t(){n.onUl()}function u(x){return function(){if(!v[x]){v[x]=1;k(x)}}}n.onLd=u("ld");n.onLdEnd=u("ld");n.onUl=u("ul");s={stop:u("os")};if(!j.chrome){s[b]=n.onUl}else{h("beforeunload",t);ue.ulh.push(t)}for(w in s){if(s.hasOwnProperty(w)){r(0,j,w,s[w])}}if(n.ue_viz){ue_viz()}h("load",n.onLd);l("ue")}ue.reset=function(t,s){if(t){if(n.ue_cel){n.ue_cel.reset()}n.ue.t0=+new Date();n.ue.rid=t;n.ue.id=t;n.ue.fc_idx={};n.ue.viz=[]}};n.uei=q;n.ueh=r;n.ues=m;n.uet=l;n.uex=k;q()})(ue_csm,window);


(function(g){var a=g.ue;a.cv={};a.cv.scopes={};a.count=function(d,e,b){var c={},f=a.cv;c.counter=d;c.value=e;c.t=a.d();b&&b.scope&&(f=a.cv.scopes[b.scope]=a.cv.scopes[b.scope]||{},c.scope=b.scope);if(void 0===e)return f[d];f[d]=e;a.log&&a.log(c,"csmcount",{c:1})};3===g.ue_blc&&a.count("baselineCounter2",1)})(ue_csm);

var ue_hoe=+new Date();
</script>

























<link href='http://z-ecx.images-amazon.com/images/G/01/nav2/gamma/websiteGlobalCSS/websiteGlobalCSS-websiteGlobal-10346._V1_.css' type='text/css' rel='stylesheet'>
<style type="text/css"><!--

.sans, .small, .h1, .h3color, .big, .tiny, .tinyprice, .highlight, .eyebrow,
    a:active, a:visited, a:link, div.unified_widget p.seeMore,
    div.unified_widget .carat, div.left_nav .carat, div.left_nav, div.left_nav
    h2, div.left_nav h3, div.left_nav a:link, div.left_nav a:visited,
    .popover-tiny, .horizontal-search, .horizontal-websearch, .topnav,
    .topnav-active a:link, .tabon a, .tabon a:visited, .taboff a, .taboff
    a:visited div.leftnav_popover h2, .signInMsg{
  font-family: verdana,arial,helvetica,sans-serif;
}
.listprice {
  font-family: arial,verdana,helvetica,sans-serif;
}
.price {
  font-family: arial,verdana,helvetica,sans-serif;
}
.serif, .sans, .h1, div.unified_widget .headline{
  font-size: medium;
}
.big {
  font-size: xx-large;
}
.small, .h3color, .highlight, .horizontal-search {
  font-size: small;
}
.signInMsg {
  font-size: x-small;
}
.tiny, .tinyprice, .popover-tiny, .horizontal-websearch {
  font-size: x-small;
}
body, td, th {
  font-family: verdana,arial,helvetica,sans-serif;
  font-size: small;
}
.eyebrowBackGroundColor {
  background-color: ;
}
div.left_nav, div.left_nav a:link, div.left_nav a:visited {
  font-family: Arial, sans-serif;
}

body {
  color: #000000;
  margin-top: 0px;
}
--></style> 




<style type="text/css"><!--

.crAuthorInfo {
  font-family:               verdana;
  font-size:                 0.86em;
  margin-left:               80px;
}

.crAuthorInfoCredibility {
  font-family:               verdana;
  font-size:                 0.86em;
}

.crBlue-bevel {
  background:                url(http://g-ecx.images-amazon.com/images/G/01/x-locale/communities/reviews/sliced-box-tbevel._V192249888_.gif) repeat-x top;
  height:                    1.45em;
}

.crBlueBorder-tl {
  background:                url(http://g-ecx.images-amazon.com/images/G/01/x-locale/communities/reviews/border-box-tl._V192249923_.gif) no-repeat top left;
  width:                     1em;
}
                                                                                                                                                             
.crBlueBorder-tc {
  background:                url(http://g-ecx.images-amazon.com/images/G/01/x-locale/communities/reviews/border-box-tc._V192249922_.gif) repeat-x top;
}
                                                                                                                                                             
.crBlueBorder-tr {
  background:                url(http://g-ecx.images-amazon.com/images/G/01/x-locale/communities/reviews/border-box-tr._V192249949_.gif) no-repeat top right;
  width:                     1em;
}
                                                                                                                                                             
.crBlueBorder-bl {
  background:                url(http://g-ecx.images-amazon.com/images/G/01/x-locale/communities/reviews/border-box-bl._V192249926_.gif) no-repeat bottom left;
}
                                                                                                                                                             
.crBlueBorder-bc {
  background:                url(http://g-ecx.images-amazon.com/images/G/01/x-locale/communities/reviews/border-box-bc._V192249923_.gif) repeat-x bottom;
}
                                                                                                                                                             
.crBlueBorder-br {
  background:                url(http://g-ecx.images-amazon.com/images/G/01/x-locale/communities/reviews/border-box-br._V192249923_.gif) no-repeat bottom right;
}

.crBox {
  background:                #DFEDF7;
  padding:                   0.2em 1.5em 0.2em 1.5em;
}

.crBox-tl {
  background:                #DFEDF7 url(http://g-ecx.images-amazon.com/images/G/01/x-locale/communities/reviews/box-tl._V192249949_.gif) no-repeat top left;
}

.crBox-tc {
  background:                url(http://g-ecx.images-amazon.com/images/G/01/x-locale/communities/reviews/box-tc._V192249950_.gif) repeat-x top;
}

.crBox-tr {
  background:                url(http://g-ecx.images-amazon.com/images/G/01/x-locale/communities/reviews/box-tr._V192249948_.gif) no-repeat top right;
}

.crBox-bl {
  background:                #DFEDF7 url(http://g-ecx.images-amazon.com/images/G/01/x-locale/communities/reviews/box-bl._V192249921_.gif) no-repeat bottom left;
}

.crBox-bc {
  background:                url(http://g-ecx.images-amazon.com/images/G/01/x-locale/communities/reviews/box-bc._V192249923_.gif) repeat-x bottom;
}

.crBox-br {
  background:                url(http://g-ecx.images-amazon.com/images/G/01/x-locale/communities/reviews/box-br._V192249949_.gif) no-repeat bottom right;
}

.crColumnEndMarker {
  clear:                     both;
  height:                    13px;
  background-image:          url(http://g-ecx.images-amazon.com/images/G/01/x-locale/communities/people/column-bottom-edge._V192250335_.gif);
  background-repeat:         no-repeat;
}

.crColumnEndMarker .rightEdge {
  float:                     right;
  background-image:          url(http://g-ecx.images-amazon.com/images/G/01/x-locale/communities/people/column-bottom-edge-right._V192250334_.gif);
  background-position:       right top;
  background-repeat:         no-repeat;
  width:                     13px;
  height:                    13px;
}


.crCdDotsBottom {
  clear:                     both;
  padding:                   1px;;
  font-size:                 0.0625em;
  margin:                    0 0 5px 0;
  background-image:          url(http://g-ecx.images-amazon.com/images/G/01/x-locale/communities/people/dotborder._V192250320_.gif);
  background-repeat:         repeat-x;
  background-position:       center;
}

.crDescription {
  font-family:               verdana;
  margin-left:               80px;
}


.crErrorMsg {
  color:                     red;
  font-weight:               bold;
}

.crFanlink {
  text-decoration: 	     none; 
  border-top-width:          0; 
  border-right-width:        0; 
  border-bottom-width:       1px;
  border-left-width:         0;
  border-top-color:          #146EB4;
  border-right-color:        #146EB4;
  border-bottom-color:       #146EB4;
  border-left-color:         #146EB4;
  border-top-style:          none;
  border-right-style:        none;
  border-bottom-style:       dashed;
  border-left-style:         none;
  color:                     #003399; 
}

.crFinePrint {
  font-size:                 0.7em;
  margin-top:                0.7em;
}

.crForm {
  width:                     100%;
  display:                   block;
}

.crHeaderText {
  color:                     #CC6600;
  padding-left:              0;
  padding-bottom:            5px;
  font-family:               helvetica,
  font-size:                 13px;
  font-weight:               bold;
  float:                     top;
  float:                     left;
}

h2.crHeading {
  color:                     #E47911;
  font-family:               Verdana,Helvetica,sans-serif;
  font-size:                 130%;
  margin:                    0 0 3px;
  padding-left:              0px;
}

h3.crHeading {
  color:                     #E47911;
  font-family:               Verdana,Helvetica,sans-serif;
  font-size:                 100%;
  margin:                    0 0 10px;
}

.crHeading {
  color:                     #c60;
  font-family:               sans-serif;
  font-size:                 1.5em;
  font-weight:               bold;
  padding-bottom:            0.5em;
  padding-left:              0.5em;
}

.crInnerBox {
  padding:                   0.6em 2em 0.6em 2em;
  background:                #EFF5F9;
  clear:                     both;
}

.crInnerBox-tl {
  background:                #EFF5F9 url(http://g-ecx.images-amazon.com/images/G/01/x-locale/communities/reviews/innerbox-tl._V192249896_.gif) no-repeat top left;
  clear: both;
}

.crInnerBox-tr {
  background:                #EFF5F9 url(http://g-ecx.images-amazon.com/images/G/01/x-locale/communities/reviews/innerbox-tr._V192249895_.gif) no-repeat top right;
  clear: both;
}

.crInnerBox-bl {
  background:                #EFF5F9 url(http://g-ecx.images-amazon.com/images/G/01/x-locale/communities/reviews/innerbox-bl._V192249902_.gif) no-repeat bottom left;
}

.crInnerBox-br {
  background:                url(http://g-ecx.images-amazon.com/images/G/01/x-locale/communities/reviews/innerbox-br._V192249902_.gif) no-repeat bottom right;
}

.crInputTitle {
  font-weight:               bold;
  vertical-align:            middle; 
}

.crInputFinePrint {
  color:                     #6E6E6E; 
  font-size:                 0.7em;
  padding-bottom:            1.5em; 
}

.crInput {
  padding:                   0em 0em 1.5em 0em;
  vertical-align:            middle;
}

.crInputFormField {
  font-family:               arial, helvetica, sans-serif;
}

.crInstruction {
  padding-bottom:            0.4em;
  float:                     left;
}

.crProductLinks {
  padding-bottom:            0.4em;
  float:                     right;
  vertical-align:            top;  
}

.crLargerTitle {
  font-family:               verdana, arial, helvetica, sans-serif;
  font-size:                 1.6em;
  color:                     #c60;
  padding-bottom:            5px;
  padding-top:               10px;
}

.crLine {
  clear:                     both;
  border:                    0;
  height:                    2px;
  color:                     #CADFE9;
  background-color:          #CADFE9;
  noshade:                   noshade;
}

.crPrevLeftButton {
  padding-left:              15px; 
  margin-bottom:             0px;
}

.crPrevRightButton {
  margin-bottom:             0px;
}

.crPicture {
  clear:                     both;
  float:                     left;
  text-align:                center;
  width:                     80px;
  overflow:                  hidden;
  padding-top:               0.2em;
}

.crReviewHeader  {
  font-family:               Verdana, Arial, Helvetica, sans-serif;
  font-size:                 1.5em;
  font-weight:               bold;
  color:                     #e47911;
  margin-top:                5px;
}

.crReviewSumBox {
  height:                    36px;
  background-image:          url(http://g-ecx.images-amazon.com/images/G/01/x-locale/communities/people/column-eyebrow-visitor._V192250334_.gif);
  background-repeat:         no-repeat;
  font-family:               verdana;
  font-size:                 36px;
}

.crReviewSumBox .titleText {
  float:                     left;
  font-weight:               bold;
  padding-left:              10px;
  padding-top:               10px;
  font-size:                 13px;
  font-family:               verdana;
  color:                     #000000;
  white-space:               nowrap;
}

.crReviewSumBox .rightEdge {
  background-image:          url(http://g-ecx.images-amazon.com/images/G/01/x-locale/communities/people/column-eyebrow-visitor-right._V192250335_.gif);
  width:                     12px;
  height:                    36px;
  background-repeat:         no-repeat;
  padding:                   0;
  float:                     right;
}

.crSectionTitle {
  color:                     #E57310;
  font-size:                 16px;
  font-weight:               bold;
  margin-top:                5px;
  margin-bottom:             5px;
}

.crProductReviewsSummary .crSolicitation {
  margin-top:               -20px;
}

.crSideHeading {
  color:                     #c60;
  font-weight:               bold;
  text-align:                center;
  padding-top:               0.4em;
}

.crStepNum {
  vertical-align:            top;
  padding:                   0em 0.6em 1.5em 0em;
}


.crTanBorder-tl {
  background:                url(http://g-ecx.images-amazon.com/images/G/01/x-locale/communities/boxes/boxfill/innerbox-tl._V192251350_.gif) no-repeat top left;
  width:                     1em;
}
                                                                                                                                                             
.crTanBorder-tc {
  background:                url(http://g-ecx.images-amazon.com/images/G/01/x-locale/communities/boxes/boxfill/innerbox-tc._V192251344_.gif) repeat-x top;
}
                                                                                                                                                             
.crTanBorder-tr {
  background:                url(http://g-ecx.images-amazon.com/images/G/01/x-locale/communities/boxes/boxfill/innerbox-tr._V192244553_.gif) no-repeat top right;
  width:                     1em;
}
                                                                                                                                                             
.crTanBorder-bl {
  background:                url(http://g-ecx.images-amazon.com/images/G/01/x-locale/communities/boxes/boxfill/innerbox-bl._V192251348_.gif) no-repeat bottom left;
}
                                                                                                                                                             
.crTanBorder-bc {
  background:                url(http://g-ecx.images-amazon.com/images/G/01/x-locale/communities/boxes/boxfill/innerbox-bc._V192241903_.gif) repeat-x bottom;
}
                                                                                                                                                             
.crTanBorder-br {
  background:                url(http://g-ecx.images-amazon.com/images/G/01/x-locale/communities/boxes/boxfill/innerbox-br._V192241895_.gif) no-repeat bottom right;
}

.crTextAreaHeader {
  background:                #B6CFE5;
  padding:                   0.4em 0em 0.4em 0em;
  width:                     620px;
}

.crTextTab {
  width:                     30%;
  float:                     left;
  white-space:               nowrap;
}

.crTextTabHeading {
  padding:                   0.3em 0 0.7em 0.6em;
}

.crThreadHeader {
  color:                     #CC6600;
  font-weight:               bold;
  float:                     left;
}

.crTipsBoxHeader {
  font-size:                 0.90em;
  font-weight:               bold;
  margin-bottom:             10px;
  margin-top:                10px;
}

.crTipsBoxTitle {
  color:                     #CC6600;
  font-size:                 1.1em;
  font-weight:               bold;
  margin-bottom:             10px;
}

h1.crTitle {
  color:                     #E47911;
  font-family:               Arial, Helvetica, sans-serif;
  font-size:                 218%;
  letter-spacing:            -0.03em;
  margin:                    0;
  padding:                   0;
}

.crTitle {
  font-family:               verdana, arial, helvetica, sans-serif;
  font-size:                 1.4em;
  font-weight:               bold;
}

.crTab-tl {
  background:                #EFF5F9 url(http://g-ecx.images-amazon.com/images/G/01/x-locale/communities/reviews/innerbox-tl._V192249896_.gif) no-repeat top left;
}

.crTab-tr {
  background:                url(http://g-ecx.images-amazon.com/images/G/01/x-locale/communities/reviews/innerbox-tr._V192249895_.gif) no-repeat top right;
}

.crVideoUpload {
  background:                #FFFFFF;
  border:                    0.1em solid #7F9DB9;
  text-align:                center;
  padding:                   0.4em;
}

.crVidTab {
  width:                     70%;
  float:                     left;
  white-space:               nowrap;
}

.crVidTabHeading {
  padding:                   0.3em 0 0.7em 0.6em;
}

table.crDataGrid th {
  background-color:          #EEEEEE;
  font-weight:               normal;
  font-size:                 70%;
  text-align:                left;
  color:                     #666666;
}

table.crDataGrid td {
  border-bottom:            1px solid #CCCCCC;
}

table.crDataGrid .img {
  height:                   92px;
}

table.crDataGrid .crNum {
  text-align:               right;
}

table.crDataGrid .crNumPercentHelpful {
  text-align:               right;
  padding-right:20px;
}

table.crDataGrid .crNumFanVoters {
  text-align:               right;
  border-left: solid 1px #cccccc;
}

ul.crBigBullet {
  margin:                    0em;
  padding:                   0em;
  list-style-image:          url(http://g-ecx.images-amazon.com/images/G/01/x-locale/communities/reviews/big-bullet._V192249925_.gif);
}

ul.crSmallBullet {

  padding-left:              0;
  margin:                    0.4em 0em 0.6em 1.5em;
  list-style-image:          url(http://g-ecx.images-amazon.com/images/G/01/x-locale/communities/reviews/small-bullet._V192249889_.gif);
}


.srCreateReview td.name {
  padding-left: 9px;
}

.srCreateReview .srPopoverList table.srList td a {
  margin-left: 0px;
}

.srCreateReview .srPopoverList table.srList td.name span.newAttribute {
  margin-left: 0px;
  color:       #000000;
}

.srCreateReview .srPopoverFooter {
  padding-left: 9px;
  padding-top:  9px;
}

.srCreateReview .srPopoverContentSection .heading {
  font-weight: normal;
}

#structuredRatingsList .cBox {
  width: 375px;
}

.structuredRatingsVisibilityLink {
  line-height: 2.5em;
  font-size: 0.86em;
}

.structuredRatingsVisibilityLinkText {
  margin-left: 5px;
}

#structuredRatingsListHelp {
  font-size: 0.86em;
  font-weight: normal;
}

#structuredRatingsList .srpopover .scrollSection {
  height: 210px;
}

.crVerifiedNew {
  font-size: 0.86em;
  font-weight: bold;
  color: #009900;
  margin-right: 0.5em;
} 

.crVerifyLearnMore {
  margin-left: 0.5em;
}

.crVerifiedPurchaseInputs {
  display: block;
  margin-bottom: 1em;
}

.crVerifiedBackfillSuboption {
  display: block;
  margin-left: 2em;
}

div.crCommentThread .cmPage {
  margin-left: 5px;
}

div#cdNonReplyPostBoxButton {
  margin-bottom: 40px;
}

#rdpItemInfo .crAvgStars {
  font-size: 10px;
}

.crIneligibleHeader {
  padding: 15px 9px 0 6px;
  color:                     #E47911;
  font-weight: 	             bold;
  font-size:                 218%;
  margin:                    0;
}

.crIneligibleMessage {
  font-size: 12px;
  border: solid 1px #0071B5;
  position: relative;
  background-color: #ffffdd;
  border-color: #E47911;
  padding: 18px 50px 18px 20px;
  margin: 10px 0 40px 10px;
}
.crIneligibleMessageImage {
  position: absolute;
}
.crIneligibleMessageHeader {
  font-size: 18px;
  font-weight: bold;
  margin: 0 0 4px 45px;
  padding: 0;
}
.crIneligibleMessageText {
  font-size:13px;
  margin: 0 0 6px 45px;
  width: 100%;
}


.crIFrame {
  margin: 10px;
}

.crIFrameLogo {
  margin-bottom: 20px;
}

.crIFrameHeaderLeftColumn {
  float: left;
  margin-right: 20px;
}

.crIFrameHeaderTitle {
  font-size:      24px;
  letter-spacing: -1px;
}

.crIFrameHeaderHistogram {
  float: left;
}

.crIFrameError {
  border-top:    1px solid #D1E6F7;
  border-bottom: 1px solid #D1E6F7;

  text-align:          center;
  line-height:         24px;
  width:               360px;
  padding:             20px;
  margin-top:          20px;
}

.crIFrameErrorText {
  font-size:  14px;
  font-weight: bold;
}

.crIFrameCreateReview {
  margin-bottom:   3px;
  white-space:     nowrap;
}

.crIFrameCreateReviewButton {
  vertical-align:  middle;
}

.crIFrameAverageReviewText {
  align: left;
  font-weight: bold;
}

.crIFrameNumCustReviews {
   white-space: nowrap;
}

.crIFrameReviewList {
  width: 100%;
  clear: left;
}


.CMheadingBar {
  background:url(http://g-ecx.images-amazon.com/images/G/01/nav2/images/gui/tile-blue-bg._V46870869_.gif) repeat-x;
  border-top:1px solid #BADAE8;
  border-bottom:1px solid #BADAE8;
  padding:6px;
}

.CMpaginate {
  color:#666;
}

.CMpaginate .on {
  border:1px solid #CC6600;
  padding:3px;
  background-color:white;
  color:#CC6600;
  text-decoration:none;
}

.CMpaginate a:link,
.CMpaginate a:visited {
  padding:4px;
  text-decoration:none;
}

.CMpaginate a:hover {
  padding:3px;
  background-color:white;
  border:1px solid #CC6600;
  color:#CC6600;
}

a.areaLink, a.areaLink:visited {
  text-decoration: none;
  color: black;
  display: block;
}

.areaLink .innerLink {
  white-space: nowrap;
  text-decoration: underline;
  color: #039;
}

div.crVS {
  width:       46%;
  text-align:  center;
  white-space: nowrap;
}

.crClear { clear: both; }
.crLeft { float: left; }
.crRight { float: right; }

.attr-sheet { padding-left:5px; }
.attr-sheet ul { margin-left: 31px; padding: 0; list-style: none; border: solid 1px #eee; border-radius: 5px; }
.attr-sheet ul li { padding: 5px; }
.attr-sheet li.alt { background: #F8F5D8 }
.attr-sheet li .label { font-weight: bold }
.attr-sheet li .vm { vertical-align: middle; }
.attr-sheet li .option-line { width: 100%; line-height: 1.75em; }
.attr-sheet li .option-line .label { float: left; width: 35%; max-width: 300px }
.attr-sheet li .option-line .option { float: left; width: 30%; max-width: 200px }
.attr-sheet li .option-undo { float: right; font-size: xx-small; display:none; }
.attr-sheet li .textbar-text { margin-top: 2px; clear: both; }
.attr-sheet li .textbar .empty { width: 35%; max-width: 300px; float:left; }
.attr-sheet li .textbar input { width: 50%; margin-left:5px; float:left; }
.attr-sheet li .textbar .blur { color: #999; }
.attr-preview .boldLabel { font-weight: bold }
.attr-preview .head { padding: 20px 0 0 25px }
.attr-preview .head-detail { padding-top: 5px }
.attr-preview .line { padding: 5px 0 15px 0 }
.attr-preview .lines { padding: 10px 0 0 25px }

.rypWgtDiv { margin-bottom: 20px; }

.rypWgtImgLink { 
    display: block;
    width: 300px;
    height: 97px;
    background: url('http://g-ecx.images-amazon.com/images/G/01/x-locale/communities/reviews/ryp-page-image2sprite._V399712482_.png') top;
    text-indent: -10000px;
}
.rypWgtImgLink:hover {
	background-position: bottom;
} 

--></style>

<META NAME="ROBOTS" CONTENT="NOINDEX, NOFOLLOW">

<script type="text/javascript">

var amznJQ,jQueryPatchIPadOffset=false;
(function() {
  function f(x) {return function(){x.push(arguments);}}
  function ch(y) {return String.fromCharCode(y);}
  var a=[],c=[],cs=[],d=[],l=[],o=[],s=[],p=[],t=[];
  amznJQ={
    _timesliceJS: false,
    _a:a,_c:c,_cs:cs,_d:d,_l:l,_o:o,_s:s,_pl:p,
    addLogical:f(l),
    addStyle:f(s),
    addPL:f(p),
    available:f(a),
    chars:{EOL:ch(10), SQUOTE:ch(39), DQUOTE:ch(34), BACKSLASH:ch(92), YEN:ch(165)},
    completedStage:f(cs),
    declareAvailable:f(d),
    onCompletion:f(c),
    onReady:f(o),
    strings:{}
  };
}());


</script>
<script type="text/javascript">
(function(d,c){function f(a){b.push(a)}function e(a){if(a){var c=d.head||d.getElementsByTagName("head")[0]||d.documentElement,b=d.createElement("script");b.async="async";b.src=a;c.insertBefore(b,c.firstChild)}}function g(){ue.uels=e;for(var a=0;a<b.length;a++)e(b[a]);ue.deffered=1}var b=[];c.ue&&(ue.uels=f,c.ue.attach&&c.ue.attach("load",g))})(document,window);


    if (window.ue && window.ue.uels) {
    ue.uels("http://z-ecx.images-amazon.com/images/G/01/browser-scripts/csm-base/csm-base-min-3067539280._V1_.js");
}
 else if (window.amznJQ) {
    amznJQ.addLogical('csm-base', ["http://z-ecx.images-amazon.com/images/G/01/browser-scripts/csm-base/csm-base-min-3067539280._V1_.js"]);
    amznJQ.available('csm-base', function() {});
}


var ue_tbno = 0,
ue_tble = 0,
ue_sstb = 0,
ue_ssle = 0,
ue_tbpv = 0;

(function(c,m){var b=("; expires="+new Date(+new Date()+604800000).toGMTString()),j,h=c.ue_sstb,p=c.ue_tbno,k=c.ue_tble,i=c.ue_tbpv,o=c.ue||{},e=i&&o.pageViz&&o.pageViz.event&&o.pageViz.propHid;function n(q){j=q;document.cookie="csm-hit="+q+("|"+(+new Date()))+b+"; path=/"}function l(){var r="",t=o.isBFT?"b":"s",u=""+o.oid,q=""+o.lid,s=u;if((u!=q)&&(q.length==20)){t+="a";s+=("-"+q)}if(h&&o.tabid){r=o.tabid+"+"}r+=(t+"-"+s);return r}function d(r){var q=l();if((p||(q!=j))&&(q.length<100)){n(q)}if(k){a(""+(r?r.type:"interaction")+" "+q)}}function g(){j=0;if(k){a("blur")}}function a(q){if(o.log){o.log(q,"csm")}}function f(q){if(m[o.pageViz.propHid]===true){g()}else{if(m[o.pageViz.propHid]===false){d({type:"visible"})}}}if(o.attach){o.attach("click",d);o.attach("keyup",d);if(!p){if(!e||(i==4)||(i==5)){o.attach("focus",d);o.attach("blur",g)}if(e){o.attach(o.pageViz.event,f)}if(e&&((i==3)||(i==5))){f({})}}}o.aftb=1})(ue_csm,document);
(function(a){var b=a.alert;window.alert=function(){a.ueLogError&&a.ueLogError({message:"[CSM] Alert invocation detected with argument: "+arguments[0],logLevel:"WARN"});Function.prototype.apply.apply(b,[a,arguments||[]])}})(window);

(function(d,r,k){function l(a){if(!b)if(b=e[a.type],"undefined"===typeof a.clientX?(f=a.pageX,g=a.pageY):(f=a.clientX,g=a.clientY),2!=b||h&&(h!=f||m!=g)){for(var d in e)e.hasOwnProperty(d)&&c.detach(d,l,k);c.isl&&r.setTimeout(function(){n("at",c.id)},0)}else h=f,m=g,b=0}function s(){var a="";!p&&b&&(p=1,a+="&ui="+b);return a}var c=d.ue,n=d.uex,p=0,b=0,h,m,f,g,e={click:1,mousemove:2,scroll:3,keydown:4};if(c&&n){for(var q in e)e.hasOwnProperty(q)&&c.attach(q,l,k);c._ui=s}})(ue_csm,window,document);

(function(k,c){function l(a,b){return a.filter(function(a){return a.initiatorType==b})}function f(a,c){if(b.t[a]){var g=b.t[a]-b._t0,e=c.filter(function(a){return 0!==a.responseEnd&&m(a)<g}),f=l(e,"script"),h=l(e,"link"),k=l(e,"img"),n=e.map(function(a){return a.name.split("/")[2]}).filter(function(a,b,c){return a&&c.lastIndexOf(a)==b}),q=e.filter(function(a){return a.duration<p}),s=g-Math.max.apply(null,e.map(m))<r|0;"af"==a&&(b._afjs=f.length);return a+":"+[e[d],f[d],h[d],k[d],n[d],q[d],s].join("-")}}
function m(a){return a.responseEnd-(b._t0-c.timing.navigationStart)}function n(){var a=c[h]("resource"),d=f("cf",a),g=f("af",a),a=f("ld",a);delete b._rt;b._ld=b.t.ld-b._t0;b._art&&b._art();return[d,g,a].join("_")}var p=20,r=50,d="length",b=k.ue,h="getEntriesByType";b._rre=m;b._rt=c&&c.timing&&c[h]&&n})(ue_csm,window.performance);

</script>
</head>
<body><div style='display:none;visibility:hidden;'>
    <img src='//fls-na.amazon.com/1/batch/1/OP/ATVPDKIKX0DER:184-4609731-5298851:13W0EENCVE5D9185WZMQ$uedata=s:%2Freviews%2Fiframe%2Fuedata%2Fnvp%2Funsticky%2F184-4609731-5298851%2FCustomerReviews%2Fntpoffrw%3Fstaticb%26id%3D13W0EENCVE5D9185WZMQ%26pty%3DShoppingCart%26spty%3DCart%26pti%3D:1000' />


</div>

<div class="crIFrame">
  
  






  























  




















    








  


  

































  
  











<div class="crIFrameLogo">
  <a href="http://www.amazon.com/ref=cm_cr_if_logo/184-4609731-5298851?ie=UTF8&amp;linkCode=sp1&amp;tag=wat072-20" target="_top"><img src="http://g-ecx.images-amazon.com/images/G/01/x-locale/common/amazon-logo-tiny._V192256679_.gif" width="113" alt="Amazon.com" height="23" border="0" /></a>
</div>



      <div class="crIframeHeaderTitle">Customer Reviews</div>
      
































    






























<table class="crIFrameReviewList">
<tr>
  <td>
    




















    











    
    











    
































<!-- BOUNDARY -->
<a name="RI37JH7NL1NOS"></a><br />


<div style="margin-left:0.5em;">
    
      <div style="margin-bottom:0.5em;">
        1 of 1 people found the following review helpful
      </div>
      <div style="margin-bottom:0.5em;">
        <span style='margin-left: -5px;'><img src="http://g-ecx.images-amazon.com/images/G/01/x-locale/common/customer-reviews/stars-1-0._V192241078_.gif" width="64" alt="1.0 out of 5 stars" title="1.0 out of 5 stars" height="12" border="0" /> </span>
        <b>The quality is terrible and LG won't stand by their products</b>, <nobr>March 13, 2015</nobr>
      </div>
      <div style="margin-bottom:0.5em;">
        <div><div style="float:left;">By&nbsp;</div><div style="float:left;"><a href="http://www.amazon.com/gp/pdp/profile/A2P749DEONPZAN/ref=cm_cr_if_pdp/184-4609731-5298851?ie=UTF8&linkCode=sp1&tag=wat072-20" target="_top"><span style = "font-weight: bold;">Cordobés</span></a> (California)  - <a href="http://www.amazon.com/gp/cdp/member-reviews/A2P749DEONPZAN/ref=cm_cr_if_auth_rev/184-4609731-5298851?ie=UTF8&amp;linkCode=sp1&amp;sort_by=MostRecentReview&amp;tag=wat072-20" target="_top">See all my reviews</a></div></div><div style="clear:both;"></div>
      </div>
      <div class="tiny" style="margin-bottom:0.5em;">
        <b><span class="h3color tiny">This review is from: </span>LG LMHM2237ST 2.2 Cubic Feet Over-The-Range Microwave Oven, Stainless Steel (Misc.)</b>
      </div>

Do not buy this Microwave! LG sucks and they don't stand by their product.<br /><br />I must say that I didn't buy this from Amazon, so that is my fault because Amazon has an excellent customer service and I'm sure they would have taken care of me.<br /><br />I bought this LG microwave roughly 5 months ago from Lowe's and the handle already came undone. I called Lowe's and they send someone to take a look at it from Antech Appliences Inc. The guy they sent (He only wrote K for his name) said it was a manufacturing defect (his words were cheap Chinese manufacturing&#34; and &#34;no microwave that costs $400 should break like that after 5 months&#34;). He filed a claim with Lowe's and nothing happened for weeks. I called them and they said Lowe's rejected the claim. I called Lowe's and they said that the LG rejected the claim because it was not normal wear and tear (well, yes, good Microwaves don't have their handle break like that). LG refused to acknowledge that it was a factory...






<a href="http://www.amazon.com/LG-LMHM2237ST-Over-The-Range-Microwave-Stainless/product-reviews/B00NOMUAVK/ref=cm_cr_if/184-4609731-5298851?ie=UTF8&linkCode=sp1&showViewpoints=0&tag=wat072-20#RI37JH7NL1NOS" target="_top">Read more</a>
      <hr size="1" style="border-top: 1px dashed #ACACAC;"/><div style="padding-top: 10px; clear: both; width: 100%; display:none;">

  




        <div class="reviews-voting-stripe" style="float:left; padding-right:15px; border-right:1px solid #CCCCCC"><div style="padding-bottom:5px;"><b class="tiny" style="color:#666666;white-space:nowrap;">Help other customers find the most helpful reviews</b>&nbsp;</div><div style="width:300px;">









<a name="RI37JH7NL1NOS.2115.Helpful.Reviews" style="font-size:1px;"> </a><span
class="crVotingButtons"><nobr><span class="votingPrompt">Was this review helpful to you?&nbsp;</span><a rel="nofollow" class="votingButtonReviews yesButton" href="http://www.amazon.com/gp/voting/cast/Reviews/2115/RI37JH7NL1NOS/Helpful/1/ref=cm_cr_ifvoteyn/184-4609731-5298851?ie=UTF8&target=aHR0cDovL3d3dy5hbWF6b24uY29tL3Byb2R1Y3QtcmV2aWV3cy9CMDBOT01VQVZLL3JlZj1jbV9jcl9pZnZvdGVyZHIvMTg0LTQ2MDk3MzEtNTI5ODg1MT9fZW5jb2Rpbmc9VVRGOCZha2lkPUFLSUFKRTdCUUg2V1IzQkE0M1JRJmFsaW5rQ29kZT1zcDEmYXNpbj1CMDBOT01VQVZLJmF0YWc9d2F0MDcyLTIwJmV4cD0yMDE1LTA0LTA2VDA1JTNBMjglM0EyOFombGlua0NvZGU9c3AxJnNpZz1QejlUd0ZON2hrR2FXSEhTcWNOYWduSmRNM2xCVEFHd2lNZktZdGlpYmlzJTNEJnN1bW1hcnk9MCZ0YWc9d2F0MDcyLTIwJnRydW5jYXRlPTAmdj0y&token=14997458EAEBE3C057BA597C6A67FD30DC9CB042&voteAnchorName=RI37JH7NL1NOS.2115.Helpful.Reviews&voteSessionID=184-4609731-5298851"><img src="http://g-ecx.images-amazon.com/images/G/01/x-locale/communities/reviews/btn-yes-sec-md._V192249951_.gif" width="35" alt="Yes" style="vertical-align:middle;" height="18" border="0" /></a>
<a rel="nofollow" class="votingButtonReviews noButton" href="http://www.amazon.com/gp/voting/cast/Reviews/2115/RI37JH7NL1NOS/Helpful/-1/ref=cm_cr_ifvoteyn/184-4609731-5298851?ie=UTF8&target=aHR0cDovL3d3dy5hbWF6b24uY29tL3Byb2R1Y3QtcmV2aWV3cy9CMDBOT01VQVZLL3JlZj1jbV9jcl9pZnZvdGVyZHIvMTg0LTQ2MDk3MzEtNTI5ODg1MT9fZW5jb2Rpbmc9VVRGOCZha2lkPUFLSUFKRTdCUUg2V1IzQkE0M1JRJmFsaW5rQ29kZT1zcDEmYXNpbj1CMDBOT01VQVZLJmF0YWc9d2F0MDcyLTIwJmV4cD0yMDE1LTA0LTA2VDA1JTNBMjglM0EyOFombGlua0NvZGU9c3AxJnNpZz1QejlUd0ZON2hrR2FXSEhTcWNOYWduSmRNM2xCVEFHd2lNZktZdGlpYmlzJTNEJnN1bW1hcnk9MCZ0YWc9d2F0MDcyLTIwJnRydW5jYXRlPTAmdj0y&token=1CF6F9559740F7EA18625157DEF2A6D3733DCA20&voteAnchorName=RI37JH7NL1NOS.2115.Helpful.Reviews&voteSessionID=184-4609731-5298851"><img src="http://g-ecx.images-amazon.com/images/G/01/x-locale/communities/reviews/btn-no-sec-md._V192249949_.gif" width="35" alt="No" style="vertical-align:middle;" height="18" border="0" /></a></nobr> <span class="votingMessage"></span></span>

</div></div><div style="float:left;"><div style="padding-left:15px;"><div style="white-space:nowrap;"><span class='tiny'>








<a name="RI37JH7NL1NOS.2115.Inappropriate.Reviews" style="font-size:1px;"> </a><span class="reportingButton"><nobr><a rel="nofollow" class="reportingButton" href="http://www.amazon.com/gp/voting/cast/Reviews/2115/RI37JH7NL1NOS/Inappropriate/1/ref=cm_cr_ifvoteyn/184-4609731-5298851?ie=UTF8&target=aHR0cDovL3d3dy5hbWF6b24uY29tL3Byb2R1Y3QtcmV2aWV3cy9CMDBOT01VQVZLL3JlZj1jbV9jcl9pZnZvdGVyZHIvMTg0LTQ2MDk3MzEtNTI5ODg1MT9fZW5jb2Rpbmc9VVRGOCZha2lkPUFLSUFKRTdCUUg2V1IzQkE0M1JRJmFsaW5rQ29kZT1zcDEmYXNpbj1CMDBOT01VQVZLJmF0YWc9d2F0MDcyLTIwJmV4cD0yMDE1LTA0LTA2VDA1JTNBMjglM0EyOFombGlua0NvZGU9c3AxJnNpZz1QejlUd0ZON2hrR2FXSEhTcWNOYWduSmRNM2xCVEFHd2lNZktZdGlpYmlzJTNEJnN1bW1hcnk9MCZ0YWc9d2F0MDcyLTIwJnRydW5jYXRlPTAmdj0y&token=C366F81D53200DA146474BE21750049989C1F2DB&voteAnchorName=RI37JH7NL1NOS.2115.Inappropriate.Reviews&voteSessionID=184-4609731-5298851"
>Report abuse</a></nobr></span>
</span> <span style="color:#CCCCCC;">|</span> <span class="tiny"><a href="http://www.amazon.com/review/RI37JH7NL1NOS/ref=cm_cr_if_perm/?ie=UTF8&ASIN=B00NOMUAVK&linkCode=sp1&tag=wat072-20" target="_top">Permalink</a></span></div><div style="white-space:nowrap;padding-left:-5px;padding-top:5px;"><a href="http://www.amazon.com/review/RI37JH7NL1NOS/ref=cm_cr_if_cmt/184-4609731-5298851?ie=UTF8&ASIN=B00NOMUAVK&linkCode=sp1&tag=wat072-20#wasThisHelpful" target="_top"><img src="http://g-ecx.images-amazon.com/images/G/01/x-locale/communities/discussion_boards/comment-sm._V192250344_.gif" width="16" alt="Comment" hspace="3" align="absmiddle" height="16" border="0" /></a>&nbsp;<a href="http://www.amazon.com/review/RI37JH7NL1NOS/ref=cm_cr_if_cmt/184-4609731-5298851?ie=UTF8&ASIN=B00NOMUAVK&linkCode=sp1&tag=wat072-20#wasThisHelpful" target="_top">Comment</a></div></div></div><div style="clear:both;"></div>
      </div>
      <br />

</div>

  


































<!-- BOUNDARY -->
<a name="R8PBZKRGBVW7T"></a><br />


<div style="margin-left:0.5em;">
    
      <div style="margin-bottom:0.5em;">
        <span style='margin-left: -5px;'><img src="http://g-ecx.images-amazon.com/images/G/01/x-locale/common/customer-reviews/stars-4-0._V192240704_.gif" width="64" alt="4.0 out of 5 stars" title="4.0 out of 5 stars" height="12" border="0" /> </span>
        <b>Not the easiest install, great fan, poor light source. Quite deep.</b>, <nobr>March 5, 2015</nobr>
      </div>
      <div style="margin-bottom:0.5em;">
        <div><div style="float:left;">By&nbsp;</div><div style="float:left;"><a href="http://www.amazon.com/gp/pdp/profile/ALLXLL5QPWZPG/ref=cm_cr_if_pdp/184-4609731-5298851?ie=UTF8&linkCode=sp1&tag=wat072-20" target="_top"><span style = "font-weight: bold;">A Customer</span></a>  - <a href="http://www.amazon.com/gp/cdp/member-reviews/ALLXLL5QPWZPG/ref=cm_cr_if_auth_rev/184-4609731-5298851?ie=UTF8&amp;linkCode=sp1&amp;sort_by=MostRecentReview&amp;tag=wat072-20" target="_top">See all my reviews</a></div></div><div style="clear:both;"></div>
      </div>
      <div class="tiny" style="margin-bottom:0.5em;">
        <span class="crVerifiedStripe"><b class="h3color tiny" style="margin-right: 0.5em;">Verified Purchase</b><span class="tiny verifyWhatsThis">(<a href="http://www.amazon.com/gp/community-help/amazon-verified-purchase/184-4609731-5298851" target="AmazonHelp" onclick="amz_js_PopWin('http://www.amazon.com/gp/community-help/amazon-verified-purchase/184-4609731-5298851', 'AmazonHelp', 'width=400,height=500,resizable=1,scrollbars=1,toolbar=0,status=1');return false; ">What's this?</a>)</span></span>
      </div>
      <div class="tiny" style="margin-bottom:0.5em;">
        <b><span class="h3color tiny">This review is from: </span>LG LMHM2237ST 2.2 Cubic Feet Over-The-Range Microwave Oven, Stainless Steel (Misc.)</b>
      </div>

Installation was difficult, because one of the supplied support bolts was either misthreaded or faulty. Could not get it to engage with the hole at all. Luckily, one of the supplied bolts meant for drywall installation was similarly sized, and it did engage. Used a washer to spread the load out from the smaller head. As far as prep, almost everything lined up from my previous microhood. I was able to use the same support bracket, same ducting, even the same support bolt hole on the left side. But why LG decided to go with an asymmetrical placement for the hole for the right side is beyond me. Also, the cord position was different, but I guess that placement isn't standardized. So I had to drill two holes.<br /><br />The fit side to side and vertically is the same as my old unit, but this one is several inches deeper. It extends out from the cabinets a good four inches. It's not unattractive, but it does limit vision of the stove controls a lot more then my old one did, as well as...






<a href="http://www.amazon.com/LG-LMHM2237ST-Over-The-Range-Microwave-Stainless/product-reviews/B00NOMUAVK/ref=cm_cr_if/184-4609731-5298851?ie=UTF8&linkCode=sp1&showViewpoints=0&tag=wat072-20#R8PBZKRGBVW7T" target="_top">Read more</a>
      <hr size="1" style="border-top: 1px dashed #ACACAC;"/><div style="padding-top: 10px; clear: both; width: 100%; display:none;">

  




        <div class="reviews-voting-stripe" style="float:left; padding-right:15px; border-right:1px solid #CCCCCC"><div style="padding-bottom:5px;"><b class="tiny" style="color:#666666;white-space:nowrap;">Help other customers find the most helpful reviews</b>&nbsp;</div><div style="width:300px;">









<a name="R8PBZKRGBVW7T.2115.Helpful.Reviews" style="font-size:1px;"> </a><span
class="crVotingButtons"><nobr><span class="votingPrompt">Was this review helpful to you?&nbsp;</span><a rel="nofollow" class="votingButtonReviews yesButton" href="http://www.amazon.com/gp/voting/cast/Reviews/2115/R8PBZKRGBVW7T/Helpful/1/ref=cm_cr_ifvoteyn/184-4609731-5298851?ie=UTF8&target=aHR0cDovL3d3dy5hbWF6b24uY29tL3Byb2R1Y3QtcmV2aWV3cy9CMDBOT01VQVZLL3JlZj1jbV9jcl9pZnZvdGVyZHIvMTg0LTQ2MDk3MzEtNTI5ODg1MT9fZW5jb2Rpbmc9VVRGOCZha2lkPUFLSUFKRTdCUUg2V1IzQkE0M1JRJmFsaW5rQ29kZT1zcDEmYXNpbj1CMDBOT01VQVZLJmF0YWc9d2F0MDcyLTIwJmV4cD0yMDE1LTA0LTA2VDA1JTNBMjglM0EyOFombGlua0NvZGU9c3AxJnNpZz1QejlUd0ZON2hrR2FXSEhTcWNOYWduSmRNM2xCVEFHd2lNZktZdGlpYmlzJTNEJnN1bW1hcnk9MCZ0YWc9d2F0MDcyLTIwJnRydW5jYXRlPTAmdj0y&token=BF0511D7C9FA65963A812FD27555AA02C32194DE&voteAnchorName=R8PBZKRGBVW7T.2115.Helpful.Reviews&voteSessionID=184-4609731-5298851"><img src="http://g-ecx.images-amazon.com/images/G/01/x-locale/communities/reviews/btn-yes-sec-md._V192249951_.gif" width="35" alt="Yes" style="vertical-align:middle;" height="18" border="0" /></a>
<a rel="nofollow" class="votingButtonReviews noButton" href="http://www.amazon.com/gp/voting/cast/Reviews/2115/R8PBZKRGBVW7T/Helpful/-1/ref=cm_cr_ifvoteyn/184-4609731-5298851?ie=UTF8&target=aHR0cDovL3d3dy5hbWF6b24uY29tL3Byb2R1Y3QtcmV2aWV3cy9CMDBOT01VQVZLL3JlZj1jbV9jcl9pZnZvdGVyZHIvMTg0LTQ2MDk3MzEtNTI5ODg1MT9fZW5jb2Rpbmc9VVRGOCZha2lkPUFLSUFKRTdCUUg2V1IzQkE0M1JRJmFsaW5rQ29kZT1zcDEmYXNpbj1CMDBOT01VQVZLJmF0YWc9d2F0MDcyLTIwJmV4cD0yMDE1LTA0LTA2VDA1JTNBMjglM0EyOFombGlua0NvZGU9c3AxJnNpZz1QejlUd0ZON2hrR2FXSEhTcWNOYWduSmRNM2xCVEFHd2lNZktZdGlpYmlzJTNEJnN1bW1hcnk9MCZ0YWc9d2F0MDcyLTIwJnRydW5jYXRlPTAmdj0y&token=DA67543DC41E3457B6C2D12B19A51277B43603CD&voteAnchorName=R8PBZKRGBVW7T.2115.Helpful.Reviews&voteSessionID=184-4609731-5298851"><img src="http://g-ecx.images-amazon.com/images/G/01/x-locale/communities/reviews/btn-no-sec-md._V192249949_.gif" width="35" alt="No" style="vertical-align:middle;" height="18" border="0" /></a></nobr> <span class="votingMessage"></span></span>

</div></div><div style="float:left;"><div style="padding-left:15px;"><div style="white-space:nowrap;"><span class='tiny'>








<a name="R8PBZKRGBVW7T.2115.Inappropriate.Reviews" style="font-size:1px;"> </a><span class="reportingButton"><nobr><a rel="nofollow" class="reportingButton" href="http://www.amazon.com/gp/voting/cast/Reviews/2115/R8PBZKRGBVW7T/Inappropriate/1/ref=cm_cr_ifvoteyn/184-4609731-5298851?ie=UTF8&target=aHR0cDovL3d3dy5hbWF6b24uY29tL3Byb2R1Y3QtcmV2aWV3cy9CMDBOT01VQVZLL3JlZj1jbV9jcl9pZnZvdGVyZHIvMTg0LTQ2MDk3MzEtNTI5ODg1MT9fZW5jb2Rpbmc9VVRGOCZha2lkPUFLSUFKRTdCUUg2V1IzQkE0M1JRJmFsaW5rQ29kZT1zcDEmYXNpbj1CMDBOT01VQVZLJmF0YWc9d2F0MDcyLTIwJmV4cD0yMDE1LTA0LTA2VDA1JTNBMjglM0EyOFombGlua0NvZGU9c3AxJnNpZz1QejlUd0ZON2hrR2FXSEhTcWNOYWduSmRNM2xCVEFHd2lNZktZdGlpYmlzJTNEJnN1bW1hcnk9MCZ0YWc9d2F0MDcyLTIwJnRydW5jYXRlPTAmdj0y&token=A6F65E72E966D38E35B4EE80ACB4B50223403B2A&voteAnchorName=R8PBZKRGBVW7T.2115.Inappropriate.Reviews&voteSessionID=184-4609731-5298851"
>Report abuse</a></nobr></span>
</span> <span style="color:#CCCCCC;">|</span> <span class="tiny"><a href="http://www.amazon.com/review/R8PBZKRGBVW7T/ref=cm_cr_if_perm/?ie=UTF8&ASIN=B00NOMUAVK&linkCode=sp1&tag=wat072-20" target="_top">Permalink</a></span></div><div style="white-space:nowrap;padding-left:-5px;padding-top:5px;"><a href="http://www.amazon.com/review/R8PBZKRGBVW7T/ref=cm_cr_if_cmt/184-4609731-5298851?ie=UTF8&ASIN=B00NOMUAVK&linkCode=sp1&tag=wat072-20#wasThisHelpful" target="_top"><img src="http://g-ecx.images-amazon.com/images/G/01/x-locale/communities/discussion_boards/comment-sm._V192250344_.gif" width="16" alt="Comment" hspace="3" align="absmiddle" height="16" border="0" /></a>&nbsp;<a href="http://www.amazon.com/review/R8PBZKRGBVW7T/ref=cm_cr_if_cmt/184-4609731-5298851?ie=UTF8&ASIN=B00NOMUAVK&linkCode=sp1&tag=wat072-20#wasThisHelpful" target="_top">Comment</a></div></div></div><div style="clear:both;"></div>
      </div>
      <br />

</div>

  












































<!-- BOUNDARY -->
<a name="R1O8KKI383AQ2P"></a><br />


<div style="margin-left:0.5em;">
    
      <div style="margin-bottom:0.5em;">
        2 of 3 people found the following review helpful
      </div>
      <div style="margin-bottom:0.5em;">
        <span style='margin-left: -5px;'><img src="http://g-ecx.images-amazon.com/images/G/01/x-locale/common/customer-reviews/stars-5-0._V192240867_.gif" width="64" alt="5.0 out of 5 stars" title="5.0 out of 5 stars" height="12" border="0" /> </span>
        <b>love it</b>, <nobr>December 11, 2014</nobr>
      </div>
      <div style="margin-bottom:0.5em;">
        <div><div style="float:left;">By&nbsp;</div><div style="float:left;"><a href="http://www.amazon.com/gp/pdp/profile/A3174NSFDNC75S/ref=cm_cr_if_pdp/184-4609731-5298851?ie=UTF8&linkCode=sp1&tag=wat072-20" target="_top"><span style = "font-weight: bold;">Shirley P. Harris</span></a> (Cove, OR, US)  - <a href="http://www.amazon.com/gp/cdp/member-reviews/A3174NSFDNC75S/ref=cm_cr_if_auth_rev/184-4609731-5298851?ie=UTF8&amp;linkCode=sp1&amp;sort_by=MostRecentReview&amp;tag=wat072-20" target="_top">See all my reviews</a></div></div><div style="clear:both;"></div>
      </div>
      <div class="tiny" style="margin-bottom:0.5em;">
        <span class="crVerifiedStripe"><b class="h3color tiny" style="margin-right: 0.5em;">Verified Purchase</b><span class="tiny verifyWhatsThis">(<a href="http://www.amazon.com/gp/community-help/amazon-verified-purchase/184-4609731-5298851" target="AmazonHelp" onclick="amz_js_PopWin('http://www.amazon.com/gp/community-help/amazon-verified-purchase/184-4609731-5298851', 'AmazonHelp', 'width=400,height=500,resizable=1,scrollbars=1,toolbar=0,status=1');return false; ">What's this?</a>)</span></span>
      </div>
      <div class="tiny" style="margin-bottom:0.5em;">
        <b><span class="h3color tiny">This review is from: </span>LG LMHM2237ST 2.2 Cubic Feet Over-The-Range Microwave Oven, Stainless Steel (Misc.)</b>
      </div>

<div class="reviewText">We love this microwave it is the best one I've ever had</div>
0      <hr size="1" style="border-top: 1px dashed #ACACAC;"/><div style="padding-top: 10px; clear: both; width: 100%; display:none;">

  




        <div class="reviews-voting-stripe" style="float:left; padding-right:15px; border-right:1px solid #CCCCCC"><div style="padding-bottom:5px;"><b class="tiny" style="color:#666666;white-space:nowrap;">Help other customers find the most helpful reviews</b>&nbsp;</div><div style="width:300px;">









<a name="R1O8KKI383AQ2P.2115.Helpful.Reviews" style="font-size:1px;"> </a><span
class="crVotingButtons"><nobr><span class="votingPrompt">Was this review helpful to you?&nbsp;</span><a rel="nofollow" class="votingButtonReviews yesButton" href="http://www.amazon.com/gp/voting/cast/Reviews/2115/R1O8KKI383AQ2P/Helpful/1/ref=cm_cr_ifvoteyn/184-4609731-5298851?ie=UTF8&target=aHR0cDovL3d3dy5hbWF6b24uY29tL3Byb2R1Y3QtcmV2aWV3cy9CMDBOT01VQVZLL3JlZj1jbV9jcl9pZnZvdGVyZHIvMTg0LTQ2MDk3MzEtNTI5ODg1MT9fZW5jb2Rpbmc9VVRGOCZha2lkPUFLSUFKRTdCUUg2V1IzQkE0M1JRJmFsaW5rQ29kZT1zcDEmYXNpbj1CMDBOT01VQVZLJmF0YWc9d2F0MDcyLTIwJmV4cD0yMDE1LTA0LTA2VDA1JTNBMjglM0EyOFombGlua0NvZGU9c3AxJnNpZz1QejlUd0ZON2hrR2FXSEhTcWNOYWduSmRNM2xCVEFHd2lNZktZdGlpYmlzJTNEJnN1bW1hcnk9MCZ0YWc9d2F0MDcyLTIwJnRydW5jYXRlPTAmdj0y&token=29FF5FE945E2B0D419CDB68381D106C2DDB226B6&voteAnchorName=R1O8KKI383AQ2P.2115.Helpful.Reviews&voteSessionID=184-4609731-5298851"><img src="http://g-ecx.images-amazon.com/images/G/01/x-locale/communities/reviews/btn-yes-sec-md._V192249951_.gif" width="35" alt="Yes" style="vertical-align:middle;" height="18" border="0" /></a>
<a rel="nofollow" class="votingButtonReviews noButton" href="http://www.amazon.com/gp/voting/cast/Reviews/2115/R1O8KKI383AQ2P/Helpful/-1/ref=cm_cr_ifvoteyn/184-4609731-5298851?ie=UTF8&target=aHR0cDovL3d3dy5hbWF6b24uY29tL3Byb2R1Y3QtcmV2aWV3cy9CMDBOT01VQVZLL3JlZj1jbV9jcl9pZnZvdGVyZHIvMTg0LTQ2MDk3MzEtNTI5ODg1MT9fZW5jb2Rpbmc9VVRGOCZha2lkPUFLSUFKRTdCUUg2V1IzQkE0M1JRJmFsaW5rQ29kZT1zcDEmYXNpbj1CMDBOT01VQVZLJmF0YWc9d2F0MDcyLTIwJmV4cD0yMDE1LTA0LTA2VDA1JTNBMjglM0EyOFombGlua0NvZGU9c3AxJnNpZz1QejlUd0ZON2hrR2FXSEhTcWNOYWduSmRNM2xCVEFHd2lNZktZdGlpYmlzJTNEJnN1bW1hcnk9MCZ0YWc9d2F0MDcyLTIwJnRydW5jYXRlPTAmdj0y&token=1C2CC398030845CE018790292CFBCB1E27360F4A&voteAnchorName=R1O8KKI383AQ2P.2115.Helpful.Reviews&voteSessionID=184-4609731-5298851"><img src="http://g-ecx.images-amazon.com/images/G/01/x-locale/communities/reviews/btn-no-sec-md._V192249949_.gif" width="35" alt="No" style="vertical-align:middle;" height="18" border="0" /></a></nobr> <span class="votingMessage"></span></span>

</div></div><div style="float:left;"><div style="padding-left:15px;"><div style="white-space:nowrap;"><span class='tiny'>








<a name="R1O8KKI383AQ2P.2115.Inappropriate.Reviews" style="font-size:1px;"> </a><span class="reportingButton"><nobr><a rel="nofollow" class="reportingButton" href="http://www.amazon.com/gp/voting/cast/Reviews/2115/R1O8KKI383AQ2P/Inappropriate/1/ref=cm_cr_ifvoteyn/184-4609731-5298851?ie=UTF8&target=aHR0cDovL3d3dy5hbWF6b24uY29tL3Byb2R1Y3QtcmV2aWV3cy9CMDBOT01VQVZLL3JlZj1jbV9jcl9pZnZvdGVyZHIvMTg0LTQ2MDk3MzEtNTI5ODg1MT9fZW5jb2Rpbmc9VVRGOCZha2lkPUFLSUFKRTdCUUg2V1IzQkE0M1JRJmFsaW5rQ29kZT1zcDEmYXNpbj1CMDBOT01VQVZLJmF0YWc9d2F0MDcyLTIwJmV4cD0yMDE1LTA0LTA2VDA1JTNBMjglM0EyOFombGlua0NvZGU9c3AxJnNpZz1QejlUd0ZON2hrR2FXSEhTcWNOYWduSmRNM2xCVEFHd2lNZktZdGlpYmlzJTNEJnN1bW1hcnk9MCZ0YWc9d2F0MDcyLTIwJnRydW5jYXRlPTAmdj0y&token=76DE354B0B5698E7B3F8EAF641017CA08617DAC5&voteAnchorName=R1O8KKI383AQ2P.2115.Inappropriate.Reviews&voteSessionID=184-4609731-5298851"
>Report abuse</a></nobr></span>
</span> <span style="color:#CCCCCC;">|</span> <span class="tiny"><a href="http://www.amazon.com/review/R1O8KKI383AQ2P/ref=cm_cr_if_perm/?ie=UTF8&ASIN=B00NOMUAVK&linkCode=sp1&tag=wat072-20" target="_top">Permalink</a></span></div><div style="white-space:nowrap;padding-left:-5px;padding-top:5px;"><a href="http://www.amazon.com/review/R1O8KKI383AQ2P/ref=cm_cr_if_cmt/184-4609731-5298851?ie=UTF8&ASIN=B00NOMUAVK&linkCode=sp1&tag=wat072-20#wasThisHelpful" target="_top"><img src="http://g-ecx.images-amazon.com/images/G/01/x-locale/communities/discussion_boards/comment-sm._V192250344_.gif" width="16" alt="Comment" hspace="3" align="absmiddle" height="16" border="0" /></a>&nbsp;<a href="http://www.amazon.com/review/R1O8KKI383AQ2P/ref=cm_cr_if_cmt/184-4609731-5298851?ie=UTF8&ASIN=B00NOMUAVK&linkCode=sp1&tag=wat072-20#wasThisHelpful" target="_top">Comment</a></div></div></div><div style="clear:both;"></div>
      </div>
      <br />

</div>

  



  </td>
</tr>
</table>
<br />
<div class="crIFrameCreateReview" >
  Share your thoughts with other customers:
  <span class="crIFrameCreateReviewButton"><a href="http://www.amazon.com/review/create-review/ref=cm_cr_if_wr/184-4609731-5298851?ie=UTF8&amp;asin=B00NOMUAVK&amp;linkCode=sp1&amp;nodeID=&amp;tag=wat072-20" target="_top"><img src="http://g-ecx.images-amazon.com/images/G/01/x-locale/communities/reviews/btn-create-own-review-md._V192249922_.gif" width="145" alt="" height="22" border="0" /></a></span>
</div>
<span class="small"><b><b class="h3color">&rsaquo;</b>&nbsp;<a href="http://www.amazon.com/LG-LMHM2237ST-Over-The-Range-Microwave-Stainless/product-reviews/B00NOMUAVK/ref=cm_cr_if_all_link/184-4609731-5298851?ie=UTF8&linkCode=sp1&showViewpoints=1&sortBy=bySubmissionDateDescending&tag=wat072-20" target="_top">See all 3 customer reviews...</a></b></span>






</div>
<script type='text/javascript'>
    
    window.ue_csm.cel_widgets = [
         {  id: "DAra1"  } , {  c: "celwidget"  } , {  id: "fallbacksessionShvl"  } , {  id: "rhf"  } 
    ];



</script>

<div id='be' style='display:none;visibility:hidden;'><form name='ue_backdetect'><input name='ue_back' value='1' type='hidden'></form><script type="text/javascript">
(function(a){var b=document.ue_backdetect;b&&b.ue_back&&a.ue&&(a.ue.bfini=b.ue_back.value);a.uet&&a.uet("be");a.onLdEnd&&(window.addEventListener?window.addEventListener("load",a.onLdEnd,!1):window.attachEvent&&window.attachEvent("onload",a.onLdEnd));a.ueh&&a.ueh(0,window,"load",a.onLd,1);a.ue&&a.ue.tag&&(a.ue_furl&&a.ue_furl.split?(b=a.ue_furl.split("."))&&b[0]&&a.ue.tag(b[0]):a.ue.tag("nofls"))})(ue_csm);


var ue_pty='CustomerReviews', ue_spty='IFrameMostHelpful', ue_pti='iframe';

</script>

<a href='http://www.amazon.com/gp/uedata/nvp/unsticky/184-4609731-5298851//ntpoffrw?tepes=1&amp;id=13W0EENCVE5D9185WZMQ'>v</a>
<noscript>
     <img src='http://www.amazon.com/gp/uedata/nvp/unsticky/184-4609731-5298851//ntpoffrw?noscript&amp;id=13W0EENCVE5D9185WZMQ&amp;pty=CustomerReviews&amp;spty=IFrameMostHelpful&amp;pti=iframe' />
     <img src='//fls-na.amazon.com/1/batch/1/OP/ATVPDKIKX0DER:184-4609731-5298851:13W0EENCVE5D9185WZMQ$uedata=s:%2Freviews%2Fiframe%2Fuedata%2Fnvp%2Funsticky%2F184-4609731-5298851%2FCustomerReviews%2Fntpoffrw%3Fnoscript%26id%3D13W0EENCVE5D9185WZMQ%26pty%3DCustomerReviews%26spty%3DIFrameMostHelpful%26pti%3Diframe:2000' />

</noscript>
</div>
<script type='text/javascript'>
(function(b,c){var a=c.images;a&&a.length&&b.ue.count("totalImages",a.length)})(ue_csm,document);

</script>
<script type='text/javascript'>
(function(c,d){var b=c.ue,a=d.navigator;b&&b.tag&&a&&(a=a.connection||a.mozConnection||a.webkitConnection)&&a.type&&b.tag("netInfo:"+a.type)})(ue_csm,window);

</script>
<script type="text/javascript">
//<![CDATA[
    try
    {
        parent.$('amazon_customer_reviews').style.width = '100%';
        parent.$('amazon_customer_reviews').style.display = 'block';
        parent.$('amazon_customer_reviews').style.height = getBodyHeight() + 'px';
    }
    catch(err)
    {
        // ---
    }

    function getBodyHeight()
    {
        var frameBody = document.body, frameHtml = document.documentElement, myHeight = 0;
        if (frameBody.scrollHeight > myHeight) myHeight = frameBody.scrollHeight;
        if (frameBody.offsetHeight > myHeight) myHeight = frameBody.offsetHeight;
        if (frameHtml.clientHeight > myHeight) myHeight = frameHtml.clientHeight;
        if (frameHtml.scrollHeight > myHeight) myHeight = frameHtml.scrollHeight;
        if (frameHtml.offsetHeight > myHeight) myHeight = frameHtml.offsetHeight;
        return myHeight;
    }
//]]>
</script></body>
</html>






















