


  
  









  
  












<html>
<head>
<script type="text/javascript">var ue_t0=ue_t0||+new Date();</script>
<script type="text/javascript">
var ue_hob=+new Date();

var ue_id='01JB80F25ZYFJG1J1W0T',
ue_csm = window,
ue_err_chan = 'jserr-rw',
ue = {};
(function(a){var d=a.ue=a.ue||{},f=Date.now||function(){return+new Date};d.d=function(b){return f()-(b?0:a.ue_t0)};d.stub=function(b,c){if(!b[c]){var e=[];b[c]=function(){e.push([e.slice.call(arguments),d.d(),a.ue_id])};b[c].replay=function(b){for(var a;a=e.shift();)b(a[0],a[1],a[2])};b[c].isStub=1}}})(ue_csm);

ue.stub(ue,"log");ue.stub(ue,"onunload");

(function(c,d){function e(f,b){if(!(a.ec>a.mxe)&&f){a.ec++;a.ter.push(f);b=b||{};var c=f.logLevel||b.logLevel;c&&c!=h||a.ecf++;b.pageURL=""+(d.location?d.location.href:"");b.logLevel=c;b.attribution=f.attribution||b.attribution;a.erl.push({ex:f,info:b})}}function g(a,b,d,e,g){c.ueLogError({m:a,f:b,l:d,c:""+e,err:g,fromOnError:1,args:arguments});return!1}var h="FATAL",a={ec:0,ecf:0,pec:0,ts:0,erl:[],ter:[],mxe:50,startTimer:function(){a.ts++;setInterval(function(){c.ue&&a.pec<a.ec&&c.uex("at");a.pec=
a.ec},1E4)}};g.skipTrace=1;e.skipTrace=1;e.isStub=1;c.ueLogError=e;c.ue_err=a;d.onerror=g})(ue_csm,window);



var ue_url='http://www.amazon.com/reviews/iframe/uedata/nvp/unsticky/186-2062508-4870257/CustomerReviews/ntpoffrw',
ue_sid='186-2062508-4870257',
ue_mid='ATVPDKIKX0DER',
ue_sn='www.amazon.com',
ue_furl='fls-na.amazon.com',
ue_navtiming=1,
ue_log_idx=0,
ue_fcsn=1,
ue_isrw=true,
ue_fpf='//fls-na.amazon.com/1/batch/1/OP/ATVPDKIKX0DER:186-2062508-4870257:01JB80F25ZYFJG1J1W0T$uedata=s:',
ue_lnb=0,
ue_lwl=0,
ue_ran=0,
ue_osfp=0,
ue_novizfix=0,
ue_qsl=7000,
ue_bli=0,
ue_blc=1,
ue_ueh=1,
ue_mce='click';
if (!window.ue_csm) {var ue_csm = window;}
function ue_viz(){(function(c,e,p){function k(a){if(c.ue.viz.length<q&&!l){var b=a.type;a=a.originalEvent;/^focus./.test(b)&&a&&(a.toElement||a.fromElement||a.relatedTarget)||(b=e[m]||("blur"==b||"focusout"==b?"hidden":"visible"),c.ue.viz.push(b+":"+(+new Date-c.ue.t0)),"visible"==b&&(ue.isl&&uex("at"),l=1))}}for(var l=0,a,f,g,m,n=["webkit","o","ms","moz",""],d=0,q=20,h=0;h<n.length&&!d;h++)if(a=n[h],f=(a?a+"H":"h")+"idden",d="boolean"==typeof e[f])g=a+"visibilitychange",m=1!=p.ue_novizfix?(a?a+"V":
"v")+"isibilityState":a+"VisibilityState";k({});d&&e.addEventListener(g,k,0);c.ue&&d&&(c.ue.pageViz={event:g,propHid:f})})(ue_csm,document,window)};

(function(a,f){function v(a){return a&&a.replace&&a.replace(/^\s+|\s+$/g,"")}function p(a){return"undefined"===typeof a}function t(d,c,b,k){k=k||+new Date;var f,m;if(c||p(b)){if(d)for(m in f=c?g("t",c)||g("t",c,{}):a.ue.t,f[d]=k,b)b.hasOwnProperty(m)&&g(m,c,b[m]);return k}}function g(d,c,b){var f=a.ue,g=c&&c!=f.id?f.sc[c]:f;g||(g=f.sc[c]={});"id"==d&&b&&(f.cfa2=1,a.ue_ran&&a.ue_cel&&a.ue_cel.reset(b));return g[d]=b||g[d]}function z(d,c,b,f,g){b="on"+b;var m=c[b];"function"===typeof m?d&&(a.ue.h[d]=
m):m=function(){};c[b]=g?function(a){f(a);m(a)}:function(a){m(a);f(a)};c[b].isUeh=1}function A(d,c,b){function k(c,b){var e=[c],D=0,f={},m,k;b?(e.push("m=1"),f[b]=1):f=a.ue.sc;for(k in f)if(f.hasOwnProperty(k)){var h=g("wb",k),l=g("t",k)||{},q=g("t0",k)||a.ue.t0,n;if(b||2==h){h=h?D++:"";e.push("sc"+h+"="+k);for(n in l)3>=n.length&&!p(l[n])&&null!==l[n]&&e.push(n+h+"="+(l[n]-q));e.push("t"+h+"="+l[d]);if(g("ctb",k)||g("wb",k))m=1}}!w&&m&&e.push("ctb=1");return e.join("&")}function y(c,b,e,d){if(c){var g=
new Image,k=!d||!a.ue.log||!(f.amznJQ||f.P)||f.amznJQ&&f.amznJQ.Ok,h=a.ue_err;1!=a.ue_osfp&&k&&(a.ue.iel.push(g),g.src=c);3!=a.ue_osfp&&(E?a.ue_fpf&&f.encodeURIComponent&&c&&(d=new Image,c=""+a.ue_fpf+f.encodeURIComponent(c)+":"+(+new Date-a.ue_t0),a.ue.iel.push(d),d.src=c):a.ue.log&&(g=f.chrome&&"ul"==b,a.ue.log(c,"uedata",a.ue_svi?{n:1,img:!d&&g?1:0}:{n:1}),a.ue.ielf.push(c)));h&&!h.ts&&h.startTimer();a.ue.b&&(h=a.ue.b,a.ue.b="",y(h,b,e,1))}}function m(c){if(!ue.collected){var b=c.timing,e=c.navigation,
d=ue.t;b&&(d.na_=b.navigationStart,d.ul_=b.unloadEventStart,d._ul=b.unloadEventEnd,d.rd_=b.redirectStart,d._rd=b.redirectEnd,d.fe_=b.fetchStart,d.lk_=b.domainLookupStart,d._lk=b.domainLookupEnd,d.co_=b.connectStart,d._co=b.connectEnd,d.sc_=b.secureConnectionStart,d.rq_=b.requestStart,d.rs_=b.responseStart,d._rs=b.responseEnd,d.dl_=b.domLoading,d.di_=b.domInteractive,d.de_=b.domContentLoadedEventStart,d._de=b.domContentLoadedEventEnd,d._dc=b.domComplete,d.ld_=b.loadEventStart,d._ld=b.loadEventEnd,
b=d.na_,c="function"!==typeof c.now||p(b)?0:new Date(b+c.now())-new Date,d.ntd=c+a.ue.t0);e&&(d.ty=e.type+a.ue.t0,d.rc=e.redirectCount+a.ue.t0);ue.collected=1}}function s(b){var c=n&&n.navigation?n.navigation.type:x,d=c&&2!=c,e=a.ue.bfini;a.ue.cfa2||(e&&1<e&&(b+="&bfform=1",d||(a.ue.isBFT=e-1)),2==c&&(b+="&bfnt=1",a.ue.isBFT=a.ue.isBFT||1),a.ue.ssw&&a.ue.isBFT&&(p(a.ue.isNRBF)&&(c=a.ue.ssw(a.ue.oid),c.e||p(c.val)||(a.ue.isNRBF=1<c.val?0:1)),p(a.ue.isNRBF)||(b+="&nrbf="+a.ue.isNRBF)),a.ue.isBFT&&!a.ue.isNRBF&&
(b+="&bft="+a.ue.isBFT));return b}if(c||p(b)){for(var q in b)b.hasOwnProperty(q)&&g(q,c,b[q]);t("pc",c,b);q=g("id",c)||a.ue.id;var e=a.ue.url+"?"+d+"&v="+a.ue.v+"&id="+q,w=g("ctb",c)||g("wb",c),n=f.performance||f.webkitPerformance,h,l;w&&(e+="&ctb="+w);1<a.ueinit&&(e+="&ic="+a.ueinit);!a.ue._fi||"at"!=d||c&&c!=q||(e+=a.ue._fi());if(!("ld"!=d&&"ul"!=d||c&&c!=q)){if("ld"==d){f.onbeforeunload&&f.onbeforeunload.isUeh&&(f.onbeforeunload=null);if(f.chrome)for(l=0;l<ue.ulh.length;l++)B("beforeunload",ue.ulh[l]);
(l=document.ue_backdetect)&&l.ue_back&&l.ue_back.value++;a._uess&&(h=a._uess());a.ue.isl=1}a.ue_navtiming&&n&&n.timing&&(g("ctb",q,"1"),1==a.ue_navtiming&&t("tc",x,x,n.timing.navigationStart));n&&m(n);a.ue.t.hob=a.ue_hob;a.ue.t.hoe=a.ue_hoe;a.ue.ifr&&(e+="&ifr=1")}t(d,c,b);b="ld"==d&&c&&g("wb",c);var u;b?g("wb",c,2):"ld"==d&&(r.lid=v(q));for(u in a.ue.sc)if(1==g("wb",u))break;if(b){if(a.ue.s)return;e=k(e,null)}else l=k(e,null),l!=e&&(l=s(l),a.ue.b=l),h&&(e+=h),e=k(e,c||a.ue.id);e=s(e);if(a.ue.b||
b)for(u in a.ue.sc)2==g("wb",u)&&delete a.ue.sc[u];h=0;ue._rt&&(e+="&rt="+ue._rt());ue._bf&&(e+="&bf="+ue._bf());b||(a.ue.s=0,(h=a.ue_err)&&0<h.ec&&h.pec<h.ec&&(h.pec=h.ec,e+="&ec="+h.ec+"&ecf="+h.ecf),h=g("ctb",c),g("t",c,{}));e&&a.ue.tag&&0<a.ue.tag().length&&(e+="&csmtags="+a.ue.tag().join("|"),a.ue.tag=a.ue.tagC());e&&a.ue.viz&&0<a.ue.viz.length&&(e+="&viz="+a.ue.viz.join("|"),a.ue.viz=[]);e&&!p(a.ue_pty)&&(e+="&pty="+a.ue_pty+"&spty="+a.ue_spty+"&pti="+a.ue_pti);e&&a.ue.tabid&&(e+="&tid="+a.ue.tabid);
e&&a.ue.aftb&&(e+="&aftb=1");!a.ue._ui||c&&c!=q||(e+=a.ue._ui());a.ue.count&&1===a.ue_blc&&a.ue.count("baselineCounter1",1);a.ue.a=e;y(e,d,h,b)}}function s(a,c,b){b=b||f;b.addEventListener?b.addEventListener(a,c,!1):b.attachEvent&&b.attachEvent("on"+a,c)}function B(a,c,b){b=b||f;b.removeEventListener?b.removeEventListener(a,c,!1):b.detachEvent&&b.detachEvent("on"+a,c)}function C(){function d(){a.onUl()}function c(a){return function(){b[a]||(b[a]=1,A(a))}}var b=a.ue.r,g,p;a.onLd=c("ld");a.onLdEnd=
c("ld");a.onUl=c("ul");g={stop:c("os")};f.chrome?(s("beforeunload",d),ue.ulh.push(d)):g[F]=a.onUl;for(p in g)g.hasOwnProperty(p)&&z(0,f,p,g[p]);a.ue_viz&&ue_viz();s("load",a.onLd);t("ue")}a.ueinit=(a.ueinit||0)+1;var r={t0:f.aPageStart||a.ue_t0,id:a.ue_id,url:a.ue_url,rid:a.ue_id,a:"",b:"",h:{},r:{ld:0,oe:0,ul:0},s:1,t:{},sc:{},iel:[],ielf:[],fc_idx:{},viz:[],v:"0.458.1",d:a.ue&&a.ue.d,log:a.ue&&a.ue.log,onunload:a.ue&&a.ue.onunload,stub:a.ue&&a.ue.stub,lr:a.ue&&a.ue.lr,ulh:[],cfa2:0},E=a.ue_fpf?
1:0,F="beforeunload",x;r.oid=v(r.id);r.lid=v(r.id);a.ue=r;a.ue._t0=a.ue.t0;a.ue.tagC=function(){var a={};return function(c){c&&(a[c]=1);c=[];for(var b in a)a.hasOwnProperty(b)&&c.push(b);return c}};a.ue.tag=a.ue.tagC();a.ue.ifr=f.top!==f.self||f.frameElement?1:0;ue.attach=s;ue.detach=B;ue.reset=function(d,c){d&&(a.ue_cel&&a.ue_cel.reset(),a.ue.t0=+new Date,a.ue.rid=d,a.ue.id=d,a.ue.fc_idx={},a.ue.viz=[])};a.uei=C;a.ueh=z;a.ues=g;a.uet=t;a.uex=A;C()})(ue_csm,window);



(function(g){var a=g.ue;a.cv={};a.cv.scopes={};a.count=function(d,e,b){var c={},f=a.cv;c.counter=d;c.value=e;c.t=a.d();b&&b.scope&&(f=a.cv.scopes[b.scope]=a.cv.scopes[b.scope]||{},c.scope=b.scope);if(void 0===e)return f[d];f[d]=e;a.log&&a.log(c,"csmcount",{c:1})};3===g.ue_blc&&a.count("baselineCounter2",1)})(ue_csm);

var ue_hoe=+new Date();
</script>

























<link href='http://z-ecx.images-amazon.com/images/G/01/nav2/gamma/websiteGlobalCSS/websiteGlobalCSS-websiteGlobal-10346._V1_.css' type='text/css' rel='stylesheet'>
<style type="text/css"><!--

.sans, .small, .h1, .h3color, .big, .tiny, .tinyprice, .highlight, .eyebrow,
    a:active, a:visited, a:link, div.unified_widget p.seeMore,
    div.unified_widget .carat, div.left_nav .carat, div.left_nav, div.left_nav
    h2, div.left_nav h3, div.left_nav a:link, div.left_nav a:visited,
    .popover-tiny, .horizontal-search, .horizontal-websearch, .topnav,
    .topnav-active a:link, .tabon a, .tabon a:visited, .taboff a, .taboff
    a:visited div.leftnav_popover h2, .signInMsg{
  font-family: verdana,arial,helvetica,sans-serif;
}
.listprice {
  font-family: arial,verdana,helvetica,sans-serif;
}
.price {
  font-family: arial,verdana,helvetica,sans-serif;
}
.serif, .sans, .h1, div.unified_widget .headline{
  font-size: medium;
}
.big {
  font-size: xx-large;
}
.small, .h3color, .highlight, .horizontal-search {
  font-size: small;
}
.signInMsg {
  font-size: x-small;
}
.tiny, .tinyprice, .popover-tiny, .horizontal-websearch {
  font-size: x-small;
}
body, td, th {
  font-family: verdana,arial,helvetica,sans-serif;
  font-size: small;
}
.eyebrowBackGroundColor {
  background-color: ;
}
div.left_nav, div.left_nav a:link, div.left_nav a:visited {
  font-family: Arial, sans-serif;
}

body {
  color: #000000;
  margin-top: 0px;
}
--></style> 




<style type="text/css"><!--

.crAuthorInfo {
  font-family:               verdana;
  font-size:                 0.86em;
  margin-left:               80px;
}

.crAuthorInfoCredibility {
  font-family:               verdana;
  font-size:                 0.86em;
}

.crBlue-bevel {
  background:                url(http://g-ecx.images-amazon.com/images/G/01/x-locale/communities/reviews/sliced-box-tbevel._V192249888_.gif) repeat-x top;
  height:                    1.45em;
}

.crBlueBorder-tl {
  background:                url(http://g-ecx.images-amazon.com/images/G/01/x-locale/communities/reviews/border-box-tl._V192249923_.gif) no-repeat top left;
  width:                     1em;
}
                                                                                                                                                             
.crBlueBorder-tc {
  background:                url(http://g-ecx.images-amazon.com/images/G/01/x-locale/communities/reviews/border-box-tc._V192249922_.gif) repeat-x top;
}
                                                                                                                                                             
.crBlueBorder-tr {
  background:                url(http://g-ecx.images-amazon.com/images/G/01/x-locale/communities/reviews/border-box-tr._V192249949_.gif) no-repeat top right;
  width:                     1em;
}
                                                                                                                                                             
.crBlueBorder-bl {
  background:                url(http://g-ecx.images-amazon.com/images/G/01/x-locale/communities/reviews/border-box-bl._V192249926_.gif) no-repeat bottom left;
}
                                                                                                                                                             
.crBlueBorder-bc {
  background:                url(http://g-ecx.images-amazon.com/images/G/01/x-locale/communities/reviews/border-box-bc._V192249923_.gif) repeat-x bottom;
}
                                                                                                                                                             
.crBlueBorder-br {
  background:                url(http://g-ecx.images-amazon.com/images/G/01/x-locale/communities/reviews/border-box-br._V192249923_.gif) no-repeat bottom right;
}

.crBox {
  background:                #DFEDF7;
  padding:                   0.2em 1.5em 0.2em 1.5em;
}

.crBox-tl {
  background:                #DFEDF7 url(http://g-ecx.images-amazon.com/images/G/01/x-locale/communities/reviews/box-tl._V192249949_.gif) no-repeat top left;
}

.crBox-tc {
  background:                url(http://g-ecx.images-amazon.com/images/G/01/x-locale/communities/reviews/box-tc._V192249950_.gif) repeat-x top;
}

.crBox-tr {
  background:                url(http://g-ecx.images-amazon.com/images/G/01/x-locale/communities/reviews/box-tr._V192249948_.gif) no-repeat top right;
}

.crBox-bl {
  background:                #DFEDF7 url(http://g-ecx.images-amazon.com/images/G/01/x-locale/communities/reviews/box-bl._V192249921_.gif) no-repeat bottom left;
}

.crBox-bc {
  background:                url(http://g-ecx.images-amazon.com/images/G/01/x-locale/communities/reviews/box-bc._V192249923_.gif) repeat-x bottom;
}

.crBox-br {
  background:                url(http://g-ecx.images-amazon.com/images/G/01/x-locale/communities/reviews/box-br._V192249949_.gif) no-repeat bottom right;
}

.crColumnEndMarker {
  clear:                     both;
  height:                    13px;
  background-image:          url(http://g-ecx.images-amazon.com/images/G/01/x-locale/communities/people/column-bottom-edge._V192250335_.gif);
  background-repeat:         no-repeat;
}

.crColumnEndMarker .rightEdge {
  float:                     right;
  background-image:          url(http://g-ecx.images-amazon.com/images/G/01/x-locale/communities/people/column-bottom-edge-right._V192250334_.gif);
  background-position:       right top;
  background-repeat:         no-repeat;
  width:                     13px;
  height:                    13px;
}


.crCdDotsBottom {
  clear:                     both;
  padding:                   1px;;
  font-size:                 0.0625em;
  margin:                    0 0 5px 0;
  background-image:          url(http://g-ecx.images-amazon.com/images/G/01/x-locale/communities/people/dotborder._V192250320_.gif);
  background-repeat:         repeat-x;
  background-position:       center;
}

.crDescription {
  font-family:               verdana;
  margin-left:               80px;
}


.crErrorMsg {
  color:                     red;
  font-weight:               bold;
}

.crFanlink {
  text-decoration: 	     none; 
  border-top-width:          0; 
  border-right-width:        0; 
  border-bottom-width:       1px;
  border-left-width:         0;
  border-top-color:          #146EB4;
  border-right-color:        #146EB4;
  border-bottom-color:       #146EB4;
  border-left-color:         #146EB4;
  border-top-style:          none;
  border-right-style:        none;
  border-bottom-style:       dashed;
  border-left-style:         none;
  color:                     #003399; 
}

.crFinePrint {
  font-size:                 0.7em;
  margin-top:                0.7em;
}

.crForm {
  width:                     100%;
  display:                   block;
}

.crHeaderText {
  color:                     #CC6600;
  padding-left:              0;
  padding-bottom:            5px;
  font-family:               helvetica,
  font-size:                 13px;
  font-weight:               bold;
  float:                     top;
  float:                     left;
}

h2.crHeading {
  color:                     #E47911;
  font-family:               Verdana,Helvetica,sans-serif;
  font-size:                 130%;
  margin:                    0 0 3px;
  padding-left:              0px;
}

h3.crHeading {
  color:                     #E47911;
  font-family:               Verdana,Helvetica,sans-serif;
  font-size:                 100%;
  margin:                    0 0 10px;
}

.crHeading {
  color:                     #c60;
  font-family:               sans-serif;
  font-size:                 1.5em;
  font-weight:               bold;
  padding-bottom:            0.5em;
  padding-left:              0.5em;
}

.crInnerBox {
  padding:                   0.6em 2em 0.6em 2em;
  background:                #EFF5F9;
  clear:                     both;
}

.crInnerBox-tl {
  background:                #EFF5F9 url(http://g-ecx.images-amazon.com/images/G/01/x-locale/communities/reviews/innerbox-tl._V192249896_.gif) no-repeat top left;
  clear: both;
}

.crInnerBox-tr {
  background:                #EFF5F9 url(http://g-ecx.images-amazon.com/images/G/01/x-locale/communities/reviews/innerbox-tr._V192249895_.gif) no-repeat top right;
  clear: both;
}

.crInnerBox-bl {
  background:                #EFF5F9 url(http://g-ecx.images-amazon.com/images/G/01/x-locale/communities/reviews/innerbox-bl._V192249902_.gif) no-repeat bottom left;
}

.crInnerBox-br {
  background:                url(http://g-ecx.images-amazon.com/images/G/01/x-locale/communities/reviews/innerbox-br._V192249902_.gif) no-repeat bottom right;
}

.crInputTitle {
  font-weight:               bold;
  vertical-align:            middle; 
}

.crInputFinePrint {
  color:                     #6E6E6E; 
  font-size:                 0.7em;
  padding-bottom:            1.5em; 
}

.crInput {
  padding:                   0em 0em 1.5em 0em;
  vertical-align:            middle;
}

.crInputFormField {
  font-family:               arial, helvetica, sans-serif;
}

.crInstruction {
  padding-bottom:            0.4em;
  float:                     left;
}

.crProductLinks {
  padding-bottom:            0.4em;
  float:                     right;
  vertical-align:            top;  
}

.crLargerTitle {
  font-family:               verdana, arial, helvetica, sans-serif;
  font-size:                 1.6em;
  color:                     #c60;
  padding-bottom:            5px;
  padding-top:               10px;
}

.crLine {
  clear:                     both;
  border:                    0;
  height:                    2px;
  color:                     #CADFE9;
  background-color:          #CADFE9;
  noshade:                   noshade;
}

.crPrevLeftButton {
  padding-left:              15px; 
  margin-bottom:             0px;
}

.crPrevRightButton {
  margin-bottom:             0px;
}

.crPicture {
  clear:                     both;
  float:                     left;
  text-align:                center;
  width:                     80px;
  overflow:                  hidden;
  padding-top:               0.2em;
}

.crReviewHeader  {
  font-family:               Verdana, Arial, Helvetica, sans-serif;
  font-size:                 1.5em;
  font-weight:               bold;
  color:                     #e47911;
  margin-top:                5px;
}

.crReviewSumBox {
  height:                    36px;
  background-image:          url(http://g-ecx.images-amazon.com/images/G/01/x-locale/communities/people/column-eyebrow-visitor._V192250334_.gif);
  background-repeat:         no-repeat;
  font-family:               verdana;
  font-size:                 36px;
}

.crReviewSumBox .titleText {
  float:                     left;
  font-weight:               bold;
  padding-left:              10px;
  padding-top:               10px;
  font-size:                 13px;
  font-family:               verdana;
  color:                     #000000;
  white-space:               nowrap;
}

.crReviewSumBox .rightEdge {
  background-image:          url(http://g-ecx.images-amazon.com/images/G/01/x-locale/communities/people/column-eyebrow-visitor-right._V192250335_.gif);
  width:                     12px;
  height:                    36px;
  background-repeat:         no-repeat;
  padding:                   0;
  float:                     right;
}

.crSectionTitle {
  color:                     #E57310;
  font-size:                 16px;
  font-weight:               bold;
  margin-top:                5px;
  margin-bottom:             5px;
}

.crProductReviewsSummary .crSolicitation {
  margin-top:               -20px;
}

.crSideHeading {
  color:                     #c60;
  font-weight:               bold;
  text-align:                center;
  padding-top:               0.4em;
}

.crStepNum {
  vertical-align:            top;
  padding:                   0em 0.6em 1.5em 0em;
}


.crTanBorder-tl {
  background:                url(http://g-ecx.images-amazon.com/images/G/01/x-locale/communities/boxes/boxfill/innerbox-tl._V192251350_.gif) no-repeat top left;
  width:                     1em;
}
                                                                                                                                                             
.crTanBorder-tc {
  background:                url(http://g-ecx.images-amazon.com/images/G/01/x-locale/communities/boxes/boxfill/innerbox-tc._V192251344_.gif) repeat-x top;
}
                                                                                                                                                             
.crTanBorder-tr {
  background:                url(http://g-ecx.images-amazon.com/images/G/01/x-locale/communities/boxes/boxfill/innerbox-tr._V192244553_.gif) no-repeat top right;
  width:                     1em;
}
                                                                                                                                                             
.crTanBorder-bl {
  background:                url(http://g-ecx.images-amazon.com/images/G/01/x-locale/communities/boxes/boxfill/innerbox-bl._V192251348_.gif) no-repeat bottom left;
}
                                                                                                                                                             
.crTanBorder-bc {
  background:                url(http://g-ecx.images-amazon.com/images/G/01/x-locale/communities/boxes/boxfill/innerbox-bc._V192241903_.gif) repeat-x bottom;
}
                                                                                                                                                             
.crTanBorder-br {
  background:                url(http://g-ecx.images-amazon.com/images/G/01/x-locale/communities/boxes/boxfill/innerbox-br._V192241895_.gif) no-repeat bottom right;
}

.crTextAreaHeader {
  background:                #B6CFE5;
  padding:                   0.4em 0em 0.4em 0em;
  width:                     620px;
}

.crTextTab {
  width:                     30%;
  float:                     left;
  white-space:               nowrap;
}

.crTextTabHeading {
  padding:                   0.3em 0 0.7em 0.6em;
}

.crThreadHeader {
  color:                     #CC6600;
  font-weight:               bold;
  float:                     left;
}

.crTipsBoxHeader {
  font-size:                 0.90em;
  font-weight:               bold;
  margin-bottom:             10px;
  margin-top:                10px;
}

.crTipsBoxTitle {
  color:                     #CC6600;
  font-size:                 1.1em;
  font-weight:               bold;
  margin-bottom:             10px;
}

h1.crTitle {
  color:                     #E47911;
  font-family:               Arial, Helvetica, sans-serif;
  font-size:                 218%;
  letter-spacing:            -0.03em;
  margin:                    0;
  padding:                   0;
}

.crTitle {
  font-family:               verdana, arial, helvetica, sans-serif;
  font-size:                 1.4em;
  font-weight:               bold;
}

.crTab-tl {
  background:                #EFF5F9 url(http://g-ecx.images-amazon.com/images/G/01/x-locale/communities/reviews/innerbox-tl._V192249896_.gif) no-repeat top left;
}

.crTab-tr {
  background:                url(http://g-ecx.images-amazon.com/images/G/01/x-locale/communities/reviews/innerbox-tr._V192249895_.gif) no-repeat top right;
}

.crVideoUpload {
  background:                #FFFFFF;
  border:                    0.1em solid #7F9DB9;
  text-align:                center;
  padding:                   0.4em;
}

.crVidTab {
  width:                     70%;
  float:                     left;
  white-space:               nowrap;
}

.crVidTabHeading {
  padding:                   0.3em 0 0.7em 0.6em;
}

table.crDataGrid th {
  background-color:          #EEEEEE;
  font-weight:               normal;
  font-size:                 70%;
  text-align:                left;
  color:                     #666666;
}

table.crDataGrid td {
  border-bottom:            1px solid #CCCCCC;
}

table.crDataGrid .img {
  height:                   92px;
}

table.crDataGrid .crNum {
  text-align:               right;
}

table.crDataGrid .crNumPercentHelpful {
  text-align:               right;
  padding-right:20px;
}

table.crDataGrid .crNumFanVoters {
  text-align:               right;
  border-left: solid 1px #cccccc;
}

ul.crBigBullet {
  margin:                    0em;
  padding:                   0em;
  list-style-image:          url(http://g-ecx.images-amazon.com/images/G/01/x-locale/communities/reviews/big-bullet._V192249925_.gif);
}

ul.crSmallBullet {

  padding-left:              0;
  margin:                    0.4em 0em 0.6em 1.5em;
  list-style-image:          url(http://g-ecx.images-amazon.com/images/G/01/x-locale/communities/reviews/small-bullet._V192249889_.gif);
}


.srCreateReview td.name {
  padding-left: 9px;
}

.srCreateReview .srPopoverList table.srList td a {
  margin-left: 0px;
}

.srCreateReview .srPopoverList table.srList td.name span.newAttribute {
  margin-left: 0px;
  color:       #000000;
}

.srCreateReview .srPopoverFooter {
  padding-left: 9px;
  padding-top:  9px;
}

.srCreateReview .srPopoverContentSection .heading {
  font-weight: normal;
}

#structuredRatingsList .cBox {
  width: 375px;
}

.structuredRatingsVisibilityLink {
  line-height: 2.5em;
  font-size: 0.86em;
}

.structuredRatingsVisibilityLinkText {
  margin-left: 5px;
}

#structuredRatingsListHelp {
  font-size: 0.86em;
  font-weight: normal;
}

#structuredRatingsList .srpopover .scrollSection {
  height: 210px;
}

.crVerifiedNew {
  font-size: 0.86em;
  font-weight: bold;
  color: #009900;
  margin-right: 0.5em;
} 

.crVerifyLearnMore {
  margin-left: 0.5em;
}

.crVerifiedPurchaseInputs {
  display: block;
  margin-bottom: 1em;
}

.crVerifiedBackfillSuboption {
  display: block;
  margin-left: 2em;
}

div.crCommentThread .cmPage {
  margin-left: 5px;
}

div#cdNonReplyPostBoxButton {
  margin-bottom: 40px;
}

#rdpItemInfo .crAvgStars {
  font-size: 10px;
}

.crIneligibleHeader {
  padding: 15px 9px 0 6px;
  color:                     #E47911;
  font-weight: 	             bold;
  font-size:                 218%;
  margin:                    0;
}

.crIneligibleMessage {
  font-size: 12px;
  border: solid 1px #0071B5;
  position: relative;
  background-color: #ffffdd;
  border-color: #E47911;
  padding: 18px 50px 18px 20px;
  margin: 10px 0 40px 10px;
}
.crIneligibleMessageImage {
  position: absolute;
}
.crIneligibleMessageHeader {
  font-size: 18px;
  font-weight: bold;
  margin: 0 0 4px 45px;
  padding: 0;
}
.crIneligibleMessageText {
  font-size:13px;
  margin: 0 0 6px 45px;
  width: 100%;
}


.crIFrame {
  margin: 10px;
}

.crIFrameLogo {
  margin-bottom: 20px;
}

.crIFrameHeaderLeftColumn {
  float: left;
  margin-right: 20px;
}

.crIFrameHeaderTitle {
  font-size:      24px;
  letter-spacing: -1px;
}

.crIFrameHeaderHistogram {
  float: left;
}

.crIFrameError {
  border-top:    1px solid #D1E6F7;
  border-bottom: 1px solid #D1E6F7;

  text-align:          center;
  line-height:         24px;
  width:               360px;
  padding:             20px;
  margin-top:          20px;
}

.crIFrameErrorText {
  font-size:  14px;
  font-weight: bold;
}

.crIFrameCreateReview {
  margin-bottom:   3px;
  white-space:     nowrap;
}

.crIFrameCreateReviewButton {
  vertical-align:  middle;
}

.crIFrameAverageReviewText {
  align: left;
  font-weight: bold;
}

.crIFrameNumCustReviews {
   white-space: nowrap;
}

.crIFrameReviewList {
  width: 100%;
  clear: left;
}


.CMheadingBar {
  background:url(http://g-ecx.images-amazon.com/images/G/01/nav2/images/gui/tile-blue-bg._V46870869_.gif) repeat-x;
  border-top:1px solid #BADAE8;
  border-bottom:1px solid #BADAE8;
  padding:6px;
}

.CMpaginate {
  color:#666;
}

.CMpaginate .on {
  border:1px solid #CC6600;
  padding:3px;
  background-color:white;
  color:#CC6600;
  text-decoration:none;
}

.CMpaginate a:link,
.CMpaginate a:visited {
  padding:4px;
  text-decoration:none;
}

.CMpaginate a:hover {
  padding:3px;
  background-color:white;
  border:1px solid #CC6600;
  color:#CC6600;
}

a.areaLink, a.areaLink:visited {
  text-decoration: none;
  color: black;
  display: block;
}

.areaLink .innerLink {
  white-space: nowrap;
  text-decoration: underline;
  color: #039;
}

div.crVS {
  width:       46%;
  text-align:  center;
  white-space: nowrap;
}

.crClear { clear: both; }
.crLeft { float: left; }
.crRight { float: right; }

.attr-sheet { padding-left:5px; }
.attr-sheet ul { margin-left: 31px; padding: 0; list-style: none; border: solid 1px #eee; border-radius: 5px; }
.attr-sheet ul li { padding: 5px; }
.attr-sheet li.alt { background: #F8F5D8 }
.attr-sheet li .label { font-weight: bold }
.attr-sheet li .vm { vertical-align: middle; }
.attr-sheet li .option-line { width: 100%; line-height: 1.75em; }
.attr-sheet li .option-line .label { float: left; width: 35%; max-width: 300px }
.attr-sheet li .option-line .option { float: left; width: 30%; max-width: 200px }
.attr-sheet li .option-undo { float: right; font-size: xx-small; display:none; }
.attr-sheet li .textbar-text { margin-top: 2px; clear: both; }
.attr-sheet li .textbar .empty { width: 35%; max-width: 300px; float:left; }
.attr-sheet li .textbar input { width: 50%; margin-left:5px; float:left; }
.attr-sheet li .textbar .blur { color: #999; }
.attr-preview .boldLabel { font-weight: bold }
.attr-preview .head { padding: 20px 0 0 25px }
.attr-preview .head-detail { padding-top: 5px }
.attr-preview .line { padding: 5px 0 15px 0 }
.attr-preview .lines { padding: 10px 0 0 25px }

.rypWgtDiv { margin-bottom: 20px; }

.rypWgtImgLink { 
    display: block;
    width: 300px;
    height: 97px;
    background: url('http://g-ecx.images-amazon.com/images/G/01/x-locale/communities/reviews/ryp-page-image2sprite._V399712482_.png') top;
    text-indent: -10000px;
}
.rypWgtImgLink:hover {
	background-position: bottom;
} 

--></style>

<META NAME="ROBOTS" CONTENT="NOINDEX, NOFOLLOW">

<script type="text/javascript">

var amznJQ,jQueryPatchIPadOffset=false;
(function() {
  function f(x) {return function(){x.push(arguments);}}
  function ch(y) {return String.fromCharCode(y);}
  var a=[],c=[],cs=[],d=[],l=[],o=[],s=[],p=[],t=[];
  amznJQ={
    _timesliceJS: false,
    _a:a,_c:c,_cs:cs,_d:d,_l:l,_o:o,_s:s,_pl:p,
    addLogical:f(l),
    addStyle:f(s),
    addPL:f(p),
    available:f(a),
    chars:{EOL:ch(10), SQUOTE:ch(39), DQUOTE:ch(34), BACKSLASH:ch(92), YEN:ch(165)},
    completedStage:f(cs),
    declareAvailable:f(d),
    onCompletion:f(c),
    onReady:f(o),
    strings:{}
  };
}());


</script>
<script type="text/javascript">
(function(d,c){function f(a){b.push(a)}function e(a){if(a){var c=d.head||d.getElementsByTagName("head")[0]||d.documentElement,b=d.createElement("script");b.async="async";b.src=a;c.insertBefore(b,c.firstChild)}}function g(){ue.uels=e;for(var a=0;a<b.length;a++)e(b[a]);ue.deffered=1}var b=[];c.ue&&(ue.uels=f,c.ue.attach&&c.ue.attach("load",g))})(document,window);


    if (window.ue && window.ue.uels) {
    ue.uels("http://z-ecx.images-amazon.com/images/G/01/browser-scripts/csm-base/csm-base-min-3067539280._V1_.js");
}
 else if (window.amznJQ) {
    amznJQ.addLogical('csm-base', ["http://z-ecx.images-amazon.com/images/G/01/browser-scripts/csm-base/csm-base-min-3067539280._V1_.js"]);
    amznJQ.available('csm-base', function() {});
}


var ue_tbno = 0,
ue_tble = 0,
ue_sstb = 0,
ue_ssle = 0,
ue_tbpv = 0;

(function(d,k){function e(d){var c;c="";var b=a.isBFT?"b":"s",e=""+a.oid,f=""+a.lid,g=e;e!=f&&20==f.length&&(b+="a",g+="-"+f);q&&a.tabid&&(c=a.tabid+"+");c+=b+"-"+g;(l||c!=h)&&100>c.length&&(h=c,document.cookie="csm-hit="+c+("|"+ +new Date)+r+"; path=/");m&&a.log&&a.log(""+(d?d.type:"interaction")+" "+c,"csm")}function n(){h=0;m&&a.log&&a.log("blur","csm")}function p(b){!0===k[a.pageViz.propHid]?n():!1===k[a.pageViz.propHid]&&e({type:"visible"})}var r="; expires="+(new Date(+new Date+6048E5)).toGMTString(),
h,q=d.ue_sstb,l=d.ue_tbno,m=d.ue_tble,b=d.ue_tbpv,a=d.ue||{},f=b&&a.pageViz&&a.pageViz.event&&a.pageViz.propHid;a.attach&&(a.attach("click",e),a.attach("keyup",e),l||(f&&4!=b&&5!=b||(a.attach("focus",e),a.attach("blur",n)),f&&a.attach(a.pageViz.event,p),!f||3!=b&&5!=b||p({})));a.aftb=1})(ue_csm,document);

</script>
</head>
<body><div style='display:none;visibility:hidden;'>
    <img src='//fls-na.amazon.com/1/batch/1/OP/ATVPDKIKX0DER:186-2062508-4870257:01JB80F25ZYFJG1J1W0T$uedata=s:%2Freviews%2Fiframe%2Fuedata%2Fnvp%2Funsticky%2F186-2062508-4870257%2FCustomerReviews%2Fntpoffrw%3Fstaticb%26id%3D01JB80F25ZYFJG1J1W0T%26pty%3DYourAccount%26spty%3DShipTrackMoAp%26pti%3D:1000' />


</div>

<div class="crIFrame">
  
  






  























  




















    








  


  

































  
  











<div class="crIFrameLogo">
  <a href="http://www.amazon.com/ref=cm_cr_if_logo/186-2062508-4870257?ie=UTF8&amp;linkCode=sp1&amp;tag=wat072-20" target="_top"><img src="http://g-ecx.images-amazon.com/images/G/01/x-locale/common/amazon-logo-tiny._V192256679_.gif" width="113" alt="Amazon.com" height="23" border="0" /></a>
</div>



      <div class="crIframeHeaderTitle">Customer Reviews</div>
      
































    






























<table class="crIFrameReviewList">
<tr>
  <td>
    




















    











    
    











    




















































<!-- BOUNDARY -->
<a name="R354MGBFCDQ40C"></a><br />


<div style="margin-left:0.5em;">
    
      <div style="margin-bottom:0.5em;">
        178 of 183 people found the following review helpful
      </div>
      <div style="margin-bottom:0.5em;">
        <span style='margin-left: -5px;'><img src="http://g-ecx.images-amazon.com/images/G/01/x-locale/common/customer-reviews/stars-5-0._V192240867_.gif" width="64" alt="5.0 out of 5 stars" title="5.0 out of 5 stars" height="12" border="0" /> </span>
        <b>great led replacement lamp for a decent price</b>, <nobr>November 4, 2014</nobr>
      </div>
      <div style="margin-bottom:0.5em;">
        <div><div style="float:left;">By&nbsp;</div><div style="float:left;"><a href="http://www.amazon.com/gp/pdp/profile/AW6FQE5QRF2LM/ref=cm_cr_if_pdp/186-2062508-4870257?ie=UTF8&linkCode=sp1&tag=wat072-20" target="_top"><span style = "font-weight: bold;">Tim Wachter</span></a> (illinois)  - <a href="http://www.amazon.com/gp/cdp/member-reviews/AW6FQE5QRF2LM/ref=cm_cr_if_auth_rev/186-2062508-4870257?ie=UTF8&amp;linkCode=sp1&amp;sort_by=MostRecentReview&amp;tag=wat072-20" target="_top">See all my reviews</a><br />
<a href="http://www.amazon.com/gp/help/customer/display.html/ref=cm_rn_bdg_help/186-2062508-4870257?ie=UTF8&nodeId=14279681&pop-up=1#RN" target="AmazonHelp" onclick="return amz_js_PopWin(this.href,'AmazonHelp','width=340,height=340,resizable=1,scrollbars=1,toolbar=1,status=1');"  ><img src="http://g-ecx.images-amazon.com/images/G/01/x-locale/communities/reputation/c7y_badge_rn_1._V192249968_.gif" width="70" align="absmiddle" alt="(REAL NAME)" height="15" border="0" /></a>
&nbsp;&nbsp;


</div></div><div style="clear:both;"></div>
      </div>
      <div class="tiny" style="margin-bottom:0.5em;">
        <b><span class="h3color tiny">This review is from: </span>Energetic Lighting ELY09-EAS-VB-6 A19 - 60 Watt Equivalent 800 Lumen Non-Dimmable, 6-Pack</b>
      </div>

i bought this 6-pack directly from woot about a month ago. i'm mostly very happy with them at this point. of the four i've placed into use, they have all worked and are consistently the same color temp and brightness. they are very solid replacements for 60w incandescents or 13w cfl lamps. i know they're advertised as 3000k, but they feel just a bit higher than that to me, perhaps somewhere around 3500k. that's still well within the range of other lights i've seen advertised as 3000k though, so i'm quite happy with that.<br /><br />something i really like about these lights is that they are approximately the same size and shape as standard incandescent lamps, so there's no worrying about whether this will fit into a particular lampshade or fixture. these are also rated to be used in enclosures, which is nice because many led lights need air movement for heat dissipation. i placed one inside a globe ceiling fixture and have had no issues with it yet.<br /><br />as for the shortfalls of...






<a href="http://www.amazon.com/Energetic-Lighting-ELY09-EAS-VB-6-A19-Non-Dimmable/product-reviews/B00OPAH0JK/ref=cm_cr_if/186-2062508-4870257?ie=UTF8&linkCode=sp1&showViewpoints=0&tag=wat072-20#R354MGBFCDQ40C" target="_top">Read more</a>
      <hr size="1" style="border-top: 1px dashed #ACACAC;"/><div style="padding-top: 10px; clear: both; width: 100%; display:none;">

  




        <div class="reviews-voting-stripe" style="float:left; padding-right:15px; border-right:1px solid #CCCCCC"><div style="padding-bottom:5px;"><b class="tiny" style="color:#666666;white-space:nowrap;">Help other customers find the most helpful reviews</b>&nbsp;</div><div style="width:300px;">









<a name="R354MGBFCDQ40C.2115.Helpful.Reviews" style="font-size:1px;"> </a><span
class="crVotingButtons"><nobr><span class="votingPrompt">Was this review helpful to you?&nbsp;</span><a rel="nofollow" class="votingButtonReviews yesButton" href="http://www.amazon.com/gp/voting/cast/Reviews/2115/R354MGBFCDQ40C/Helpful/1/ref=cm_cr_ifvoteyn/186-2062508-4870257?ie=UTF8&target=aHR0cDovL3d3dy5hbWF6b24uY29tL3Byb2R1Y3QtcmV2aWV3cy9CMDBPUEFIMEpLL3JlZj1jbV9jcl9pZnZvdGVyZHIvMTg2LTIwNjI1MDgtNDg3MDI1Nz9fZW5jb2Rpbmc9VVRGOCZha2lkPUFLSUFKRTdCUUg2V1IzQkE0M1JRJmFsaW5rQ29kZT1zcDEmYXNpbj1CMDBPUEFIMEpLJmF0YWc9d2F0MDcyLTIwJmV4cD0yMDE1LTA0LTE5VDE2JTNBNDMlM0EwMlombGlua0NvZGU9c3AxJnNpZz10MVp1TDl4RUxpYk8lMkZ6bU41MXNlbFhEMTd3RTNNbW1IYURjalp1a0JsR00lM0Qmc3VtbWFyeT0wJnRhZz13YXQwNzItMjAmdHJ1bmNhdGU9MCZ2PTI&token=E826DDE8338EDD9869D131FD0CE207DC5ACBA017&voteAnchorName=R354MGBFCDQ40C.2115.Helpful.Reviews&voteSessionID=186-2062508-4870257"><img src="http://g-ecx.images-amazon.com/images/G/01/x-locale/communities/reviews/btn-yes-sec-md._V192249951_.gif" width="35" alt="Yes" style="vertical-align:middle;" height="18" border="0" /></a>
<a rel="nofollow" class="votingButtonReviews noButton" href="http://www.amazon.com/gp/voting/cast/Reviews/2115/R354MGBFCDQ40C/Helpful/-1/ref=cm_cr_ifvoteyn/186-2062508-4870257?ie=UTF8&target=aHR0cDovL3d3dy5hbWF6b24uY29tL3Byb2R1Y3QtcmV2aWV3cy9CMDBPUEFIMEpLL3JlZj1jbV9jcl9pZnZvdGVyZHIvMTg2LTIwNjI1MDgtNDg3MDI1Nz9fZW5jb2Rpbmc9VVRGOCZha2lkPUFLSUFKRTdCUUg2V1IzQkE0M1JRJmFsaW5rQ29kZT1zcDEmYXNpbj1CMDBPUEFIMEpLJmF0YWc9d2F0MDcyLTIwJmV4cD0yMDE1LTA0LTE5VDE2JTNBNDMlM0EwMlombGlua0NvZGU9c3AxJnNpZz10MVp1TDl4RUxpYk8lMkZ6bU41MXNlbFhEMTd3RTNNbW1IYURjalp1a0JsR00lM0Qmc3VtbWFyeT0wJnRhZz13YXQwNzItMjAmdHJ1bmNhdGU9MCZ2PTI&token=AC2E655CB5804EC5C1F448500AC59C5E72DD0A1D&voteAnchorName=R354MGBFCDQ40C.2115.Helpful.Reviews&voteSessionID=186-2062508-4870257"><img src="http://g-ecx.images-amazon.com/images/G/01/x-locale/communities/reviews/btn-no-sec-md._V192249949_.gif" width="35" alt="No" style="vertical-align:middle;" height="18" border="0" /></a></nobr> <span class="votingMessage"></span></span>

</div></div><div style="float:left;"><div style="padding-left:15px;"><div style="white-space:nowrap;"><span class='tiny'>








<a name="R354MGBFCDQ40C.2115.Inappropriate.Reviews" style="font-size:1px;"> </a><span class="reportingButton"><nobr><a rel="nofollow" class="reportingButton" href="http://www.amazon.com/gp/voting/cast/Reviews/2115/R354MGBFCDQ40C/Inappropriate/1/ref=cm_cr_ifvoteyn/186-2062508-4870257?ie=UTF8&target=aHR0cDovL3d3dy5hbWF6b24uY29tL3Byb2R1Y3QtcmV2aWV3cy9CMDBPUEFIMEpLL3JlZj1jbV9jcl9pZnZvdGVyZHIvMTg2LTIwNjI1MDgtNDg3MDI1Nz9fZW5jb2Rpbmc9VVRGOCZha2lkPUFLSUFKRTdCUUg2V1IzQkE0M1JRJmFsaW5rQ29kZT1zcDEmYXNpbj1CMDBPUEFIMEpLJmF0YWc9d2F0MDcyLTIwJmV4cD0yMDE1LTA0LTE5VDE2JTNBNDMlM0EwMlombGlua0NvZGU9c3AxJnNpZz10MVp1TDl4RUxpYk8lMkZ6bU41MXNlbFhEMTd3RTNNbW1IYURjalp1a0JsR00lM0Qmc3VtbWFyeT0wJnRhZz13YXQwNzItMjAmdHJ1bmNhdGU9MCZ2PTI&token=88A50B42E5BC39C00D6C7AF096B7495597376951&voteAnchorName=R354MGBFCDQ40C.2115.Inappropriate.Reviews&voteSessionID=186-2062508-4870257"
>Report abuse</a></nobr></span>
</span> <span style="color:#CCCCCC;">|</span> <span class="tiny"><a href="http://www.amazon.com/review/R354MGBFCDQ40C/ref=cm_cr_if_perm/?ie=UTF8&ASIN=B00OPAH0JK&linkCode=sp1&tag=wat072-20" target="_top">Permalink</a></span></div><div style="white-space:nowrap;padding-left:-5px;padding-top:5px;"><a href="http://www.amazon.com/review/R354MGBFCDQ40C/ref=cm_cr_if_cmt/186-2062508-4870257?ie=UTF8&ASIN=B00OPAH0JK&linkCode=sp1&tag=wat072-20#wasThisHelpful" target="_top"><img src="http://g-ecx.images-amazon.com/images/G/01/x-locale/communities/discussion_boards/comment-sm._V192250344_.gif" width="16" alt="Comment" hspace="3" align="absmiddle" height="16" border="0" /></a>&nbsp;<a href="http://www.amazon.com/review/R354MGBFCDQ40C/ref=cm_cr_if_cmt/186-2062508-4870257?ie=UTF8&ASIN=B00OPAH0JK&linkCode=sp1&tag=wat072-20#wasThisHelpful" target="_top">Comments (10)</a></div></div></div><div style="clear:both;"></div>
      </div>
      <br />

</div>

  
























































<!-- BOUNDARY -->
<a name="R2QEQ3HSRNDT3Z"></a><br />


<div style="margin-left:0.5em;">
    
      <div style="margin-bottom:0.5em;">
        66 of 67 people found the following review helpful
      </div>
      <div style="margin-bottom:0.5em;">
        <span style='margin-left: -5px;'><img src="http://g-ecx.images-amazon.com/images/G/01/x-locale/common/customer-reviews/stars-5-0._V192240867_.gif" width="64" alt="5.0 out of 5 stars" title="5.0 out of 5 stars" height="12" border="0" /> </span>
        <b>Bright, white light</b>, <nobr>November 6, 2014</nobr>
      </div>
      <div style="margin-bottom:0.5em;">
        <div><div style="float:left;">By&nbsp;</div><div style="float:left;"><a href="http://www.amazon.com/gp/pdp/profile/A11OTLEDSW8ZXD/ref=cm_cr_if_pdp/186-2062508-4870257?ie=UTF8&linkCode=sp1&tag=wat072-20" target="_top"><span style = "font-weight: bold;">Connie G Scammell "The Outdoors Woman"</span></a> (Cochise County, AZ)  - <a href="http://www.amazon.com/gp/cdp/member-reviews/A11OTLEDSW8ZXD/ref=cm_cr_if_auth_rev/186-2062508-4870257?ie=UTF8&amp;linkCode=sp1&amp;sort_by=MostRecentReview&amp;tag=wat072-20" target="_top">See all my reviews</a><br />
<a href="http://www.amazon.com/gp/help/customer/display.html/ref=cm_rn_bdg_help/186-2062508-4870257?ie=UTF8&nodeId=14279681&pop-up=1#TR" target="AmazonHelp" onclick="return amz_js_PopWin(this.href,'AmazonHelp','width=340,height=340,resizable=1,scrollbars=1,toolbar=1,status=1');"  ><img src="http://g-ecx.images-amazon.com/images/G/01/x-locale/communities/reputation/c7y_badge_tr_6._V192249968_.gif" width="101" align="absmiddle" alt="(TOP 1000 REVIEWER)" height="15" border="0" /></a>
&nbsp;&nbsp;


</div></div><div style="clear:both;"></div>
      </div>
      <div class="tiny" style="margin-bottom:0.5em;">
        <span class="crVerifiedStripe"><b class="h3color tiny" style="margin-right: 0.5em;">Verified Purchase</b><span class="tiny verifyWhatsThis">(<a href="http://www.amazon.com/gp/community-help/amazon-verified-purchase/186-2062508-4870257" target="AmazonHelp" onclick="amz_js_PopWin('http://www.amazon.com/gp/community-help/amazon-verified-purchase/186-2062508-4870257', 'AmazonHelp', 'width=400,height=500,resizable=1,scrollbars=1,toolbar=0,status=1');return false; ">What's this?</a>)</span></span>
      </div>
      <div class="tiny" style="margin-bottom:0.5em;">
        <b><span class="h3color tiny">This review is from: </span>Energetic Lighting ELY09-EAS-VB-6 A19 - 60 Watt Equivalent 800 Lumen Non-Dimmable, 6-Pack</b>
      </div>

I thought a price tag of USD30 was expensive for a 6-pack of light bulbs, but now that the package has arrived, I am quite impressed.  I already had one incandescent bulb burn out on me last week.  I replaced the burned bulb with one of these LED bulbs.  The bulb is the same size and shape as the old incandescent bulb, but heavier at the base due to the added heat-absorbing coating. A warning on the bulb says not to use this bulb in dimmers, yet I have one bulb in my office overhead light which is a dimmer.  The dimmer causes the bulb a two-second delay in turning on. This bulb gives off a nice, bright white light, good to work on late at night.<br /><br />A warning on the side of the package states that this bulb is &#34;not intended for use with emergency exit fixtures or emergency exit lights.  Do not use in luminaires controlled by dimmers, electronic timers or photocells.  Do not use in totally enclosed recessed luminaires or where directly exposed to weather,&#34; (although on...






<a href="http://www.amazon.com/Energetic-Lighting-ELY09-EAS-VB-6-A19-Non-Dimmable/product-reviews/B00OPAH0JK/ref=cm_cr_if/186-2062508-4870257?ie=UTF8&linkCode=sp1&showViewpoints=0&tag=wat072-20#R2QEQ3HSRNDT3Z" target="_top">Read more</a>
      <hr size="1" style="border-top: 1px dashed #ACACAC;"/><div style="padding-top: 10px; clear: both; width: 100%; display:none;">

  




<div id="R2QEQ3HSRNDT3Z_imageSection_00DD6D8A-E5EA-11E4-9CBC-FBB9D9B3A6AD">
          <div style="overflow-x: hidden; overflow-y: hidden;">
                  <img class="review-image-thumbnail" src="https://images-na.ssl-images-amazon.com/images/I/71ENWmdo75L._SL256_.jpg" large-image-url="https://images-na.ssl-images-amazon.com/images/I/71ENWmdo75L.jpg" style="background-position:center;
                                         background-repeat: no-repeat;
                                         overflow: hidden;background-size: cover;
                                         display:inline-block;
                                         margin-right: 1px;
                                         margin-bottom: 4px;
                                         cursor: pointer;
                                         width:auto;height:88px">
                  <img class="review-image-thumbnail" src="https://images-na.ssl-images-amazon.com/images/I/712+EaKBLZL._SL256_.jpg" large-image-url="https://images-na.ssl-images-amazon.com/images/I/712+EaKBLZL.jpg" style="background-position:center;
                                         background-repeat: no-repeat;
                                         overflow: hidden;background-size: cover;
                                         display:inline-block;
                                         margin-right: 1px;
                                         margin-bottom: 4px;
                                         cursor: pointer;
                                         width:auto;height:88px">
          </div>
</div>




<script>
    amznJQ.onReady('jQuery', function() { 
        amznJQ.available('popover', function() { 
            var widgetDom = jQuery("#R2QEQ3HSRNDT3Z_imageSection_00DD6D8A-E5EA-11E4-9CBC-FBB9D9B3A6AD");
            var images = widgetDom.find(".review-image-thumbnail"); 
            for (var c=0;c<images.length;c++) {  
                var imageURL = jQuery(images[c]).attr("large-image-url"); 
                jQuery(images[c]).amazonPopoverTrigger({
                    showOnHover:true,
                    literalContent: '<img src="'+ imageURL +'" style="max-width:100%;max-height:100%;">'
                });
            }
        });
    });
</script>






        <div class="reviews-voting-stripe" style="float:left; padding-right:15px; border-right:1px solid #CCCCCC"><div style="padding-bottom:5px;"><b class="tiny" style="color:#666666;white-space:nowrap;">Help other customers find the most helpful reviews</b>&nbsp;</div><div style="width:300px;">









<a name="R2QEQ3HSRNDT3Z.2115.Helpful.Reviews" style="font-size:1px;"> </a><span
class="crVotingButtons"><nobr><span class="votingPrompt">Was this review helpful to you?&nbsp;</span><a rel="nofollow" class="votingButtonReviews yesButton" href="http://www.amazon.com/gp/voting/cast/Reviews/2115/R2QEQ3HSRNDT3Z/Helpful/1/ref=cm_cr_ifvoteyn/186-2062508-4870257?ie=UTF8&target=aHR0cDovL3d3dy5hbWF6b24uY29tL3Byb2R1Y3QtcmV2aWV3cy9CMDBPUEFIMEpLL3JlZj1jbV9jcl9pZnZvdGVyZHIvMTg2LTIwNjI1MDgtNDg3MDI1Nz9fZW5jb2Rpbmc9VVRGOCZha2lkPUFLSUFKRTdCUUg2V1IzQkE0M1JRJmFsaW5rQ29kZT1zcDEmYXNpbj1CMDBPUEFIMEpLJmF0YWc9d2F0MDcyLTIwJmV4cD0yMDE1LTA0LTE5VDE2JTNBNDMlM0EwMlombGlua0NvZGU9c3AxJnNpZz10MVp1TDl4RUxpYk8lMkZ6bU41MXNlbFhEMTd3RTNNbW1IYURjalp1a0JsR00lM0Qmc3VtbWFyeT0wJnRhZz13YXQwNzItMjAmdHJ1bmNhdGU9MCZ2PTI&token=4B5CC44EDDC5C90BF53204AAA6A02CFF0F32804D&voteAnchorName=R2QEQ3HSRNDT3Z.2115.Helpful.Reviews&voteSessionID=186-2062508-4870257"><img src="http://g-ecx.images-amazon.com/images/G/01/x-locale/communities/reviews/btn-yes-sec-md._V192249951_.gif" width="35" alt="Yes" style="vertical-align:middle;" height="18" border="0" /></a>
<a rel="nofollow" class="votingButtonReviews noButton" href="http://www.amazon.com/gp/voting/cast/Reviews/2115/R2QEQ3HSRNDT3Z/Helpful/-1/ref=cm_cr_ifvoteyn/186-2062508-4870257?ie=UTF8&target=aHR0cDovL3d3dy5hbWF6b24uY29tL3Byb2R1Y3QtcmV2aWV3cy9CMDBPUEFIMEpLL3JlZj1jbV9jcl9pZnZvdGVyZHIvMTg2LTIwNjI1MDgtNDg3MDI1Nz9fZW5jb2Rpbmc9VVRGOCZha2lkPUFLSUFKRTdCUUg2V1IzQkE0M1JRJmFsaW5rQ29kZT1zcDEmYXNpbj1CMDBPUEFIMEpLJmF0YWc9d2F0MDcyLTIwJmV4cD0yMDE1LTA0LTE5VDE2JTNBNDMlM0EwMlombGlua0NvZGU9c3AxJnNpZz10MVp1TDl4RUxpYk8lMkZ6bU41MXNlbFhEMTd3RTNNbW1IYURjalp1a0JsR00lM0Qmc3VtbWFyeT0wJnRhZz13YXQwNzItMjAmdHJ1bmNhdGU9MCZ2PTI&token=BDFC3350F35E821602B1FBEFAE920A9EC064704C&voteAnchorName=R2QEQ3HSRNDT3Z.2115.Helpful.Reviews&voteSessionID=186-2062508-4870257"><img src="http://g-ecx.images-amazon.com/images/G/01/x-locale/communities/reviews/btn-no-sec-md._V192249949_.gif" width="35" alt="No" style="vertical-align:middle;" height="18" border="0" /></a></nobr> <span class="votingMessage"></span></span>

</div></div><div style="float:left;"><div style="padding-left:15px;"><div style="white-space:nowrap;"><span class='tiny'>








<a name="R2QEQ3HSRNDT3Z.2115.Inappropriate.Reviews" style="font-size:1px;"> </a><span class="reportingButton"><nobr><a rel="nofollow" class="reportingButton" href="http://www.amazon.com/gp/voting/cast/Reviews/2115/R2QEQ3HSRNDT3Z/Inappropriate/1/ref=cm_cr_ifvoteyn/186-2062508-4870257?ie=UTF8&target=aHR0cDovL3d3dy5hbWF6b24uY29tL3Byb2R1Y3QtcmV2aWV3cy9CMDBPUEFIMEpLL3JlZj1jbV9jcl9pZnZvdGVyZHIvMTg2LTIwNjI1MDgtNDg3MDI1Nz9fZW5jb2Rpbmc9VVRGOCZha2lkPUFLSUFKRTdCUUg2V1IzQkE0M1JRJmFsaW5rQ29kZT1zcDEmYXNpbj1CMDBPUEFIMEpLJmF0YWc9d2F0MDcyLTIwJmV4cD0yMDE1LTA0LTE5VDE2JTNBNDMlM0EwMlombGlua0NvZGU9c3AxJnNpZz10MVp1TDl4RUxpYk8lMkZ6bU41MXNlbFhEMTd3RTNNbW1IYURjalp1a0JsR00lM0Qmc3VtbWFyeT0wJnRhZz13YXQwNzItMjAmdHJ1bmNhdGU9MCZ2PTI&token=2C23FB5EC04E351556326C15A19DF5472CC1C09E&voteAnchorName=R2QEQ3HSRNDT3Z.2115.Inappropriate.Reviews&voteSessionID=186-2062508-4870257"
>Report abuse</a></nobr></span>
</span> <span style="color:#CCCCCC;">|</span> <span class="tiny"><a href="http://www.amazon.com/review/R2QEQ3HSRNDT3Z/ref=cm_cr_if_perm/?ie=UTF8&ASIN=B00OPAH0JK&linkCode=sp1&tag=wat072-20" target="_top">Permalink</a></span></div><div style="white-space:nowrap;padding-left:-5px;padding-top:5px;"><a href="http://www.amazon.com/review/R2QEQ3HSRNDT3Z/ref=cm_cr_if_cmt/186-2062508-4870257?ie=UTF8&ASIN=B00OPAH0JK&linkCode=sp1&tag=wat072-20#wasThisHelpful" target="_top"><img src="http://g-ecx.images-amazon.com/images/G/01/x-locale/communities/discussion_boards/comment-sm._V192250344_.gif" width="16" alt="Comment" hspace="3" align="absmiddle" height="16" border="0" /></a>&nbsp;<a href="http://www.amazon.com/review/R2QEQ3HSRNDT3Z/ref=cm_cr_if_cmt/186-2062508-4870257?ie=UTF8&ASIN=B00OPAH0JK&linkCode=sp1&tag=wat072-20#wasThisHelpful" target="_top">Comments (3)</a></div></div></div><div style="clear:both;"></div>
      </div>
      <br />

</div>

  












































<!-- BOUNDARY -->
<a name="R321SLWMWUFDGT"></a><br />


<div style="margin-left:0.5em;">
    
      <div style="margin-bottom:0.5em;">
        20 of 22 people found the following review helpful
      </div>
      <div style="margin-bottom:0.5em;">
        <span style='margin-left: -5px;'><img src="http://g-ecx.images-amazon.com/images/G/01/x-locale/common/customer-reviews/stars-5-0._V192240867_.gif" width="64" alt="5.0 out of 5 stars" title="5.0 out of 5 stars" height="12" border="0" /> </span>
        <b>Excellent light output, very pleased</b>, <nobr>November 14, 2014</nobr>
      </div>
      <div style="margin-bottom:0.5em;">
        <div><div style="float:left;">By&nbsp;</div><div style="float:left;"><a href="http://www.amazon.com/gp/pdp/profile/A14T3IEJX18CNZ/ref=cm_cr_if_pdp/186-2062508-4870257?ie=UTF8&linkCode=sp1&tag=wat072-20" target="_top"><span style = "font-weight: bold;">Dale K</span></a>  - <a href="http://www.amazon.com/gp/cdp/member-reviews/A14T3IEJX18CNZ/ref=cm_cr_if_auth_rev/186-2062508-4870257?ie=UTF8&amp;linkCode=sp1&amp;sort_by=MostRecentReview&amp;tag=wat072-20" target="_top">See all my reviews</a></div></div><div style="clear:both;"></div>
      </div>
      <div class="tiny" style="margin-bottom:0.5em;">
        <span class="crVerifiedStripe"><b class="h3color tiny" style="margin-right: 0.5em;">Verified Purchase</b><span class="tiny verifyWhatsThis">(<a href="http://www.amazon.com/gp/community-help/amazon-verified-purchase/186-2062508-4870257" target="AmazonHelp" onclick="amz_js_PopWin('http://www.amazon.com/gp/community-help/amazon-verified-purchase/186-2062508-4870257', 'AmazonHelp', 'width=400,height=500,resizable=1,scrollbars=1,toolbar=0,status=1');return false; ">What's this?</a>)</span></span>
      </div>
      <div class="tiny" style="margin-bottom:0.5em;">
        <b><span class="h3color tiny">This review is from: </span>Energetic Lighting ELY09-EAS-VB-6 A19 - 60 Watt Equivalent 800 Lumen Non-Dimmable, 6-Pack</b>
      </div>

<div class="reviewText">Been using these bulbs for about a week, and I'm thoroughly pleased.  They are packaged as &#34;Soft White&#34;, but are a bit brighter than expected, which is not a big deal to me.  They do have a minute delay when flipping the switch as some others have mentioned, but it really isn't a big deal.  Half a second is hardly noticeable.  I have 4 in my outdoor lights that are on all night most of the time and they cast plenty of light, but not so much that they annoy me or my neighbors.  LED bulbs are still pricey, but these came down to about $5 a bulb on sale, which is decent for LED bulbs.</div>
0      <hr size="1" style="border-top: 1px dashed #ACACAC;"/><div style="padding-top: 10px; clear: both; width: 100%; display:none;">

  




        <div class="reviews-voting-stripe" style="float:left; padding-right:15px; border-right:1px solid #CCCCCC"><div style="padding-bottom:5px;"><b class="tiny" style="color:#666666;white-space:nowrap;">Help other customers find the most helpful reviews</b>&nbsp;</div><div style="width:300px;">









<a name="R321SLWMWUFDGT.2115.Helpful.Reviews" style="font-size:1px;"> </a><span
class="crVotingButtons"><nobr><span class="votingPrompt">Was this review helpful to you?&nbsp;</span><a rel="nofollow" class="votingButtonReviews yesButton" href="http://www.amazon.com/gp/voting/cast/Reviews/2115/R321SLWMWUFDGT/Helpful/1/ref=cm_cr_ifvoteyn/186-2062508-4870257?ie=UTF8&target=aHR0cDovL3d3dy5hbWF6b24uY29tL3Byb2R1Y3QtcmV2aWV3cy9CMDBPUEFIMEpLL3JlZj1jbV9jcl9pZnZvdGVyZHIvMTg2LTIwNjI1MDgtNDg3MDI1Nz9fZW5jb2Rpbmc9VVRGOCZha2lkPUFLSUFKRTdCUUg2V1IzQkE0M1JRJmFsaW5rQ29kZT1zcDEmYXNpbj1CMDBPUEFIMEpLJmF0YWc9d2F0MDcyLTIwJmV4cD0yMDE1LTA0LTE5VDE2JTNBNDMlM0EwMlombGlua0NvZGU9c3AxJnNpZz10MVp1TDl4RUxpYk8lMkZ6bU41MXNlbFhEMTd3RTNNbW1IYURjalp1a0JsR00lM0Qmc3VtbWFyeT0wJnRhZz13YXQwNzItMjAmdHJ1bmNhdGU9MCZ2PTI&token=C2756E85F6D5A6176E4EFF9A21EB4BD4A7C92EC6&voteAnchorName=R321SLWMWUFDGT.2115.Helpful.Reviews&voteSessionID=186-2062508-4870257"><img src="http://g-ecx.images-amazon.com/images/G/01/x-locale/communities/reviews/btn-yes-sec-md._V192249951_.gif" width="35" alt="Yes" style="vertical-align:middle;" height="18" border="0" /></a>
<a rel="nofollow" class="votingButtonReviews noButton" href="http://www.amazon.com/gp/voting/cast/Reviews/2115/R321SLWMWUFDGT/Helpful/-1/ref=cm_cr_ifvoteyn/186-2062508-4870257?ie=UTF8&target=aHR0cDovL3d3dy5hbWF6b24uY29tL3Byb2R1Y3QtcmV2aWV3cy9CMDBPUEFIMEpLL3JlZj1jbV9jcl9pZnZvdGVyZHIvMTg2LTIwNjI1MDgtNDg3MDI1Nz9fZW5jb2Rpbmc9VVRGOCZha2lkPUFLSUFKRTdCUUg2V1IzQkE0M1JRJmFsaW5rQ29kZT1zcDEmYXNpbj1CMDBPUEFIMEpLJmF0YWc9d2F0MDcyLTIwJmV4cD0yMDE1LTA0LTE5VDE2JTNBNDMlM0EwMlombGlua0NvZGU9c3AxJnNpZz10MVp1TDl4RUxpYk8lMkZ6bU41MXNlbFhEMTd3RTNNbW1IYURjalp1a0JsR00lM0Qmc3VtbWFyeT0wJnRhZz13YXQwNzItMjAmdHJ1bmNhdGU9MCZ2PTI&token=3F15B95116A3B652B2ADE3534441C8D933D96FC7&voteAnchorName=R321SLWMWUFDGT.2115.Helpful.Reviews&voteSessionID=186-2062508-4870257"><img src="http://g-ecx.images-amazon.com/images/G/01/x-locale/communities/reviews/btn-no-sec-md._V192249949_.gif" width="35" alt="No" style="vertical-align:middle;" height="18" border="0" /></a></nobr> <span class="votingMessage"></span></span>

</div></div><div style="float:left;"><div style="padding-left:15px;"><div style="white-space:nowrap;"><span class='tiny'>








<a name="R321SLWMWUFDGT.2115.Inappropriate.Reviews" style="font-size:1px;"> </a><span class="reportingButton"><nobr><a rel="nofollow" class="reportingButton" href="http://www.amazon.com/gp/voting/cast/Reviews/2115/R321SLWMWUFDGT/Inappropriate/1/ref=cm_cr_ifvoteyn/186-2062508-4870257?ie=UTF8&target=aHR0cDovL3d3dy5hbWF6b24uY29tL3Byb2R1Y3QtcmV2aWV3cy9CMDBPUEFIMEpLL3JlZj1jbV9jcl9pZnZvdGVyZHIvMTg2LTIwNjI1MDgtNDg3MDI1Nz9fZW5jb2Rpbmc9VVRGOCZha2lkPUFLSUFKRTdCUUg2V1IzQkE0M1JRJmFsaW5rQ29kZT1zcDEmYXNpbj1CMDBPUEFIMEpLJmF0YWc9d2F0MDcyLTIwJmV4cD0yMDE1LTA0LTE5VDE2JTNBNDMlM0EwMlombGlua0NvZGU9c3AxJnNpZz10MVp1TDl4RUxpYk8lMkZ6bU41MXNlbFhEMTd3RTNNbW1IYURjalp1a0JsR00lM0Qmc3VtbWFyeT0wJnRhZz13YXQwNzItMjAmdHJ1bmNhdGU9MCZ2PTI&token=6CE4A0A0B1F7EC7E05663C7F636B788032BC5140&voteAnchorName=R321SLWMWUFDGT.2115.Inappropriate.Reviews&voteSessionID=186-2062508-4870257"
>Report abuse</a></nobr></span>
</span> <span style="color:#CCCCCC;">|</span> <span class="tiny"><a href="http://www.amazon.com/review/R321SLWMWUFDGT/ref=cm_cr_if_perm/?ie=UTF8&ASIN=B00OPAH0JK&linkCode=sp1&tag=wat072-20" target="_top">Permalink</a></span></div><div style="white-space:nowrap;padding-left:-5px;padding-top:5px;"><a href="http://www.amazon.com/review/R321SLWMWUFDGT/ref=cm_cr_if_cmt/186-2062508-4870257?ie=UTF8&ASIN=B00OPAH0JK&linkCode=sp1&tag=wat072-20#wasThisHelpful" target="_top"><img src="http://g-ecx.images-amazon.com/images/G/01/x-locale/communities/discussion_boards/comment-sm._V192250344_.gif" width="16" alt="Comment" hspace="3" align="absmiddle" height="16" border="0" /></a>&nbsp;<a href="http://www.amazon.com/review/R321SLWMWUFDGT/ref=cm_cr_if_cmt/186-2062508-4870257?ie=UTF8&ASIN=B00OPAH0JK&linkCode=sp1&tag=wat072-20#wasThisHelpful" target="_top">Comment</a></div></div></div><div style="clear:both;"></div>
      </div>
      <br />

</div>

  



  </td>
</tr>
</table>
<br />
<div class="crIFrameCreateReview" >
  Share your thoughts with other customers:
  <span class="crIFrameCreateReviewButton"><a href="http://www.amazon.com/review/create-review/ref=cm_cr_if_wr/186-2062508-4870257?ie=UTF8&amp;asin=B00OPAH0JK&amp;linkCode=sp1&amp;nodeID=&amp;tag=wat072-20" target="_top"><img src="http://g-ecx.images-amazon.com/images/G/01/x-locale/communities/reviews/btn-create-own-review-md._V192249922_.gif" width="145" alt="" height="22" border="0" /></a></span>
</div>
<span class="small"><b><b class="h3color">&rsaquo;</b>&nbsp;<a href="http://www.amazon.com/Energetic-Lighting-ELY09-EAS-VB-6-A19-Non-Dimmable/product-reviews/B00OPAH0JK/ref=cm_cr_if_all_link/186-2062508-4870257?ie=UTF8&linkCode=sp1&showViewpoints=1&sortBy=bySubmissionDateDescending&tag=wat072-20" target="_top">See all 166 customer reviews...</a></b></span>






</div>
<script type='text/javascript'>
    
    window.ue_csm.cel_widgets = [
         {  id: "DAra1"  } , {  c: "celwidget"  } , {  id: "fallbacksessionShvl"  } , {  id: "rhf"  } 
    ];



</script>

<div id='be' style='display:none;visibility:hidden;'><form name='ue_backdetect'><input name='ue_back' value='1' type='hidden'></form><script type="text/javascript">
(function(a){var b=document.ue_backdetect;b&&b.ue_back&&a.ue&&(a.ue.bfini=b.ue_back.value);a.uet&&a.uet("be");a.onLdEnd&&(window.addEventListener?window.addEventListener("load",a.onLdEnd,!1):window.attachEvent&&window.attachEvent("onload",a.onLdEnd));a.ueh&&a.ueh(0,window,"load",a.onLd,1);a.ue&&a.ue.tag&&(a.ue_furl&&a.ue_furl.split?(b=a.ue_furl.split("."))&&b[0]&&a.ue.tag(b[0]):a.ue.tag("nofls"))})(ue_csm);


var ue_pty='CustomerReviews', ue_spty='IFrameMostHelpful', ue_pti='iframe';

</script>

<a href='http://www.amazon.com/gp/uedata/nvp/unsticky/186-2062508-4870257//ntpoffrw?tepes=1&amp;id=01JB80F25ZYFJG1J1W0T'>v</a>
<noscript>
     <img src='http://www.amazon.com/gp/uedata/nvp/unsticky/186-2062508-4870257//ntpoffrw?noscript&amp;id=01JB80F25ZYFJG1J1W0T&amp;pty=CustomerReviews&amp;spty=IFrameMostHelpful&amp;pti=iframe' />
     <img src='//fls-na.amazon.com/1/batch/1/OP/ATVPDKIKX0DER:186-2062508-4870257:01JB80F25ZYFJG1J1W0T$uedata=s:%2Freviews%2Fiframe%2Fuedata%2Fnvp%2Funsticky%2F186-2062508-4870257%2FCustomerReviews%2Fntpoffrw%3Fnoscript%26id%3D01JB80F25ZYFJG1J1W0T%26pty%3DCustomerReviews%26spty%3DIFrameMostHelpful%26pti%3Diframe:2000' />

</noscript>
</div>
<script type='text/javascript'>
(function(a){var b=a.alert;window.alert=function(){a.ueLogError&&a.ueLogError({message:"[CSM] Alert invocation detected with argument: "+arguments[0],logLevel:"WARN"});Function.prototype.apply.apply(b,[a,arguments||[]])}})(window);

</script>
<script type='text/javascript'>
(function(d,r,k){function l(a){if(!b)if(b=e[a.type],"undefined"===typeof a.clientX?(f=a.pageX,g=a.pageY):(f=a.clientX,g=a.clientY),2!=b||h&&(h!=f||m!=g)){for(var d in e)e.hasOwnProperty(d)&&c.detach(d,l,k);c.isl&&r.setTimeout(function(){n("at",c.id)},0)}else h=f,m=g,b=0}function s(){var a="";!p&&b&&(p=1,a+="&ui="+b);return a}var c=d.ue,n=d.uex,p=0,b=0,h,m,f,g,e={click:1,mousemove:2,scroll:3,keydown:4};if(c&&n){for(var q in e)e.hasOwnProperty(q)&&c.attach(q,l,k);c._ui=s}})(ue_csm,window,document);

</script>
<script type='text/javascript'>
(function(b,c){var a=c.images;a&&a.length&&b.ue.count("totalImages",a.length)})(ue_csm,document);

</script>
<script type='text/javascript'>
(function(k,c){function l(a,b){return a.filter(function(a){return a.initiatorType==b})}function f(a,c){if(b.t[a]){var g=b.t[a]-b._t0,e=c.filter(function(a){return 0!==a.responseEnd&&m(a)<g}),f=l(e,"script"),h=l(e,"link"),k=l(e,"img"),n=e.map(function(a){return a.name.split("/")[2]}).filter(function(a,b,c){return a&&c.lastIndexOf(a)==b}),q=e.filter(function(a){return a.duration<p}),s=g-Math.max.apply(null,e.map(m))<r|0;"af"==a&&(b._afjs=f.length);return a+":"+[e[d],f[d],h[d],k[d],n[d],q[d],s].join("-")}}
function m(a){return a.responseEnd-(b._t0-c.timing.navigationStart)}function n(){var a=c[h]("resource"),d=f("cf",a),g=f("af",a),a=f("ld",a);delete b._rt;b._ld=b.t.ld-b._t0;b._art&&b._art();return[d,g,a].join("_")}var p=20,r=50,d="length",b=k.ue,h="getEntriesByType";b._rre=m;b._rt=c&&c.timing&&c[h]&&n})(ue_csm,window.performance);

</script>
<script type='text/javascript'>
(function(m,l){function I(a){if(a)return a.replace(/^\s+|\s+$/g,"")}function x(a,e){if(!a)return{};a.m&&a.m[n]&&(a=a.m);var b=e.m||e[n]||"",b=a.m&&a.m[n]?b+a.m[n]:a.m&&a.m.target&&a.m.target.tagName?b+("Error handler invoked by "+a.m.target.tagName+" tag"):a.m?b+a.m:a[n]?b+a[n]:b+"Unknown error",b={m:b,f:a.f||a.sourceURL||a.fileName||a.filename||a.m&&a.m.target&&a.m.target.src,l:a.l||a.line||a.lineno||a.lineNumber,c:a.c?""+a.c:a.c,s:[],t:m.ue.d(),name:a.name,type:a.type,csm:J+" "+(a.fromOnError?"onerror":
"ueLogError")},c,d,f=0,g=0,k;d=l.location;c=a.stack||(a.err?a.err.stack:"");b[y]=e[y]||d&&d.href||"missing";b[p]=e[p]||z;(d=e[q])&&(b[q]=""+d);if(c&&c.split)for(b.csm+=" stack",d=c.split("\n");f<d.length&&b.s.length<A;)(c=d[f++])&&b.s.push(I(c));else for(b.csm+=" callee",d=B(a.args||arguments,"callee"),g=f=0;d&&f<A;)k=v,d[s]||(c=d.toString())&&c.substr&&(k=0===g?4*v:k,k=1==g?2*v:k,b.s.push(c.substr(0,k)),g++),d=B(d,"caller"),f++;!b.f&&0<b.s.length&&(f=b,c=(f||{}).s||[],d=c[1]||"",c=(c[0]||"").match(K)||
d.match(L))&&(f.f=c[1],f.l=c[2]);return b}function B(a,e){try{return a[e]}catch(b){}}function C(a,e){if(a&&!(h.ec>h.mxe)){h.ec++;h.ter.push(a);e=e||{};var b=a[p]||e[p];e[p]=b;e[q]=a[q]||e[q];b&&b!=z||h.ecf++;w(a,e)}}function w(a,e){if(a){var b=x(a,e),c=e.channel||M;if(ue.log.isStub&&l[t]&&l[t][u]){var d={};d[c]=b;try{var f=l[t][u]({rid:ue.rid,sid:m.ue_sid,mid:m.ue_mid,sn:m.ue_sn,reqs:[d]}),g=l[N],k;if(k=!(g[D]&&g[D](E,f)))if(l[F]){var h=new l[F];h.onerror=r;h.ontimeout=r;h.onprogress=r;h.onload=r;
h.timeout=0;k=h}else if(l[G]){var n=new l[G];k="withCredentials"in n?n:void 0}else k=void 0;if(c=k){c.open("POST",E,!0);if(c[H])c[H]("Content-type","text/plain");c.send(f)}}catch(p){}}else m.ue.log(b,c,{n:1});f=l.console||{};c=f.error||f.log||r;d=l[t];g="Error logged: ";if(d&&d[u])try{g+=d[u](b)}catch(q){g+="no info provided; converting to string failed"}else g+=b.m;c.apply(f,[g,b])}}var G="XMLHttpRequest",F="XDomainRequest",N="navigator",D="sendBeacon",u="stringify",t="JSON",p="logLevel",q="attribution",
y="pageURL",s="skipTrace",H="setRequestHeader",n="message",r=function(){},E="//"+m.ue_furl+"/1/batch/1/OE/",h=m.ue_err,M=m.ue_err_chan||"jserr",z="FATAL",J="v6",A=20,v=256,L=/\(?([^\s]*):(\d+):\d+\)?/,K=/.*@(.*):(\d*)/;x[s]=1;C[s]=1;w[s]=1;(function(){for(var a,e=0;e<(h.erl||[]).length;e++)a=h.erl[e],w(a.ex,a.info);h.erl=[]})();m.ueLogError=C})(ue_csm,window);

</script>
<script type='text/javascript'>
(function(c,d){var b=c.ue,a=d.navigator;b&&b.tag&&a&&(a=a.connection||a.mozConnection||a.webkitConnection)&&a.type&&b.tag("netInfo:"+a.type)})(ue_csm,window);

</script>
<script type="text/javascript">
//<![CDATA[
    try
    {
        parent.$('amazon_customer_reviews').style.width = '100%';
        parent.$('amazon_customer_reviews').style.display = 'block';
        parent.$('amazon_customer_reviews').style.height = getBodyHeight() + 'px';
    }
    catch(err)
    {
        // ---
    }

    function getBodyHeight()
    {
        var frameBody = document.body, frameHtml = document.documentElement, myHeight = 0;
        if (frameBody.scrollHeight > myHeight) myHeight = frameBody.scrollHeight;
        if (frameBody.offsetHeight > myHeight) myHeight = frameBody.offsetHeight;
        if (frameHtml.clientHeight > myHeight) myHeight = frameHtml.clientHeight;
        if (frameHtml.scrollHeight > myHeight) myHeight = frameHtml.scrollHeight;
        if (frameHtml.offsetHeight > myHeight) myHeight = frameHtml.offsetHeight;
        return myHeight;
    }
//]]>
</script></body>
</html>






















